GAS LISTING C:\Users\sw46\AppData\Local\Temp\ccD5jbx2.s 			page 1


   1              		.file	"irq.c"
   2              		.section	".text","axv"
   3              	.Ltext0:
   4              		.cfi_sections	.debug_frame
   5              		.section	.text.irqInit,"axv",@progbits
   6              		.align 1
   7              		.p2align 4,,15
   8              		.globl irqInit
   9              		.type	irqInit, @function
  10              	irqInit:
  11              	.LFB2:
  12              		.file 1 "./components/spc56elxx_irq_component_rla/lib/src/irq.c"
  13              		.loc 1 59 0
  14              		.cfi_startproc
  15 0000 182106F8 		e_stwu %r1,-8(%r1)
  16              	.LCFI0:
  17              		.cfi_def_cfa_offset 8
  18 0004 0080     		se_mflr %r0
  19 0006 D301     		se_stw %r0,12(%r1)
  20              		.cfi_offset 65, 4
  21              		.loc 1 61 0
  22 0008 78000001 		e_bl irq_cfg_init
  23              	.LVL0:
  24              		.loc 1 70 0
  25 000c 71200000 		e_li %r9,0
  26 0010 715FE7F4 		e_lis %r10,0xfff4
  27 0014 194AD180 		e_ori %r10,%r10,32768
  28 0018 552A0000 		e_stw %r9,0(%r10)
  29              		.loc 1 73 0
  30 001c 194A8008 		e_addi %r10,%r10,8
  31 0020 552A0000 		e_stw %r9,0(%r10)
  32              		.loc 1 74 0
  33 0024 194A8008 		e_addi %r10,%r10,8
  34 0028 7120E000 		e_lis %r9,_vectors@ha
  35 002c 1D290000 		e_la %r9,_vectors@l(%r9)
  36 0030 552A0000 		e_stw %r9,0(%r10)
  37              		.loc 1 95 0
  38 0034 C301     		se_lwz %r0,12(%r1)
  39 0036 0090     		se_mtlr %r0
  40              		.cfi_restore 65
  41 0038 2071     		se_addi %r1,8
  42              	.LCFI1:
  43              		.cfi_def_cfa_offset 0
  44 003a 0004     		se_blr
  45              		.cfi_endproc
  46              	.LFE2:
  47              		.size	irqInit, .-irqInit
  48              		.section	.text.irqSysHalt,"axv",@progbits
  49              		.align 1
  50              		.p2align 4,,15
  51              		.weak	irqSysHalt
  52              		.type	irqSysHalt, @function
  53              	irqSysHalt:
  54              	.LFB3:
  55              		.loc 1 106 0
  56              		.cfi_startproc
  57              	.LBB4:
GAS LISTING C:\Users\sw46\AppData\Local\Temp\ccD5jbx2.s 			page 2


  58              	.LBB5:
  59              		.file 2 "./components/spc56elxx_irq_component_rla/lib/include/irq.h"
  60              		.loc 2 92 0
  61              	 # 92 "./components/spc56elxx_irq_component_rla/lib/include/irq.h" 1
  62 0000 7C000146 		wrteei  0
  63              	 # 0 "" 2
  64              	.L3:
  65              	.LBE5:
  66              	.LBE4:
  67              		.loc 1 110 0 discriminator 1
  68 0004 78000000 		e_b .L3
  69              		.cfi_endproc
  70              	.LFE3:
  71              		.size	irqSysHalt, .-irqSysHalt
  72              		.section	".text","axv"
  73              	.Letext0:
  74              		.file 3 "c:\\spc5studio\\eclipse\\plugins\\com.st.tools.spc5.tools.gnu.gcc.ppcvle.win32_1.0.0.2016
  75              		.file 4 "c:\\spc5studio\\eclipse\\plugins\\com.st.tools.spc5.tools.gnu.gcc.ppcvle.win32_1.0.0.2016
  76              		.file 5 "./components/spc56elxx_irq_component_rla/lib/include/vectors.h"
  77              		.file 6 "./components/spc56elxx_irq_component_rla/cfg/irq_cfg.h"
  78              		.section	.debug_info,"",@progbits
  79              	.Ldebug_info0:
  80 0000 0000011C 		.4byte	0x11c
  81 0004 0002     		.2byte	0x2
  82 0006 00000000 		.4byte	.Ldebug_abbrev0
  83 000a 04       		.byte	0x4
  84 000b 01       		.uleb128 0x1
  85 000c 00000000 		.4byte	.LASF16
  86 0010 01       		.byte	0x1
  87 0011 00000000 		.4byte	.LASF17
  88 0015 00000000 		.4byte	.LASF18
  89 0019 00000000 		.4byte	.Ldebug_ranges0+0
  90 001d 00000000 		.4byte	0
  91 0021 00000000 		.4byte	0
  92 0025 00000000 		.4byte	.Ldebug_line0
  93 0029 02       		.uleb128 0x2
  94 002a 01       		.byte	0x1
  95 002b 06       		.byte	0x6
  96 002c 00000000 		.4byte	.LASF0
  97 0030 03       		.uleb128 0x3
  98 0031 00000000 		.4byte	.LASF5
  99 0035 03       		.byte	0x3
 100 0036 1D       		.byte	0x1d
 101 0037 0000003B 		.4byte	0x3b
 102 003b 02       		.uleb128 0x2
 103 003c 01       		.byte	0x1
 104 003d 08       		.byte	0x8
 105 003e 00000000 		.4byte	.LASF1
 106 0042 02       		.uleb128 0x2
 107 0043 02       		.byte	0x2
 108 0044 05       		.byte	0x5
 109 0045 00000000 		.4byte	.LASF2
 110 0049 02       		.uleb128 0x2
 111 004a 02       		.byte	0x2
 112 004b 07       		.byte	0x7
 113 004c 00000000 		.4byte	.LASF3
 114 0050 02       		.uleb128 0x2
GAS LISTING C:\Users\sw46\AppData\Local\Temp\ccD5jbx2.s 			page 3


 115 0051 04       		.byte	0x4
 116 0052 05       		.byte	0x5
 117 0053 00000000 		.4byte	.LASF4
 118 0057 03       		.uleb128 0x3
 119 0058 00000000 		.4byte	.LASF6
 120 005c 03       		.byte	0x3
 121 005d 41       		.byte	0x41
 122 005e 00000062 		.4byte	0x62
 123 0062 02       		.uleb128 0x2
 124 0063 04       		.byte	0x4
 125 0064 07       		.byte	0x7
 126 0065 00000000 		.4byte	.LASF7
 127 0069 02       		.uleb128 0x2
 128 006a 08       		.byte	0x8
 129 006b 05       		.byte	0x5
 130 006c 00000000 		.4byte	.LASF8
 131 0070 02       		.uleb128 0x2
 132 0071 08       		.byte	0x8
 133 0072 07       		.byte	0x7
 134 0073 00000000 		.4byte	.LASF9
 135 0077 04       		.uleb128 0x4
 136 0078 04       		.byte	0x4
 137 0079 05       		.byte	0x5
 138 007a 696E7400 		.string	"int"
 139 007e 02       		.uleb128 0x2
 140 007f 04       		.byte	0x4
 141 0080 07       		.byte	0x7
 142 0081 00000000 		.4byte	.LASF10
 143 0085 03       		.uleb128 0x3
 144 0086 00000000 		.4byte	.LASF11
 145 008a 04       		.byte	0x4
 146 008b 15       		.byte	0x15
 147 008c 00000030 		.4byte	0x30
 148 0090 03       		.uleb128 0x3
 149 0091 00000000 		.4byte	.LASF12
 150 0095 04       		.byte	0x4
 151 0096 2D       		.byte	0x2d
 152 0097 00000057 		.4byte	0x57
 153 009b 02       		.uleb128 0x2
 154 009c 04       		.byte	0x4
 155 009d 07       		.byte	0x7
 156 009e 00000000 		.4byte	.LASF13
 157 00a2 05       		.uleb128 0x5
 158 00a3 00000000 		.4byte	.LASF19
 159 00a7 02       		.byte	0x2
 160 00a8 57       		.byte	0x57
 161 00a9 01       		.byte	0x1
 162 00aa 03       		.byte	0x3
 163 00ab 06       		.uleb128 0x6
 164 00ac 01       		.byte	0x1
 165 00ad 00000000 		.4byte	.LASF14
 166 00b1 01       		.byte	0x1
 167 00b2 3B       		.byte	0x3b
 168 00b3 01       		.byte	0x1
 169 00b4 00000000 		.4byte	.LFB2
 170 00b8 00000000 		.4byte	.LFE2
 171 00bc 00000000 		.4byte	.LLST0
GAS LISTING C:\Users\sw46\AppData\Local\Temp\ccD5jbx2.s 			page 4


 172 00c0 01       		.byte	0x1
 173 00c1 000000CF 		.4byte	0xcf
 174 00c5 07       		.uleb128 0x7
 175 00c6 00000000 		.4byte	.LVL0
 176 00ca 00000115 		.4byte	0x115
 177 00ce 00       		.byte	0
 178 00cf 08       		.uleb128 0x8
 179 00d0 01       		.byte	0x1
 180 00d1 00000000 		.4byte	.LASF15
 181 00d5 01       		.byte	0x1
 182 00d6 6A       		.byte	0x6a
 183 00d7 01       		.byte	0x1
 184 00d8 00000000 		.4byte	.LFB3
 185 00dc 00000000 		.4byte	.LFE3
 186 00e0 02       		.byte	0x2
 187 00e1 71       		.byte	0x71
 188 00e2 00       		.sleb128 0
 189 00e3 01       		.byte	0x1
 190 00e4 000000F8 		.4byte	0xf8
 191 00e8 09       		.uleb128 0x9
 192 00e9 000000A2 		.4byte	0xa2
 193 00ed 00000000 		.4byte	.LBB4
 194 00f1 00000000 		.4byte	.LBE4
 195 00f5 01       		.byte	0x1
 196 00f6 6C       		.byte	0x6c
 197 00f7 00       		.byte	0
 198 00f8 0A       		.uleb128 0xa
 199 00f9 00000090 		.4byte	0x90
 200 00fd 00000108 		.4byte	0x108
 201 0101 0B       		.uleb128 0xb
 202 0102 0000009B 		.4byte	0x9b
 203 0106 FF       		.byte	0xff
 204 0107 00       		.byte	0
 205 0108 0C       		.uleb128 0xc
 206 0109 00000000 		.4byte	.LASF20
 207 010d 05       		.byte	0x5
 208 010e 3C       		.byte	0x3c
 209 010f 000000F8 		.4byte	0xf8
 210 0113 01       		.byte	0x1
 211 0114 01       		.byte	0x1
 212 0115 0D       		.uleb128 0xd
 213 0116 01       		.byte	0x1
 214 0117 00000000 		.4byte	.LASF21
 215 011b 06       		.byte	0x6
 216 011c 6B       		.byte	0x6b
 217 011d 01       		.byte	0x1
 218 011e 01       		.byte	0x1
 219 011f 00       		.byte	0
 220              		.section	.debug_abbrev,"",@progbits
 221              	.Ldebug_abbrev0:
 222 0000 01       		.uleb128 0x1
 223 0001 11       		.uleb128 0x11
 224 0002 01       		.byte	0x1
 225 0003 25       		.uleb128 0x25
 226 0004 0E       		.uleb128 0xe
 227 0005 13       		.uleb128 0x13
 228 0006 0B       		.uleb128 0xb
GAS LISTING C:\Users\sw46\AppData\Local\Temp\ccD5jbx2.s 			page 5


 229 0007 03       		.uleb128 0x3
 230 0008 0E       		.uleb128 0xe
 231 0009 1B       		.uleb128 0x1b
 232 000a 0E       		.uleb128 0xe
 233 000b 55       		.uleb128 0x55
 234 000c 06       		.uleb128 0x6
 235 000d 11       		.uleb128 0x11
 236 000e 01       		.uleb128 0x1
 237 000f 52       		.uleb128 0x52
 238 0010 01       		.uleb128 0x1
 239 0011 10       		.uleb128 0x10
 240 0012 06       		.uleb128 0x6
 241 0013 00       		.byte	0
 242 0014 00       		.byte	0
 243 0015 02       		.uleb128 0x2
 244 0016 24       		.uleb128 0x24
 245 0017 00       		.byte	0
 246 0018 0B       		.uleb128 0xb
 247 0019 0B       		.uleb128 0xb
 248 001a 3E       		.uleb128 0x3e
 249 001b 0B       		.uleb128 0xb
 250 001c 03       		.uleb128 0x3
 251 001d 0E       		.uleb128 0xe
 252 001e 00       		.byte	0
 253 001f 00       		.byte	0
 254 0020 03       		.uleb128 0x3
 255 0021 16       		.uleb128 0x16
 256 0022 00       		.byte	0
 257 0023 03       		.uleb128 0x3
 258 0024 0E       		.uleb128 0xe
 259 0025 3A       		.uleb128 0x3a
 260 0026 0B       		.uleb128 0xb
 261 0027 3B       		.uleb128 0x3b
 262 0028 0B       		.uleb128 0xb
 263 0029 49       		.uleb128 0x49
 264 002a 13       		.uleb128 0x13
 265 002b 00       		.byte	0
 266 002c 00       		.byte	0
 267 002d 04       		.uleb128 0x4
 268 002e 24       		.uleb128 0x24
 269 002f 00       		.byte	0
 270 0030 0B       		.uleb128 0xb
 271 0031 0B       		.uleb128 0xb
 272 0032 3E       		.uleb128 0x3e
 273 0033 0B       		.uleb128 0xb
 274 0034 03       		.uleb128 0x3
 275 0035 08       		.uleb128 0x8
 276 0036 00       		.byte	0
 277 0037 00       		.byte	0
 278 0038 05       		.uleb128 0x5
 279 0039 2E       		.uleb128 0x2e
 280 003a 00       		.byte	0
 281 003b 03       		.uleb128 0x3
 282 003c 0E       		.uleb128 0xe
 283 003d 3A       		.uleb128 0x3a
 284 003e 0B       		.uleb128 0xb
 285 003f 3B       		.uleb128 0x3b
GAS LISTING C:\Users\sw46\AppData\Local\Temp\ccD5jbx2.s 			page 6


 286 0040 0B       		.uleb128 0xb
 287 0041 27       		.uleb128 0x27
 288 0042 0C       		.uleb128 0xc
 289 0043 20       		.uleb128 0x20
 290 0044 0B       		.uleb128 0xb
 291 0045 00       		.byte	0
 292 0046 00       		.byte	0
 293 0047 06       		.uleb128 0x6
 294 0048 2E       		.uleb128 0x2e
 295 0049 01       		.byte	0x1
 296 004a 3F       		.uleb128 0x3f
 297 004b 0C       		.uleb128 0xc
 298 004c 03       		.uleb128 0x3
 299 004d 0E       		.uleb128 0xe
 300 004e 3A       		.uleb128 0x3a
 301 004f 0B       		.uleb128 0xb
 302 0050 3B       		.uleb128 0x3b
 303 0051 0B       		.uleb128 0xb
 304 0052 27       		.uleb128 0x27
 305 0053 0C       		.uleb128 0xc
 306 0054 11       		.uleb128 0x11
 307 0055 01       		.uleb128 0x1
 308 0056 12       		.uleb128 0x12
 309 0057 01       		.uleb128 0x1
 310 0058 40       		.uleb128 0x40
 311 0059 06       		.uleb128 0x6
 312 005a 9742     		.uleb128 0x2117
 313 005c 0C       		.uleb128 0xc
 314 005d 01       		.uleb128 0x1
 315 005e 13       		.uleb128 0x13
 316 005f 00       		.byte	0
 317 0060 00       		.byte	0
 318 0061 07       		.uleb128 0x7
 319 0062 898201   		.uleb128 0x4109
 320 0065 00       		.byte	0
 321 0066 11       		.uleb128 0x11
 322 0067 01       		.uleb128 0x1
 323 0068 31       		.uleb128 0x31
 324 0069 13       		.uleb128 0x13
 325 006a 00       		.byte	0
 326 006b 00       		.byte	0
 327 006c 08       		.uleb128 0x8
 328 006d 2E       		.uleb128 0x2e
 329 006e 01       		.byte	0x1
 330 006f 3F       		.uleb128 0x3f
 331 0070 0C       		.uleb128 0xc
 332 0071 03       		.uleb128 0x3
 333 0072 0E       		.uleb128 0xe
 334 0073 3A       		.uleb128 0x3a
 335 0074 0B       		.uleb128 0xb
 336 0075 3B       		.uleb128 0x3b
 337 0076 0B       		.uleb128 0xb
 338 0077 27       		.uleb128 0x27
 339 0078 0C       		.uleb128 0xc
 340 0079 11       		.uleb128 0x11
 341 007a 01       		.uleb128 0x1
 342 007b 12       		.uleb128 0x12
GAS LISTING C:\Users\sw46\AppData\Local\Temp\ccD5jbx2.s 			page 7


 343 007c 01       		.uleb128 0x1
 344 007d 40       		.uleb128 0x40
 345 007e 0A       		.uleb128 0xa
 346 007f 9742     		.uleb128 0x2117
 347 0081 0C       		.uleb128 0xc
 348 0082 01       		.uleb128 0x1
 349 0083 13       		.uleb128 0x13
 350 0084 00       		.byte	0
 351 0085 00       		.byte	0
 352 0086 09       		.uleb128 0x9
 353 0087 1D       		.uleb128 0x1d
 354 0088 00       		.byte	0
 355 0089 31       		.uleb128 0x31
 356 008a 13       		.uleb128 0x13
 357 008b 11       		.uleb128 0x11
 358 008c 01       		.uleb128 0x1
 359 008d 12       		.uleb128 0x12
 360 008e 01       		.uleb128 0x1
 361 008f 58       		.uleb128 0x58
 362 0090 0B       		.uleb128 0xb
 363 0091 59       		.uleb128 0x59
 364 0092 0B       		.uleb128 0xb
 365 0093 00       		.byte	0
 366 0094 00       		.byte	0
 367 0095 0A       		.uleb128 0xa
 368 0096 01       		.uleb128 0x1
 369 0097 01       		.byte	0x1
 370 0098 49       		.uleb128 0x49
 371 0099 13       		.uleb128 0x13
 372 009a 01       		.uleb128 0x1
 373 009b 13       		.uleb128 0x13
 374 009c 00       		.byte	0
 375 009d 00       		.byte	0
 376 009e 0B       		.uleb128 0xb
 377 009f 21       		.uleb128 0x21
 378 00a0 00       		.byte	0
 379 00a1 49       		.uleb128 0x49
 380 00a2 13       		.uleb128 0x13
 381 00a3 2F       		.uleb128 0x2f
 382 00a4 0B       		.uleb128 0xb
 383 00a5 00       		.byte	0
 384 00a6 00       		.byte	0
 385 00a7 0C       		.uleb128 0xc
 386 00a8 34       		.uleb128 0x34
 387 00a9 00       		.byte	0
 388 00aa 03       		.uleb128 0x3
 389 00ab 0E       		.uleb128 0xe
 390 00ac 3A       		.uleb128 0x3a
 391 00ad 0B       		.uleb128 0xb
 392 00ae 3B       		.uleb128 0x3b
 393 00af 0B       		.uleb128 0xb
 394 00b0 49       		.uleb128 0x49
 395 00b1 13       		.uleb128 0x13
 396 00b2 3F       		.uleb128 0x3f
 397 00b3 0C       		.uleb128 0xc
 398 00b4 3C       		.uleb128 0x3c
 399 00b5 0C       		.uleb128 0xc
GAS LISTING C:\Users\sw46\AppData\Local\Temp\ccD5jbx2.s 			page 8


 400 00b6 00       		.byte	0
 401 00b7 00       		.byte	0
 402 00b8 0D       		.uleb128 0xd
 403 00b9 2E       		.uleb128 0x2e
 404 00ba 00       		.byte	0
 405 00bb 3F       		.uleb128 0x3f
 406 00bc 0C       		.uleb128 0xc
 407 00bd 03       		.uleb128 0x3
 408 00be 0E       		.uleb128 0xe
 409 00bf 3A       		.uleb128 0x3a
 410 00c0 0B       		.uleb128 0xb
 411 00c1 3B       		.uleb128 0x3b
 412 00c2 0B       		.uleb128 0xb
 413 00c3 27       		.uleb128 0x27
 414 00c4 0C       		.uleb128 0xc
 415 00c5 3C       		.uleb128 0x3c
 416 00c6 0C       		.uleb128 0xc
 417 00c7 00       		.byte	0
 418 00c8 00       		.byte	0
 419 00c9 00       		.byte	0
 420              		.section	.debug_loc,"",@progbits
 421              	.Ldebug_loc0:
 422              	.LLST0:
 423 0000 00000000 		.4byte	.LFB2
 424 0004 00000000 		.4byte	.LCFI0
 425 0008 0002     		.2byte	0x2
 426 000a 71       		.byte	0x71
 427 000b 00       		.sleb128 0
 428 000c 00000000 		.4byte	.LCFI0
 429 0010 00000000 		.4byte	.LCFI1
 430 0014 0002     		.2byte	0x2
 431 0016 71       		.byte	0x71
 432 0017 08       		.sleb128 8
 433 0018 00000000 		.4byte	.LCFI1
 434 001c 00000000 		.4byte	.LFE2
 435 0020 0002     		.2byte	0x2
 436 0022 71       		.byte	0x71
 437 0023 00       		.sleb128 0
 438 0024 00000000 		.4byte	0
 439 0028 00000000 		.4byte	0
 440              		.section	.debug_aranges,"",@progbits
 441 0000 00000024 		.4byte	0x24
 442 0004 0002     		.2byte	0x2
 443 0006 00000000 		.4byte	.Ldebug_info0
 444 000a 04       		.byte	0x4
 445 000b 00       		.byte	0
 446 000c 0000     		.2byte	0
 447 000e 0000     		.2byte	0
 448 0010 00000000 		.4byte	.LFB2
 449 0014 0000003C 		.4byte	.LFE2-.LFB2
 450 0018 00000000 		.4byte	.LFB3
 451 001c 00000008 		.4byte	.LFE3-.LFB3
 452 0020 00000000 		.4byte	0
 453 0024 00000000 		.4byte	0
 454              		.section	.debug_ranges,"",@progbits
 455              	.Ldebug_ranges0:
 456 0000 00000000 		.4byte	.LFB2
GAS LISTING C:\Users\sw46\AppData\Local\Temp\ccD5jbx2.s 			page 9


 457 0004 00000000 		.4byte	.LFE2
 458 0008 00000000 		.4byte	.LFB3
 459 000c 00000000 		.4byte	.LFE3
 460 0010 00000000 		.4byte	0
 461 0014 00000000 		.4byte	0
 462              		.section	.debug_line,"",@progbits
 463              	.Ldebug_line0:
 464 0000 00000236 		.section	.debug_str,"MS",@progbits,1
 464      00020000 
 464      01FA0201 
 464      FB0E0D00 
 464      01010101 
 465              	.LASF21:
 466 0000 6972715F 		.string	"irq_cfg_init"
 466      6366675F 
 466      696E6974 
 466      00
 467              	.LASF10:
 468 000d 756E7369 		.string	"unsigned int"
 468      676E6564 
 468      20696E74 
 468      00
 469              	.LASF6:
 470 001a 5F5F7569 		.string	"__uint32_t"
 470      6E743332 
 470      5F7400
 471              	.LASF18:
 472 0025 433A5C55 		.string	"C:\\Users\\sw46\\Documents\\SPCStudio v5.0\\SPC564L_RLA_Motor_Control_Demo_Application"
 472      73657273 
 472      5C737734 
 472      365C446F 
 472      63756D65 
 473              	.LASF7:
 474 0077 6C6F6E67 		.string	"long unsigned int"
 474      20756E73 
 474      69676E65 
 474      6420696E 
 474      7400
 475              	.LASF9:
 476 0089 6C6F6E67 		.string	"long long unsigned int"
 476      206C6F6E 
 476      6720756E 
 476      7369676E 
 476      65642069 
 477              	.LASF5:
 478 00a0 5F5F7569 		.string	"__uint8_t"
 478      6E74385F 
 478      7400
 479              	.LASF14:
 480 00aa 69727149 		.string	"irqInit"
 480      6E697400 
 481              	.LASF11:
 482 00b2 75696E74 		.string	"uint8_t"
 482      385F7400 
 483              	.LASF1:
 484 00ba 756E7369 		.string	"unsigned char"
 484      676E6564 
GAS LISTING C:\Users\sw46\AppData\Local\Temp\ccD5jbx2.s 			page 10


 484      20636861 
 484      7200
 485              	.LASF12:
 486 00c8 75696E74 		.string	"uint32_t"
 486      33325F74 
 486      00
 487              	.LASF4:
 488 00d1 6C6F6E67 		.string	"long int"
 488      20696E74 
 488      00
 489              	.LASF16:
 490 00da 474E5520 		.string	"GNU C 4.9.2 20141030 (Mon Nov 23 22:27:42 EST 2015         build.sh rev= ELvle) -mcall-sy
 490      4320342E 
 490      392E3220 
 490      32303134 
 490      31303330 
 491              	.LASF8:
 492 01da 6C6F6E67 		.string	"long long int"
 492      206C6F6E 
 492      6720696E 
 492      7400
 493              	.LASF20:
 494 01e8 5F766563 		.string	"_vectors"
 494      746F7273 
 494      00
 495              	.LASF3:
 496 01f1 73686F72 		.string	"short unsigned int"
 496      7420756E 
 496      7369676E 
 496      65642069 
 496      6E7400
 497              	.LASF0:
 498 0204 7369676E 		.string	"signed char"
 498      65642063 
 498      68617200 
 499              	.LASF15:
 500 0210 69727153 		.string	"irqSysHalt"
 500      79734861 
 500      6C7400
 501              	.LASF19:
 502 021b 69727149 		.string	"irqIsrDisable"
 502      73724469 
 502      7361626C 
 502      6500
 503              	.LASF2:
 504 0229 73686F72 		.string	"short int"
 504      7420696E 
 504      7400
 505              	.LASF17:
 506 0233 2E2F636F 		.string	"./components/spc56elxx_irq_component_rla/lib/src/irq.c"
 506      6D706F6E 
 506      656E7473 
 506      2F737063 
 506      3536656C 
 507              	.LASF13:
 508 026a 73697A65 		.string	"sizetype"
 508      74797065 
GAS LISTING C:\Users\sw46\AppData\Local\Temp\ccD5jbx2.s 			page 11


 508      00
 509              		.ident	"GCC: (GNU) 4.9.2 20141030 (Mon Nov 23 22:27:42 EST 2015         build.sh rev= ELvle)"
GAS LISTING C:\Users\sw46\AppData\Local\Temp\ccD5jbx2.s 			page 12


DEFINED SYMBOLS
                            *ABS*:00000000 irq.c
C:\Users\sw46\AppData\Local\Temp\ccD5jbx2.s:10     .text.irqInit:00000000 irqInit
C:\Users\sw46\AppData\Local\Temp\ccD5jbx2.s:53     .text.irqSysHalt:00000000 irqSysHalt

UNDEFINED SYMBOLS
irq_cfg_init
_vectors
