GAS LISTING C:\Users\sw46\AppData\Local\Temp\ccrxtK7t.s 			page 1


   1              		.file	"MC_Lib_Setup.c"
   2              		.section	".text","axv"
   3              	.Ltext0:
   4              		.cfi_sections	.debug_frame
   5              		.section	.text.STM_Configuration,"axv",@progbits
   6              		.align 1
   7              		.p2align 4,,15
   8              		.globl STM_Configuration
   9              		.type	STM_Configuration, @function
  10              	STM_Configuration:
  11              	.LFB0:
  12              		.file 1 "./components/spc56xx_motor_control_component/lib/System/src/MC_Lib_Setup.c"
  13              		.loc 1 253 0
  14              		.cfi_startproc
  15              	.LVL0:
  16              		.loc 1 255 0
  17 0000 7120E000 		e_lis %r9,STM_BASE_ADDR@ha
  18 0004 51290000 		e_lwz %r9,STM_BASE_ADDR@l(%r9)
  19 0008 71400000 		e_li %r10,0
  20 000c 55490000 		e_stw %r10,0(%r9)
  21              		.loc 1 256 0
  22 0010 54690018 		e_stw %r3,24(%r9)
  23              		.loc 1 257 0
  24 0014 71400001 		e_li %r10,1
  25 0018 55490010 		e_stw %r10,16(%r9)
  26              		.loc 1 258 0
  27 001c 55490000 		e_stw %r10,0(%r9)
  28              		.loc 1 267 0
  29 0020 4803     		se_li %r3,0
  30              	.LVL1:
  31 0022 0004     		se_blr
  32              		.cfi_endproc
  33              	.LFE0:
  34              		.size	STM_Configuration, .-STM_Configuration
  35              		.section	".text","axv"
  36              	.Letext0:
  37              		.file 2 "./components/spc56xx_motor_control_component/lib/LLD_Library/SPC56EL/include/Platform_Typ
  38              		.file 3 "./components/spc56xx_motor_control_component/lib/LLD_Library/SPC56EL/include/Reg_eSys_Stm
  39              		.section	.debug_info,"",@progbits
  40              	.Ldebug_info0:
  41 0000 000000E1 		.4byte	0xe1
  42 0004 0002     		.2byte	0x2
  43 0006 00000000 		.4byte	.Ldebug_abbrev0
  44 000a 04       		.byte	0x4
  45 000b 01       		.uleb128 0x1
  46 000c 00000000 		.4byte	.LASF14
  47 0010 01       		.byte	0x1
  48 0011 00000000 		.4byte	.LASF15
  49 0015 00000000 		.4byte	.LASF16
  50 0019 00000000 		.4byte	.Ldebug_ranges0+0
  51 001d 00000000 		.4byte	0
  52 0021 00000000 		.4byte	0
  53 0025 00000000 		.4byte	.Ldebug_line0
  54 0029 02       		.uleb128 0x2
  55 002a 01       		.byte	0x1
  56 002b 06       		.byte	0x6
  57 002c 00000000 		.4byte	.LASF0
GAS LISTING C:\Users\sw46\AppData\Local\Temp\ccrxtK7t.s 			page 2


  58 0030 02       		.uleb128 0x2
  59 0031 01       		.byte	0x1
  60 0032 08       		.byte	0x8
  61 0033 00000000 		.4byte	.LASF1
  62 0037 02       		.uleb128 0x2
  63 0038 02       		.byte	0x2
  64 0039 05       		.byte	0x5
  65 003a 00000000 		.4byte	.LASF2
  66 003e 02       		.uleb128 0x2
  67 003f 02       		.byte	0x2
  68 0040 07       		.byte	0x7
  69 0041 00000000 		.4byte	.LASF3
  70 0045 02       		.uleb128 0x2
  71 0046 04       		.byte	0x4
  72 0047 05       		.byte	0x5
  73 0048 00000000 		.4byte	.LASF4
  74 004c 02       		.uleb128 0x2
  75 004d 04       		.byte	0x4
  76 004e 07       		.byte	0x7
  77 004f 00000000 		.4byte	.LASF5
  78 0053 02       		.uleb128 0x2
  79 0054 08       		.byte	0x8
  80 0055 05       		.byte	0x5
  81 0056 00000000 		.4byte	.LASF6
  82 005a 02       		.uleb128 0x2
  83 005b 08       		.byte	0x8
  84 005c 07       		.byte	0x7
  85 005d 00000000 		.4byte	.LASF7
  86 0061 03       		.uleb128 0x3
  87 0062 04       		.byte	0x4
  88 0063 05       		.byte	0x5
  89 0064 696E7400 		.string	"int"
  90 0068 02       		.uleb128 0x2
  91 0069 04       		.byte	0x4
  92 006a 07       		.byte	0x7
  93 006b 00000000 		.4byte	.LASF8
  94 006f 02       		.uleb128 0x2
  95 0070 04       		.byte	0x4
  96 0071 07       		.byte	0x7
  97 0072 00000000 		.4byte	.LASF9
  98 0076 04       		.uleb128 0x4
  99 0077 00000000 		.4byte	.LASF10
 100 007b 02       		.byte	0x2
 101 007c B9       		.byte	0xb9
 102 007d 00000030 		.4byte	0x30
 103 0081 04       		.uleb128 0x4
 104 0082 00000000 		.4byte	.LASF11
 105 0086 02       		.byte	0x2
 106 0087 C7       		.byte	0xc7
 107 0088 0000004C 		.4byte	0x4c
 108 008c 02       		.uleb128 0x2
 109 008d 04       		.byte	0x4
 110 008e 04       		.byte	0x4
 111 008f 00000000 		.4byte	.LASF12
 112 0093 02       		.uleb128 0x2
 113 0094 08       		.byte	0x8
 114 0095 04       		.byte	0x4
GAS LISTING C:\Users\sw46\AppData\Local\Temp\ccrxtK7t.s 			page 3


 115 0096 00000000 		.4byte	.LASF13
 116 009a 05       		.uleb128 0x5
 117 009b 01       		.byte	0x1
 118 009c 00000000 		.4byte	.LASF17
 119 00a0 01       		.byte	0x1
 120 00a1 FC       		.byte	0xfc
 121 00a2 01       		.byte	0x1
 122 00a3 00000076 		.4byte	0x76
 123 00a7 00000000 		.4byte	.LFB0
 124 00ab 00000000 		.4byte	.LFE0
 125 00af 02       		.byte	0x2
 126 00b0 71       		.byte	0x71
 127 00b1 00       		.sleb128 0
 128 00b2 01       		.byte	0x1
 129 00b3 000000C7 		.4byte	0xc7
 130 00b7 06       		.uleb128 0x6
 131 00b8 00000000 		.4byte	.LASF18
 132 00bc 01       		.byte	0x1
 133 00bd FC       		.byte	0xfc
 134 00be 00000081 		.4byte	0x81
 135 00c2 00000000 		.4byte	.LLST0
 136 00c6 00       		.byte	0
 137 00c7 07       		.uleb128 0x7
 138 00c8 00000081 		.4byte	0x81
 139 00cc 000000D2 		.4byte	0xd2
 140 00d0 08       		.uleb128 0x8
 141 00d1 00       		.byte	0
 142 00d2 09       		.uleb128 0x9
 143 00d3 00000000 		.4byte	.LASF19
 144 00d7 03       		.byte	0x3
 145 00d8 75       		.byte	0x75
 146 00d9 000000DF 		.4byte	0xdf
 147 00dd 01       		.byte	0x1
 148 00de 01       		.byte	0x1
 149 00df 0A       		.uleb128 0xa
 150 00e0 000000C7 		.4byte	0xc7
 151 00e4 00       		.byte	0
 152              		.section	.debug_abbrev,"",@progbits
 153              	.Ldebug_abbrev0:
 154 0000 01       		.uleb128 0x1
 155 0001 11       		.uleb128 0x11
 156 0002 01       		.byte	0x1
 157 0003 25       		.uleb128 0x25
 158 0004 0E       		.uleb128 0xe
 159 0005 13       		.uleb128 0x13
 160 0006 0B       		.uleb128 0xb
 161 0007 03       		.uleb128 0x3
 162 0008 0E       		.uleb128 0xe
 163 0009 1B       		.uleb128 0x1b
 164 000a 0E       		.uleb128 0xe
 165 000b 55       		.uleb128 0x55
 166 000c 06       		.uleb128 0x6
 167 000d 11       		.uleb128 0x11
 168 000e 01       		.uleb128 0x1
 169 000f 52       		.uleb128 0x52
 170 0010 01       		.uleb128 0x1
 171 0011 10       		.uleb128 0x10
GAS LISTING C:\Users\sw46\AppData\Local\Temp\ccrxtK7t.s 			page 4


 172 0012 06       		.uleb128 0x6
 173 0013 00       		.byte	0
 174 0014 00       		.byte	0
 175 0015 02       		.uleb128 0x2
 176 0016 24       		.uleb128 0x24
 177 0017 00       		.byte	0
 178 0018 0B       		.uleb128 0xb
 179 0019 0B       		.uleb128 0xb
 180 001a 3E       		.uleb128 0x3e
 181 001b 0B       		.uleb128 0xb
 182 001c 03       		.uleb128 0x3
 183 001d 0E       		.uleb128 0xe
 184 001e 00       		.byte	0
 185 001f 00       		.byte	0
 186 0020 03       		.uleb128 0x3
 187 0021 24       		.uleb128 0x24
 188 0022 00       		.byte	0
 189 0023 0B       		.uleb128 0xb
 190 0024 0B       		.uleb128 0xb
 191 0025 3E       		.uleb128 0x3e
 192 0026 0B       		.uleb128 0xb
 193 0027 03       		.uleb128 0x3
 194 0028 08       		.uleb128 0x8
 195 0029 00       		.byte	0
 196 002a 00       		.byte	0
 197 002b 04       		.uleb128 0x4
 198 002c 16       		.uleb128 0x16
 199 002d 00       		.byte	0
 200 002e 03       		.uleb128 0x3
 201 002f 0E       		.uleb128 0xe
 202 0030 3A       		.uleb128 0x3a
 203 0031 0B       		.uleb128 0xb
 204 0032 3B       		.uleb128 0x3b
 205 0033 0B       		.uleb128 0xb
 206 0034 49       		.uleb128 0x49
 207 0035 13       		.uleb128 0x13
 208 0036 00       		.byte	0
 209 0037 00       		.byte	0
 210 0038 05       		.uleb128 0x5
 211 0039 2E       		.uleb128 0x2e
 212 003a 01       		.byte	0x1
 213 003b 3F       		.uleb128 0x3f
 214 003c 0C       		.uleb128 0xc
 215 003d 03       		.uleb128 0x3
 216 003e 0E       		.uleb128 0xe
 217 003f 3A       		.uleb128 0x3a
 218 0040 0B       		.uleb128 0xb
 219 0041 3B       		.uleb128 0x3b
 220 0042 0B       		.uleb128 0xb
 221 0043 27       		.uleb128 0x27
 222 0044 0C       		.uleb128 0xc
 223 0045 49       		.uleb128 0x49
 224 0046 13       		.uleb128 0x13
 225 0047 11       		.uleb128 0x11
 226 0048 01       		.uleb128 0x1
 227 0049 12       		.uleb128 0x12
 228 004a 01       		.uleb128 0x1
GAS LISTING C:\Users\sw46\AppData\Local\Temp\ccrxtK7t.s 			page 5


 229 004b 40       		.uleb128 0x40
 230 004c 0A       		.uleb128 0xa
 231 004d 9742     		.uleb128 0x2117
 232 004f 0C       		.uleb128 0xc
 233 0050 01       		.uleb128 0x1
 234 0051 13       		.uleb128 0x13
 235 0052 00       		.byte	0
 236 0053 00       		.byte	0
 237 0054 06       		.uleb128 0x6
 238 0055 05       		.uleb128 0x5
 239 0056 00       		.byte	0
 240 0057 03       		.uleb128 0x3
 241 0058 0E       		.uleb128 0xe
 242 0059 3A       		.uleb128 0x3a
 243 005a 0B       		.uleb128 0xb
 244 005b 3B       		.uleb128 0x3b
 245 005c 0B       		.uleb128 0xb
 246 005d 49       		.uleb128 0x49
 247 005e 13       		.uleb128 0x13
 248 005f 02       		.uleb128 0x2
 249 0060 06       		.uleb128 0x6
 250 0061 00       		.byte	0
 251 0062 00       		.byte	0
 252 0063 07       		.uleb128 0x7
 253 0064 01       		.uleb128 0x1
 254 0065 01       		.byte	0x1
 255 0066 49       		.uleb128 0x49
 256 0067 13       		.uleb128 0x13
 257 0068 01       		.uleb128 0x1
 258 0069 13       		.uleb128 0x13
 259 006a 00       		.byte	0
 260 006b 00       		.byte	0
 261 006c 08       		.uleb128 0x8
 262 006d 21       		.uleb128 0x21
 263 006e 00       		.byte	0
 264 006f 00       		.byte	0
 265 0070 00       		.byte	0
 266 0071 09       		.uleb128 0x9
 267 0072 34       		.uleb128 0x34
 268 0073 00       		.byte	0
 269 0074 03       		.uleb128 0x3
 270 0075 0E       		.uleb128 0xe
 271 0076 3A       		.uleb128 0x3a
 272 0077 0B       		.uleb128 0xb
 273 0078 3B       		.uleb128 0x3b
 274 0079 0B       		.uleb128 0xb
 275 007a 49       		.uleb128 0x49
 276 007b 13       		.uleb128 0x13
 277 007c 3F       		.uleb128 0x3f
 278 007d 0C       		.uleb128 0xc
 279 007e 3C       		.uleb128 0x3c
 280 007f 0C       		.uleb128 0xc
 281 0080 00       		.byte	0
 282 0081 00       		.byte	0
 283 0082 0A       		.uleb128 0xa
 284 0083 26       		.uleb128 0x26
 285 0084 00       		.byte	0
GAS LISTING C:\Users\sw46\AppData\Local\Temp\ccrxtK7t.s 			page 6


 286 0085 49       		.uleb128 0x49
 287 0086 13       		.uleb128 0x13
 288 0087 00       		.byte	0
 289 0088 00       		.byte	0
 290 0089 00       		.byte	0
 291              		.section	.debug_loc,"",@progbits
 292              	.Ldebug_loc0:
 293              	.LLST0:
 294 0000 00000000 		.4byte	.LVL0
 295 0004 00000000 		.4byte	.LVL1
 296 0008 0001     		.2byte	0x1
 297 000a 53       		.byte	0x53
 298 000b 00000000 		.4byte	.LVL1
 299 000f 00000000 		.4byte	.LFE0
 300 0013 0004     		.2byte	0x4
 301 0015 F3       		.byte	0xf3
 302 0016 01       		.uleb128 0x1
 303 0017 53       		.byte	0x53
 304 0018 9F       		.byte	0x9f
 305 0019 00000000 		.4byte	0
 306 001d 00000000 		.4byte	0
 307              		.section	.debug_aranges,"",@progbits
 308 0000 0000001C 		.4byte	0x1c
 309 0004 0002     		.2byte	0x2
 310 0006 00000000 		.4byte	.Ldebug_info0
 311 000a 04       		.byte	0x4
 312 000b 00       		.byte	0
 313 000c 0000     		.2byte	0
 314 000e 0000     		.2byte	0
 315 0010 00000000 		.4byte	.LFB0
 316 0014 00000024 		.4byte	.LFE0-.LFB0
 317 0018 00000000 		.4byte	0
 318 001c 00000000 		.4byte	0
 319              		.section	.debug_ranges,"",@progbits
 320              	.Ldebug_ranges0:
 321 0000 00000000 		.4byte	.LFB0
 322 0004 00000000 		.4byte	.LFE0
 323 0008 00000000 		.4byte	0
 324 000c 00000000 		.4byte	0
 325              		.section	.debug_line,"",@progbits
 326              	.Ldebug_line0:
 327 0000 000000F1 		.section	.debug_str,"MS",@progbits,1
 327      00020000 
 327      00D40201 
 327      FB0E0D00 
 327      01010101 
 328              	.LASF6:
 329 0000 6C6F6E67 		.string	"long long int"
 329      206C6F6E 
 329      6720696E 
 329      7400
 330              	.LASF11:
 331 000e 75696E74 		.string	"uint32"
 331      333200
 332              	.LASF8:
 333 0015 756E7369 		.string	"unsigned int"
 333      676E6564 
GAS LISTING C:\Users\sw46\AppData\Local\Temp\ccrxtK7t.s 			page 7


 333      20696E74 
 333      00
 334              	.LASF16:
 335 0022 433A5C55 		.string	"C:\\Users\\sw46\\Documents\\SPCStudio v5.0\\SPC564L_RLA_Motor_Control_Demo_Application"
 335      73657273 
 335      5C737734 
 335      365C446F 
 335      63756D65 
 336              	.LASF14:
 337 0074 474E5520 		.string	"GNU C 4.9.2 20141030 (Mon Nov 23 22:27:42 EST 2015         build.sh rev= ELvle) -mcall-sy
 337      4320342E 
 337      392E3220 
 337      32303134 
 337      31303330 
 338              	.LASF10:
 339 0174 75696E74 		.string	"uint8"
 339      3800
 340              	.LASF5:
 341 017a 6C6F6E67 		.string	"long unsigned int"
 341      20756E73 
 341      69676E65 
 341      6420696E 
 341      7400
 342              	.LASF17:
 343 018c 53544D5F 		.string	"STM_Configuration"
 343      436F6E66 
 343      69677572 
 343      6174696F 
 343      6E00
 344              	.LASF7:
 345 019e 6C6F6E67 		.string	"long long unsigned int"
 345      206C6F6E 
 345      6720756E 
 345      7369676E 
 345      65642069 
 346              	.LASF1:
 347 01b5 756E7369 		.string	"unsigned char"
 347      676E6564 
 347      20636861 
 347      7200
 348              	.LASF4:
 349 01c3 6C6F6E67 		.string	"long int"
 349      20696E74 
 349      00
 350              	.LASF2:
 351 01cc 73686F72 		.string	"short int"
 351      7420696E 
 351      7400
 352              	.LASF18:
 353 01d6 7469636B 		.string	"ticks"
 353      7300
 354              	.LASF13:
 355 01dc 646F7562 		.string	"double"
 355      6C6500
 356              	.LASF3:
 357 01e3 73686F72 		.string	"short unsigned int"
 357      7420756E 
GAS LISTING C:\Users\sw46\AppData\Local\Temp\ccrxtK7t.s 			page 8


 357      7369676E 
 357      65642069 
 357      6E7400
 358              	.LASF0:
 359 01f6 7369676E 		.string	"signed char"
 359      65642063 
 359      68617200 
 360              	.LASF19:
 361 0202 53544D5F 		.string	"STM_BASE_ADDR"
 361      42415345 
 361      5F414444 
 361      5200
 362              	.LASF12:
 363 0210 666C6F61 		.string	"float"
 363      7400
 364              	.LASF15:
 365 0216 2E2F636F 		.string	"./components/spc56xx_motor_control_component/lib/System/src/MC_Lib_Setup.c"
 365      6D706F6E 
 365      656E7473 
 365      2F737063 
 365      35367878 
 366              	.LASF9:
 367 0261 73697A65 		.string	"sizetype"
 367      74797065 
 367      00
 368              		.ident	"GCC: (GNU) 4.9.2 20141030 (Mon Nov 23 22:27:42 EST 2015         build.sh rev= ELvle)"
GAS LISTING C:\Users\sw46\AppData\Local\Temp\ccrxtK7t.s 			page 9


DEFINED SYMBOLS
                            *ABS*:00000000 MC_Lib_Setup.c
C:\Users\sw46\AppData\Local\Temp\ccrxtK7t.s:10     .text.STM_Configuration:00000000 STM_Configuration

UNDEFINED SYMBOLS
STM_BASE_ADDR
