GAS LISTING C:\Users\sw46\AppData\Local\Temp\ccSlVYeJ.s 			page 1


   1              		.file	"OpenLoopClass.c"
   2              		.section	".text","axv"
   3              	.Ltext0:
   4              		.cfi_sections	.debug_frame
   5              		.section	.text.OL_NewObject,"axv",@progbits
   6              		.align 1
   7              		.p2align 4,,15
   8              		.globl OL_NewObject
   9              		.type	OL_NewObject, @function
  10              	OL_NewObject:
  11              	.LFB0:
  12              		.file 1 "./components/spc56xx_motor_control_component/lib/MC_Library/COL/src/OpenLoopClass.c"
  13              		.loc 1 52 0
  14              		.cfi_startproc
  15              	.LVL0:
  16              		.loc 1 58 0
  17 0000 7120E000 		e_lis %r9,.LANCHOR1@ha
  18 0004 31290000 		e_lbz %r9,.LANCHOR1@l(%r9)
  19 0008 1829A800 		e_cmpi %cr1,%r9,0
  20 000c 7A06001C 		e_bne %cr1,.L3
  21              		.loc 1 60 0
  22 0010 71400001 		e_li %r10,1
  23 0014 7120E000 		e_lis %r9,.LANCHOR1@ha
  24 0018 35490000 		e_stb %r10,.LANCHOR1@l(%r9)
  25              	.LVL1:
  26 001c 7120E000 		e_lis %r9,.LANCHOR0@ha
  27 0020 1D290000 		e_la %r9,.LANCHOR0@l(%r9)
  28 0024 78000008 		e_b .L2
  29              	.LVL2:
  30              	.L3:
  31              		.loc 1 64 0
  32 0028 71200000 		e_li %r9,0
  33              	.L2:
  34              	.LVL3:
  35              		.loc 1 68 0
  36 002c 5469000C 		e_stw %r3,12(%r9)
  37              		.loc 1 71 0
  38 0030 0313     		se_mfar %r3,%r9
  39              	.LVL4:
  40 0032 0004     		se_blr
  41              		.cfi_endproc
  42              	.LFE0:
  43              		.size	OL_NewObject, .-OL_NewObject
  44              		.section	.text.OL_Init,"axv",@progbits
  45              		.align 1
  46              		.p2align 4,,15
  47              		.globl OL_Init
  48              		.type	OL_Init, @function
  49              	OL_Init:
  50              	.LFB1:
  51              		.loc 1 81 0
  52              		.cfi_startproc
  53              	.LVL5:
  54              		.loc 1 82 0
  55 0000 5123000C 		e_lwz %r9,12(%r3)
  56              	.LVL6:
  57              		.loc 1 84 0
GAS LISTING C:\Users\sw46\AppData\Local\Temp\ccSlVYeJ.s 			page 2


  58 0004 59490000 		e_lhz %r10,0(%r9)
  59 0008 5D430000 		e_sth %r10,0(%r3)
  60              		.loc 1 85 0
  61 000c D143     		se_stw %r4,4(%r3)
  62              		.loc 1 86 0
  63 000e 31290002 		e_lbz %r9,2(%r9)
  64              	.LVL7:
  65 0012 35230008 		e_stb %r9,8(%r3)
  66 0016 0004     		se_blr
  67              		.cfi_endproc
  68              	.LFE1:
  69              		.size	OL_Init, .-OL_Init
  70              		.section	.text.OL_VqdConditioning,"axv",@progbits
  71              		.align 1
  72              		.p2align 4,,15
  73              		.globl OL_VqdConditioning
  74              		.type	OL_VqdConditioning, @function
  75              	OL_VqdConditioning:
  76              	.LFB2:
  77              		.loc 1 95 0
  78              		.cfi_startproc
  79              	.LVL8:
  80              		.loc 1 102 0
  81 0000 A033     		se_lhz %r3,0(%r3)
  82              	.LVL9:
  83              		.loc 1 103 0
  84 0002 6D03     		se_slwi %r3, 16
  85              	.LVL10:
  86 0004 0004     		se_blr
  87              		.cfi_endproc
  88              	.LFE2:
  89              		.size	OL_VqdConditioning, .-OL_VqdConditioning
  90              		.section	.text.OL_UpdateVoltage,"axv",@progbits
  91              		.align 1
  92              		.p2align 4,,15
  93              		.globl OL_UpdateVoltage
  94              		.type	OL_UpdateVoltage, @function
  95              	OL_UpdateVoltage:
  96              	.LFB3:
  97              		.loc 1 112 0
  98              		.cfi_startproc
  99              	.LVL11:
 100              		.loc 1 114 0
 101 0000 B043     		se_sth %r4,0(%r3)
 102 0002 0004     		se_blr
 103              		.cfi_endproc
 104              	.LFE3:
 105              		.size	OL_UpdateVoltage, .-OL_UpdateVoltage
 106              		.section	.text.OL_Calc,"axv",@progbits
 107              		.align 1
 108              		.p2align 4,,15
 109              		.globl OL_Calc
 110              		.type	OL_Calc, @function
 111              	OL_Calc:
 112              	.LFB4:
 113              		.loc 1 124 0
 114              		.cfi_startproc
GAS LISTING C:\Users\sw46\AppData\Local\Temp\ccSlVYeJ.s 			page 3


 115              	.LVL12:
 116 0000 182106F0 		e_stwu %r1,-16(%r1)
 117              	.LCFI0:
 118              		.cfi_def_cfa_offset 16
 119 0004 0080     		se_mflr %r0
 120 0006 D501     		se_stw %r0,20(%r1)
 121 0008 1BC10908 		e_stmw %r30,8(%r1)
 122              		.cfi_offset 65, 4
 123              		.cfi_offset 30, -8
 124              		.cfi_offset 31, -4
 125              		.loc 1 125 0
 126 000c C3E3     		se_lwz %r30,12(%r3)
 127              	.LVL13:
 128              		.loc 1 127 0
 129 000e 31230008 		e_lbz %r9,8(%r3)
 130 0012 1829A800 		e_cmpi %cr1,%r9,0
 131 0016 7A16001E 		e_beq %cr1,.L7
 132 001a 013F     		se_mr %r31,%r3
 133              	.LBB2:
 134              		.loc 1 130 0
 135 001c C133     		se_lwz %r3,4(%r3)
 136              	.LVL14:
 137 001e 78000001 		e_bl SPD_GetAvrgMecSpeed01Hz
 138              	.LVL15:
 139              		.loc 1 131 0
 140 0022 593E0006 		e_lhz %r9,6(%r30)
 141 0026 7C6349D6 		mullw %r3,%r3,%r9
 142              	.LVL16:
 143 002a 593E0004 		e_lhz %r9,4(%r30)
 144 002e 7C634A14 		add %r3,%r3,%r9
 145              		.loc 1 132 0
 146 0032 B03F     		se_sth %r3,0(%r31)
 147              	.LVL17:
 148              	.L7:
 149              	.LBE2:
 150              		.loc 1 134 0
 151 0034 C501     		se_lwz %r0,20(%r1)
 152 0036 0090     		se_mtlr %r0
 153              		.cfi_restore 65
 154 0038 1BC10808 		e_lmw %r30,8(%r1)
 155              	.LVL18:
 156 003c 20F1     		se_addi %r1,16
 157              	.LCFI1:
 158              		.cfi_restore 31
 159              		.cfi_restore 30
 160              		.cfi_def_cfa_offset 0
 161 003e 0004     		se_blr
 162              		.cfi_endproc
 163              	.LFE4:
 164              		.size	OL_Calc, .-OL_Calc
 165              		.section	.text.OL_VF,"axv",@progbits
 166              		.align 1
 167              		.p2align 4,,15
 168              		.globl OL_VF
 169              		.type	OL_VF, @function
 170              	OL_VF:
 171              	.LFB5:
GAS LISTING C:\Users\sw46\AppData\Local\Temp\ccSlVYeJ.s 			page 4


 172              		.loc 1 143 0
 173              		.cfi_startproc
 174              	.LVL19:
 175              		.loc 1 145 0
 176 0000 9843     		se_stb %r4,8(%r3)
 177 0002 0004     		se_blr
 178              		.cfi_endproc
 179              	.LFE5:
 180              		.size	OL_VF, .-OL_VF
 181              		.section	.bss.OLpool,"aw",@nobits
 182              		.align 2
 183              		.set	.LANCHOR0,. + 0
 184              		.type	OLpool, @object
 185              		.size	OLpool, 16
 186              	OLpool:
 187 0000 00000000 		.zero	16
 187      00000000 
 187      00000000 
 187      00000000 
 188              		.section	.bss.OL_Allocated,"aw",@nobits
 189              		.set	.LANCHOR1,. + 0
 190              		.type	OL_Allocated, @object
 191              		.size	OL_Allocated, 1
 192              	OL_Allocated:
 193 0000 00       		.zero	1
 194              		.section	".text","axv"
 195              	.Letext0:
 196              		.file 2 "c:\\spc5studio\\eclipse\\plugins\\com.st.tools.spc5.tools.gnu.gcc.ppcvle.win32_1.0.0.2016
 197              		.file 3 "c:\\spc5studio\\eclipse\\plugins\\com.st.tools.spc5.tools.gnu.gcc.ppcvle.win32_1.0.0.2016
 198              		.file 4 "./components/spc56xx_motor_control_component/lib/System_Drive_Params/include/MC_type.h"
 199              		.file 5 "./components/spc56xx_motor_control_component/lib/MC_Library/CSPD/interface/SpeednPosFdbkC
 200              		.file 6 "./components/spc56xx_motor_control_component/lib/MC_Library/COL/interface/OpenLoopClass.h
 201              		.file 7 "./components/spc56xx_motor_control_component/lib/MC_Library/COL/include/OpenLoopPrivate.h
 202              		.section	.debug_info,"",@progbits
 203              	.Ldebug_info0:
 204 0000 00000409 		.4byte	0x409
 205 0004 0002     		.2byte	0x2
 206 0006 00000000 		.4byte	.Ldebug_abbrev0
 207 000a 04       		.byte	0x4
 208 000b 01       		.uleb128 0x1
 209 000c 00000000 		.4byte	.LASF51
 210 0010 01       		.byte	0x1
 211 0011 00000000 		.4byte	.LASF52
 212 0015 00000000 		.4byte	.LASF53
 213 0019 00000000 		.4byte	.Ldebug_ranges0+0
 214 001d 00000000 		.4byte	0
 215 0021 00000000 		.4byte	0
 216 0025 00000000 		.4byte	.Ldebug_line0
 217 0029 02       		.uleb128 0x2
 218 002a 01       		.byte	0x1
 219 002b 06       		.byte	0x6
 220 002c 00000000 		.4byte	.LASF0
 221 0030 02       		.uleb128 0x2
 222 0031 01       		.byte	0x1
 223 0032 08       		.byte	0x8
 224 0033 00000000 		.4byte	.LASF1
 225 0037 03       		.uleb128 0x3
GAS LISTING C:\Users\sw46\AppData\Local\Temp\ccSlVYeJ.s 			page 5


 226 0038 00000000 		.4byte	.LASF9
 227 003c 02       		.byte	0x2
 228 003d 29       		.byte	0x29
 229 003e 00000042 		.4byte	0x42
 230 0042 02       		.uleb128 0x2
 231 0043 02       		.byte	0x2
 232 0044 05       		.byte	0x5
 233 0045 00000000 		.4byte	.LASF2
 234 0049 02       		.uleb128 0x2
 235 004a 02       		.byte	0x2
 236 004b 07       		.byte	0x7
 237 004c 00000000 		.4byte	.LASF3
 238 0050 02       		.uleb128 0x2
 239 0051 04       		.byte	0x4
 240 0052 05       		.byte	0x5
 241 0053 00000000 		.4byte	.LASF4
 242 0057 02       		.uleb128 0x2
 243 0058 04       		.byte	0x4
 244 0059 07       		.byte	0x7
 245 005a 00000000 		.4byte	.LASF5
 246 005e 02       		.uleb128 0x2
 247 005f 08       		.byte	0x8
 248 0060 05       		.byte	0x5
 249 0061 00000000 		.4byte	.LASF6
 250 0065 02       		.uleb128 0x2
 251 0066 08       		.byte	0x8
 252 0067 07       		.byte	0x7
 253 0068 00000000 		.4byte	.LASF7
 254 006c 04       		.uleb128 0x4
 255 006d 04       		.byte	0x4
 256 006e 05       		.byte	0x5
 257 006f 696E7400 		.string	"int"
 258 0073 02       		.uleb128 0x2
 259 0074 04       		.byte	0x4
 260 0075 07       		.byte	0x7
 261 0076 00000000 		.4byte	.LASF8
 262 007a 03       		.uleb128 0x3
 263 007b 00000000 		.4byte	.LASF10
 264 007f 03       		.byte	0x3
 265 0080 20       		.byte	0x20
 266 0081 00000037 		.4byte	0x37
 267 0085 05       		.uleb128 0x5
 268 0086 04       		.byte	0x4
 269 0087 04       		.byte	0x4
 270 0088 86       		.byte	0x86
 271 0089 000000AA 		.4byte	0xaa
 272 008d 06       		.uleb128 0x6
 273 008e 00000000 		.4byte	.LASF11
 274 0092 04       		.byte	0x4
 275 0093 88       		.byte	0x88
 276 0094 0000007A 		.4byte	0x7a
 277 0098 02       		.byte	0x2
 278 0099 23       		.byte	0x23
 279 009a 00       		.uleb128 0
 280 009b 06       		.uleb128 0x6
 281 009c 00000000 		.4byte	.LASF12
 282 00a0 04       		.byte	0x4
GAS LISTING C:\Users\sw46\AppData\Local\Temp\ccSlVYeJ.s 			page 6


 283 00a1 89       		.byte	0x89
 284 00a2 0000007A 		.4byte	0x7a
 285 00a6 02       		.byte	0x2
 286 00a7 23       		.byte	0x23
 287 00a8 02       		.uleb128 0x2
 288 00a9 00       		.byte	0
 289 00aa 03       		.uleb128 0x3
 290 00ab 00000000 		.4byte	.LASF13
 291 00af 04       		.byte	0x4
 292 00b0 8A       		.byte	0x8a
 293 00b1 00000085 		.4byte	0x85
 294 00b5 03       		.uleb128 0x3
 295 00b6 00000000 		.4byte	.LASF14
 296 00ba 05       		.byte	0x5
 297 00bb 49       		.byte	0x49
 298 00bc 000000C0 		.4byte	0xc0
 299 00c0 07       		.uleb128 0x7
 300 00c1 04       		.byte	0x4
 301 00c2 000000C6 		.4byte	0xc6
 302 00c6 08       		.uleb128 0x8
 303 00c7 00000000 		.4byte	.LASF15
 304 00cb 01       		.byte	0x1
 305 00cc 09       		.uleb128 0x9
 306 00cd 434F4C00 		.string	"COL"
 307 00d1 06       		.byte	0x6
 308 00d2 35       		.byte	0x35
 309 00d3 000000D7 		.4byte	0xd7
 310 00d7 07       		.uleb128 0x7
 311 00d8 04       		.byte	0x4
 312 00d9 000000DD 		.4byte	0xdd
 313 00dd 08       		.uleb128 0x8
 314 00de 00000000 		.4byte	.LASF16
 315 00e2 01       		.byte	0x1
 316 00e3 05       		.uleb128 0x5
 317 00e4 08       		.byte	0x8
 318 00e5 06       		.byte	0x6
 319 00e6 3A       		.byte	0x3a
 320 00e7 00000124 		.4byte	0x124
 321 00eb 06       		.uleb128 0x6
 322 00ec 00000000 		.4byte	.LASF17
 323 00f0 06       		.byte	0x6
 324 00f1 3C       		.byte	0x3c
 325 00f2 0000007A 		.4byte	0x7a
 326 00f6 02       		.byte	0x2
 327 00f7 23       		.byte	0x23
 328 00f8 00       		.uleb128 0
 329 00f9 06       		.uleb128 0x6
 330 00fa 00000000 		.4byte	.LASF18
 331 00fe 06       		.byte	0x6
 332 00ff 3D       		.byte	0x3d
 333 0100 00000124 		.4byte	0x124
 334 0104 02       		.byte	0x2
 335 0105 23       		.byte	0x23
 336 0106 02       		.uleb128 0x2
 337 0107 06       		.uleb128 0x6
 338 0108 00000000 		.4byte	.LASF19
 339 010c 06       		.byte	0x6
GAS LISTING C:\Users\sw46\AppData\Local\Temp\ccSlVYeJ.s 			page 7


 340 010d 3F       		.byte	0x3f
 341 010e 0000007A 		.4byte	0x7a
 342 0112 02       		.byte	0x2
 343 0113 23       		.byte	0x23
 344 0114 04       		.uleb128 0x4
 345 0115 06       		.uleb128 0x6
 346 0116 00000000 		.4byte	.LASF20
 347 011a 06       		.byte	0x6
 348 011b 41       		.byte	0x41
 349 011c 0000007A 		.4byte	0x7a
 350 0120 02       		.byte	0x2
 351 0121 23       		.byte	0x23
 352 0122 06       		.uleb128 0x6
 353 0123 00       		.byte	0
 354 0124 02       		.uleb128 0x2
 355 0125 01       		.byte	0x1
 356 0126 02       		.byte	0x2
 357 0127 00000000 		.4byte	.LASF21
 358 012b 03       		.uleb128 0x3
 359 012c 00000000 		.4byte	.LASF22
 360 0130 06       		.byte	0x6
 361 0131 43       		.byte	0x43
 362 0132 00000136 		.4byte	0x136
 363 0136 0A       		.uleb128 0xa
 364 0137 000000E3 		.4byte	0xe3
 365 013b 03       		.uleb128 0x3
 366 013c 00000000 		.4byte	.LASF23
 367 0140 06       		.byte	0x6
 368 0141 43       		.byte	0x43
 369 0142 00000146 		.4byte	0x146
 370 0146 07       		.uleb128 0x7
 371 0147 04       		.byte	0x4
 372 0148 00000136 		.4byte	0x136
 373 014c 05       		.uleb128 0x5
 374 014d 0C       		.byte	0xc
 375 014e 07       		.byte	0x7
 376 014f 31       		.byte	0x31
 377 0150 0000017F 		.4byte	0x17f
 378 0154 06       		.uleb128 0x6
 379 0155 00000000 		.4byte	.LASF24
 380 0159 07       		.byte	0x7
 381 015a 33       		.byte	0x33
 382 015b 0000007A 		.4byte	0x7a
 383 015f 02       		.byte	0x2
 384 0160 23       		.byte	0x23
 385 0161 00       		.uleb128 0
 386 0162 06       		.uleb128 0x6
 387 0163 00000000 		.4byte	.LASF25
 388 0167 07       		.byte	0x7
 389 0168 34       		.byte	0x34
 390 0169 000000B5 		.4byte	0xb5
 391 016d 02       		.byte	0x2
 392 016e 23       		.byte	0x23
 393 016f 04       		.uleb128 0x4
 394 0170 06       		.uleb128 0x6
 395 0171 00000000 		.4byte	.LASF18
 396 0175 07       		.byte	0x7
GAS LISTING C:\Users\sw46\AppData\Local\Temp\ccSlVYeJ.s 			page 8


 397 0176 35       		.byte	0x35
 398 0177 00000124 		.4byte	0x124
 399 017b 02       		.byte	0x2
 400 017c 23       		.byte	0x23
 401 017d 08       		.uleb128 0x8
 402 017e 00       		.byte	0
 403 017f 03       		.uleb128 0x3
 404 0180 00000000 		.4byte	.LASF26
 405 0184 07       		.byte	0x7
 406 0185 36       		.byte	0x36
 407 0186 0000014C 		.4byte	0x14c
 408 018a 03       		.uleb128 0x3
 409 018b 00000000 		.4byte	.LASF27
 410 018f 07       		.byte	0x7
 411 0190 36       		.byte	0x36
 412 0191 00000195 		.4byte	0x195
 413 0195 07       		.uleb128 0x7
 414 0196 04       		.byte	0x4
 415 0197 0000014C 		.4byte	0x14c
 416 019b 03       		.uleb128 0x3
 417 019c 00000000 		.4byte	.LASF28
 418 01a0 07       		.byte	0x7
 419 01a1 3B       		.byte	0x3b
 420 01a2 000001A6 		.4byte	0x1a6
 421 01a6 07       		.uleb128 0x7
 422 01a7 04       		.byte	0x4
 423 01a8 0000012B 		.4byte	0x12b
 424 01ac 05       		.uleb128 0x5
 425 01ad 10       		.byte	0x10
 426 01ae 07       		.byte	0x7
 427 01af 40       		.byte	0x40
 428 01b0 000001D1 		.4byte	0x1d1
 429 01b4 06       		.uleb128 0x6
 430 01b5 00000000 		.4byte	.LASF29
 431 01b9 07       		.byte	0x7
 432 01ba 42       		.byte	0x42
 433 01bb 0000017F 		.4byte	0x17f
 434 01bf 02       		.byte	0x2
 435 01c0 23       		.byte	0x23
 436 01c1 00       		.uleb128 0
 437 01c2 06       		.uleb128 0x6
 438 01c3 00000000 		.4byte	.LASF30
 439 01c7 07       		.byte	0x7
 440 01c8 43       		.byte	0x43
 441 01c9 0000019B 		.4byte	0x19b
 442 01cd 02       		.byte	0x2
 443 01ce 23       		.byte	0x23
 444 01cf 0C       		.uleb128 0xc
 445 01d0 00       		.byte	0
 446 01d1 03       		.uleb128 0x3
 447 01d2 00000000 		.4byte	.LASF31
 448 01d6 07       		.byte	0x7
 449 01d7 44       		.byte	0x44
 450 01d8 000001AC 		.4byte	0x1ac
 451 01dc 03       		.uleb128 0x3
 452 01dd 00000000 		.4byte	.LASF32
 453 01e1 07       		.byte	0x7
GAS LISTING C:\Users\sw46\AppData\Local\Temp\ccSlVYeJ.s 			page 9


 454 01e2 44       		.byte	0x44
 455 01e3 000001E7 		.4byte	0x1e7
 456 01e7 07       		.uleb128 0x7
 457 01e8 04       		.byte	0x4
 458 01e9 000001AC 		.4byte	0x1ac
 459 01ed 0B       		.uleb128 0xb
 460 01ee 01       		.byte	0x1
 461 01ef 00000000 		.4byte	.LASF38
 462 01f3 01       		.byte	0x1
 463 01f4 33       		.byte	0x33
 464 01f5 01       		.byte	0x1
 465 01f6 000000CC 		.4byte	0xcc
 466 01fa 00000000 		.4byte	.LFB0
 467 01fe 00000000 		.4byte	.LFE0
 468 0202 02       		.byte	0x2
 469 0203 71       		.byte	0x71
 470 0204 00       		.sleb128 0
 471 0205 01       		.byte	0x1
 472 0206 00000229 		.4byte	0x229
 473 020a 0C       		.uleb128 0xc
 474 020b 00000000 		.4byte	.LASF33
 475 020f 01       		.byte	0x1
 476 0210 33       		.byte	0x33
 477 0211 0000013B 		.4byte	0x13b
 478 0215 00000000 		.4byte	.LLST0
 479 0219 0D       		.uleb128 0xd
 480 021a 00000000 		.4byte	.LASF35
 481 021e 01       		.byte	0x1
 482 021f 35       		.byte	0x35
 483 0220 000001DC 		.4byte	0x1dc
 484 0224 00000000 		.4byte	.LLST1
 485 0228 00       		.byte	0
 486 0229 0E       		.uleb128 0xe
 487 022a 01       		.byte	0x1
 488 022b 00000000 		.4byte	.LASF40
 489 022f 01       		.byte	0x1
 490 0230 50       		.byte	0x50
 491 0231 01       		.byte	0x1
 492 0232 00000000 		.4byte	.LFB1
 493 0236 00000000 		.4byte	.LFE1
 494 023a 02       		.byte	0x2
 495 023b 71       		.byte	0x71
 496 023c 00       		.sleb128 0
 497 023d 01       		.byte	0x1
 498 023e 00000279 		.4byte	0x279
 499 0242 0F       		.uleb128 0xf
 500 0243 00000000 		.4byte	.LASF34
 501 0247 01       		.byte	0x1
 502 0248 50       		.byte	0x50
 503 0249 000000CC 		.4byte	0xcc
 504 024d 01       		.byte	0x1
 505 024e 53       		.byte	0x53
 506 024f 0F       		.uleb128 0xf
 507 0250 00000000 		.4byte	.LASF25
 508 0254 01       		.byte	0x1
 509 0255 50       		.byte	0x50
 510 0256 000000B5 		.4byte	0xb5
GAS LISTING C:\Users\sw46\AppData\Local\Temp\ccSlVYeJ.s 			page 10


 511 025a 01       		.byte	0x1
 512 025b 54       		.byte	0x54
 513 025c 0D       		.uleb128 0xd
 514 025d 00000000 		.4byte	.LASF36
 515 0261 01       		.byte	0x1
 516 0262 52       		.byte	0x52
 517 0263 0000019B 		.4byte	0x19b
 518 0267 00000000 		.4byte	.LLST2
 519 026b 10       		.uleb128 0x10
 520 026c 00000000 		.4byte	.LASF37
 521 0270 01       		.byte	0x1
 522 0271 53       		.byte	0x53
 523 0272 0000018A 		.4byte	0x18a
 524 0276 01       		.byte	0x1
 525 0277 53       		.byte	0x53
 526 0278 00       		.byte	0
 527 0279 0B       		.uleb128 0xb
 528 027a 01       		.byte	0x1
 529 027b 00000000 		.4byte	.LASF39
 530 027f 01       		.byte	0x1
 531 0280 5E       		.byte	0x5e
 532 0281 01       		.byte	0x1
 533 0282 000000AA 		.4byte	0xaa
 534 0286 00000000 		.4byte	.LFB2
 535 028a 00000000 		.4byte	.LFE2
 536 028e 02       		.byte	0x2
 537 028f 71       		.byte	0x71
 538 0290 00       		.sleb128 0
 539 0291 01       		.byte	0x1
 540 0292 000002C4 		.4byte	0x2c4
 541 0296 0C       		.uleb128 0xc
 542 0297 00000000 		.4byte	.LASF34
 543 029b 01       		.byte	0x1
 544 029c 5E       		.byte	0x5e
 545 029d 000000CC 		.4byte	0xcc
 546 02a1 00000000 		.4byte	.LLST3
 547 02a5 0D       		.uleb128 0xd
 548 02a6 00000000 		.4byte	.LASF37
 549 02aa 01       		.byte	0x1
 550 02ab 60       		.byte	0x60
 551 02ac 0000018A 		.4byte	0x18a
 552 02b0 00000000 		.4byte	.LLST3
 553 02b4 11       		.uleb128 0x11
 554 02b5 56716400 		.string	"Vqd"
 555 02b9 01       		.byte	0x1
 556 02ba 61       		.byte	0x61
 557 02bb 000000AA 		.4byte	0xaa
 558 02bf 00000000 		.4byte	.LLST5
 559 02c3 00       		.byte	0
 560 02c4 0E       		.uleb128 0xe
 561 02c5 01       		.byte	0x1
 562 02c6 00000000 		.4byte	.LASF41
 563 02ca 01       		.byte	0x1
 564 02cb 6F       		.byte	0x6f
 565 02cc 01       		.byte	0x1
 566 02cd 00000000 		.4byte	.LFB3
 567 02d1 00000000 		.4byte	.LFE3
GAS LISTING C:\Users\sw46\AppData\Local\Temp\ccSlVYeJ.s 			page 11


 568 02d5 02       		.byte	0x2
 569 02d6 71       		.byte	0x71
 570 02d7 00       		.sleb128 0
 571 02d8 01       		.byte	0x1
 572 02d9 00000305 		.4byte	0x305
 573 02dd 0F       		.uleb128 0xf
 574 02de 00000000 		.4byte	.LASF34
 575 02e2 01       		.byte	0x1
 576 02e3 6F       		.byte	0x6f
 577 02e4 000000CC 		.4byte	0xcc
 578 02e8 01       		.byte	0x1
 579 02e9 53       		.byte	0x53
 580 02ea 0F       		.uleb128 0xf
 581 02eb 00000000 		.4byte	.LASF42
 582 02ef 01       		.byte	0x1
 583 02f0 6F       		.byte	0x6f
 584 02f1 0000007A 		.4byte	0x7a
 585 02f5 01       		.byte	0x1
 586 02f6 54       		.byte	0x54
 587 02f7 10       		.uleb128 0x10
 588 02f8 00000000 		.4byte	.LASF37
 589 02fc 01       		.byte	0x1
 590 02fd 71       		.byte	0x71
 591 02fe 0000018A 		.4byte	0x18a
 592 0302 01       		.byte	0x1
 593 0303 53       		.byte	0x53
 594 0304 00       		.byte	0
 595 0305 12       		.uleb128 0x12
 596 0306 01       		.byte	0x1
 597 0307 00000000 		.4byte	.LASF43
 598 030b 01       		.byte	0x1
 599 030c 7B       		.byte	0x7b
 600 030d 01       		.byte	0x1
 601 030e 00000000 		.4byte	.LFB4
 602 0312 00000000 		.4byte	.LFE4
 603 0316 00000000 		.4byte	.LLST6
 604 031a 01       		.byte	0x1
 605 031b 0000037E 		.4byte	0x37e
 606 031f 0C       		.uleb128 0xc
 607 0320 00000000 		.4byte	.LASF34
 608 0324 01       		.byte	0x1
 609 0325 7B       		.byte	0x7b
 610 0326 000000CC 		.4byte	0xcc
 611 032a 00000000 		.4byte	.LLST7
 612 032e 0D       		.uleb128 0xd
 613 032f 00000000 		.4byte	.LASF36
 614 0333 01       		.byte	0x1
 615 0334 7D       		.byte	0x7d
 616 0335 0000019B 		.4byte	0x19b
 617 0339 00000000 		.4byte	.LLST8
 618 033d 0D       		.uleb128 0xd
 619 033e 00000000 		.4byte	.LASF37
 620 0342 01       		.byte	0x1
 621 0343 7E       		.byte	0x7e
 622 0344 0000018A 		.4byte	0x18a
 623 0348 00000000 		.4byte	.LLST9
 624 034c 13       		.uleb128 0x13
GAS LISTING C:\Users\sw46\AppData\Local\Temp\ccSlVYeJ.s 			page 12


 625 034d 00000000 		.4byte	.LBB2
 626 0351 00000000 		.4byte	.LBE2
 627 0355 0D       		.uleb128 0xd
 628 0356 00000000 		.4byte	.LASF44
 629 035a 01       		.byte	0x1
 630 035b 82       		.byte	0x82
 631 035c 0000007A 		.4byte	0x7a
 632 0360 00000000 		.4byte	.LLST10
 633 0364 0D       		.uleb128 0xd
 634 0365 00000000 		.4byte	.LASF45
 635 0369 01       		.byte	0x1
 636 036a 83       		.byte	0x83
 637 036b 0000007A 		.4byte	0x7a
 638 036f 00000000 		.4byte	.LLST11
 639 0373 14       		.uleb128 0x14
 640 0374 00000000 		.4byte	.LVL15
 641 0378 000003F8 		.4byte	0x3f8
 642 037c 00       		.byte	0
 643 037d 00       		.byte	0
 644 037e 0E       		.uleb128 0xe
 645 037f 01       		.byte	0x1
 646 0380 00000000 		.4byte	.LASF46
 647 0384 01       		.byte	0x1
 648 0385 8E       		.byte	0x8e
 649 0386 01       		.byte	0x1
 650 0387 00000000 		.4byte	.LFB5
 651 038b 00000000 		.4byte	.LFE5
 652 038f 02       		.byte	0x2
 653 0390 71       		.byte	0x71
 654 0391 00       		.sleb128 0
 655 0392 01       		.byte	0x1
 656 0393 000003BF 		.4byte	0x3bf
 657 0397 0F       		.uleb128 0xf
 658 0398 00000000 		.4byte	.LASF34
 659 039c 01       		.byte	0x1
 660 039d 8E       		.byte	0x8e
 661 039e 000000CC 		.4byte	0xcc
 662 03a2 01       		.byte	0x1
 663 03a3 53       		.byte	0x53
 664 03a4 0F       		.uleb128 0xf
 665 03a5 00000000 		.4byte	.LASF47
 666 03a9 01       		.byte	0x1
 667 03aa 8E       		.byte	0x8e
 668 03ab 00000124 		.4byte	0x124
 669 03af 01       		.byte	0x1
 670 03b0 54       		.byte	0x54
 671 03b1 10       		.uleb128 0x10
 672 03b2 00000000 		.4byte	.LASF37
 673 03b6 01       		.byte	0x1
 674 03b7 90       		.byte	0x90
 675 03b8 0000018A 		.4byte	0x18a
 676 03bc 01       		.byte	0x1
 677 03bd 53       		.byte	0x53
 678 03be 00       		.byte	0
 679 03bf 15       		.uleb128 0x15
 680 03c0 000001D1 		.4byte	0x1d1
 681 03c4 000003CF 		.4byte	0x3cf
GAS LISTING C:\Users\sw46\AppData\Local\Temp\ccSlVYeJ.s 			page 13


 682 03c8 16       		.uleb128 0x16
 683 03c9 000003CF 		.4byte	0x3cf
 684 03cd 00       		.byte	0
 685 03ce 00       		.byte	0
 686 03cf 02       		.uleb128 0x2
 687 03d0 04       		.byte	0x4
 688 03d1 07       		.byte	0x7
 689 03d2 00000000 		.4byte	.LASF48
 690 03d6 10       		.uleb128 0x10
 691 03d7 00000000 		.4byte	.LASF49
 692 03db 01       		.byte	0x1
 693 03dc 27       		.byte	0x27
 694 03dd 000003BF 		.4byte	0x3bf
 695 03e1 05       		.byte	0x5
 696 03e2 03       		.byte	0x3
 697 03e3 00000000 		.4byte	OLpool
 698 03e7 10       		.uleb128 0x10
 699 03e8 00000000 		.4byte	.LASF50
 700 03ec 01       		.byte	0x1
 701 03ed 28       		.byte	0x28
 702 03ee 00000030 		.4byte	0x30
 703 03f2 05       		.byte	0x5
 704 03f3 03       		.byte	0x3
 705 03f4 00000000 		.4byte	OL_Allocated
 706 03f8 17       		.uleb128 0x17
 707 03f9 01       		.byte	0x1
 708 03fa 00000000 		.4byte	.LASF54
 709 03fe 05       		.byte	0x5
 710 03ff 9C       		.byte	0x9c
 711 0400 01       		.byte	0x1
 712 0401 0000007A 		.4byte	0x7a
 713 0405 01       		.byte	0x1
 714 0406 18       		.uleb128 0x18
 715 0407 000000B5 		.4byte	0xb5
 716 040b 00       		.byte	0
 717 040c 00       		.byte	0
 718              		.section	.debug_abbrev,"",@progbits
 719              	.Ldebug_abbrev0:
 720 0000 01       		.uleb128 0x1
 721 0001 11       		.uleb128 0x11
 722 0002 01       		.byte	0x1
 723 0003 25       		.uleb128 0x25
 724 0004 0E       		.uleb128 0xe
 725 0005 13       		.uleb128 0x13
 726 0006 0B       		.uleb128 0xb
 727 0007 03       		.uleb128 0x3
 728 0008 0E       		.uleb128 0xe
 729 0009 1B       		.uleb128 0x1b
 730 000a 0E       		.uleb128 0xe
 731 000b 55       		.uleb128 0x55
 732 000c 06       		.uleb128 0x6
 733 000d 11       		.uleb128 0x11
 734 000e 01       		.uleb128 0x1
 735 000f 52       		.uleb128 0x52
 736 0010 01       		.uleb128 0x1
 737 0011 10       		.uleb128 0x10
 738 0012 06       		.uleb128 0x6
GAS LISTING C:\Users\sw46\AppData\Local\Temp\ccSlVYeJ.s 			page 14


 739 0013 00       		.byte	0
 740 0014 00       		.byte	0
 741 0015 02       		.uleb128 0x2
 742 0016 24       		.uleb128 0x24
 743 0017 00       		.byte	0
 744 0018 0B       		.uleb128 0xb
 745 0019 0B       		.uleb128 0xb
 746 001a 3E       		.uleb128 0x3e
 747 001b 0B       		.uleb128 0xb
 748 001c 03       		.uleb128 0x3
 749 001d 0E       		.uleb128 0xe
 750 001e 00       		.byte	0
 751 001f 00       		.byte	0
 752 0020 03       		.uleb128 0x3
 753 0021 16       		.uleb128 0x16
 754 0022 00       		.byte	0
 755 0023 03       		.uleb128 0x3
 756 0024 0E       		.uleb128 0xe
 757 0025 3A       		.uleb128 0x3a
 758 0026 0B       		.uleb128 0xb
 759 0027 3B       		.uleb128 0x3b
 760 0028 0B       		.uleb128 0xb
 761 0029 49       		.uleb128 0x49
 762 002a 13       		.uleb128 0x13
 763 002b 00       		.byte	0
 764 002c 00       		.byte	0
 765 002d 04       		.uleb128 0x4
 766 002e 24       		.uleb128 0x24
 767 002f 00       		.byte	0
 768 0030 0B       		.uleb128 0xb
 769 0031 0B       		.uleb128 0xb
 770 0032 3E       		.uleb128 0x3e
 771 0033 0B       		.uleb128 0xb
 772 0034 03       		.uleb128 0x3
 773 0035 08       		.uleb128 0x8
 774 0036 00       		.byte	0
 775 0037 00       		.byte	0
 776 0038 05       		.uleb128 0x5
 777 0039 13       		.uleb128 0x13
 778 003a 01       		.byte	0x1
 779 003b 0B       		.uleb128 0xb
 780 003c 0B       		.uleb128 0xb
 781 003d 3A       		.uleb128 0x3a
 782 003e 0B       		.uleb128 0xb
 783 003f 3B       		.uleb128 0x3b
 784 0040 0B       		.uleb128 0xb
 785 0041 01       		.uleb128 0x1
 786 0042 13       		.uleb128 0x13
 787 0043 00       		.byte	0
 788 0044 00       		.byte	0
 789 0045 06       		.uleb128 0x6
 790 0046 0D       		.uleb128 0xd
 791 0047 00       		.byte	0
 792 0048 03       		.uleb128 0x3
 793 0049 0E       		.uleb128 0xe
 794 004a 3A       		.uleb128 0x3a
 795 004b 0B       		.uleb128 0xb
GAS LISTING C:\Users\sw46\AppData\Local\Temp\ccSlVYeJ.s 			page 15


 796 004c 3B       		.uleb128 0x3b
 797 004d 0B       		.uleb128 0xb
 798 004e 49       		.uleb128 0x49
 799 004f 13       		.uleb128 0x13
 800 0050 38       		.uleb128 0x38
 801 0051 0A       		.uleb128 0xa
 802 0052 00       		.byte	0
 803 0053 00       		.byte	0
 804 0054 07       		.uleb128 0x7
 805 0055 0F       		.uleb128 0xf
 806 0056 00       		.byte	0
 807 0057 0B       		.uleb128 0xb
 808 0058 0B       		.uleb128 0xb
 809 0059 49       		.uleb128 0x49
 810 005a 13       		.uleb128 0x13
 811 005b 00       		.byte	0
 812 005c 00       		.byte	0
 813 005d 08       		.uleb128 0x8
 814 005e 13       		.uleb128 0x13
 815 005f 00       		.byte	0
 816 0060 03       		.uleb128 0x3
 817 0061 0E       		.uleb128 0xe
 818 0062 3C       		.uleb128 0x3c
 819 0063 0C       		.uleb128 0xc
 820 0064 00       		.byte	0
 821 0065 00       		.byte	0
 822 0066 09       		.uleb128 0x9
 823 0067 16       		.uleb128 0x16
 824 0068 00       		.byte	0
 825 0069 03       		.uleb128 0x3
 826 006a 08       		.uleb128 0x8
 827 006b 3A       		.uleb128 0x3a
 828 006c 0B       		.uleb128 0xb
 829 006d 3B       		.uleb128 0x3b
 830 006e 0B       		.uleb128 0xb
 831 006f 49       		.uleb128 0x49
 832 0070 13       		.uleb128 0x13
 833 0071 00       		.byte	0
 834 0072 00       		.byte	0
 835 0073 0A       		.uleb128 0xa
 836 0074 26       		.uleb128 0x26
 837 0075 00       		.byte	0
 838 0076 49       		.uleb128 0x49
 839 0077 13       		.uleb128 0x13
 840 0078 00       		.byte	0
 841 0079 00       		.byte	0
 842 007a 0B       		.uleb128 0xb
 843 007b 2E       		.uleb128 0x2e
 844 007c 01       		.byte	0x1
 845 007d 3F       		.uleb128 0x3f
 846 007e 0C       		.uleb128 0xc
 847 007f 03       		.uleb128 0x3
 848 0080 0E       		.uleb128 0xe
 849 0081 3A       		.uleb128 0x3a
 850 0082 0B       		.uleb128 0xb
 851 0083 3B       		.uleb128 0x3b
 852 0084 0B       		.uleb128 0xb
GAS LISTING C:\Users\sw46\AppData\Local\Temp\ccSlVYeJ.s 			page 16


 853 0085 27       		.uleb128 0x27
 854 0086 0C       		.uleb128 0xc
 855 0087 49       		.uleb128 0x49
 856 0088 13       		.uleb128 0x13
 857 0089 11       		.uleb128 0x11
 858 008a 01       		.uleb128 0x1
 859 008b 12       		.uleb128 0x12
 860 008c 01       		.uleb128 0x1
 861 008d 40       		.uleb128 0x40
 862 008e 0A       		.uleb128 0xa
 863 008f 9742     		.uleb128 0x2117
 864 0091 0C       		.uleb128 0xc
 865 0092 01       		.uleb128 0x1
 866 0093 13       		.uleb128 0x13
 867 0094 00       		.byte	0
 868 0095 00       		.byte	0
 869 0096 0C       		.uleb128 0xc
 870 0097 05       		.uleb128 0x5
 871 0098 00       		.byte	0
 872 0099 03       		.uleb128 0x3
 873 009a 0E       		.uleb128 0xe
 874 009b 3A       		.uleb128 0x3a
 875 009c 0B       		.uleb128 0xb
 876 009d 3B       		.uleb128 0x3b
 877 009e 0B       		.uleb128 0xb
 878 009f 49       		.uleb128 0x49
 879 00a0 13       		.uleb128 0x13
 880 00a1 02       		.uleb128 0x2
 881 00a2 06       		.uleb128 0x6
 882 00a3 00       		.byte	0
 883 00a4 00       		.byte	0
 884 00a5 0D       		.uleb128 0xd
 885 00a6 34       		.uleb128 0x34
 886 00a7 00       		.byte	0
 887 00a8 03       		.uleb128 0x3
 888 00a9 0E       		.uleb128 0xe
 889 00aa 3A       		.uleb128 0x3a
 890 00ab 0B       		.uleb128 0xb
 891 00ac 3B       		.uleb128 0x3b
 892 00ad 0B       		.uleb128 0xb
 893 00ae 49       		.uleb128 0x49
 894 00af 13       		.uleb128 0x13
 895 00b0 02       		.uleb128 0x2
 896 00b1 06       		.uleb128 0x6
 897 00b2 00       		.byte	0
 898 00b3 00       		.byte	0
 899 00b4 0E       		.uleb128 0xe
 900 00b5 2E       		.uleb128 0x2e
 901 00b6 01       		.byte	0x1
 902 00b7 3F       		.uleb128 0x3f
 903 00b8 0C       		.uleb128 0xc
 904 00b9 03       		.uleb128 0x3
 905 00ba 0E       		.uleb128 0xe
 906 00bb 3A       		.uleb128 0x3a
 907 00bc 0B       		.uleb128 0xb
 908 00bd 3B       		.uleb128 0x3b
 909 00be 0B       		.uleb128 0xb
GAS LISTING C:\Users\sw46\AppData\Local\Temp\ccSlVYeJ.s 			page 17


 910 00bf 27       		.uleb128 0x27
 911 00c0 0C       		.uleb128 0xc
 912 00c1 11       		.uleb128 0x11
 913 00c2 01       		.uleb128 0x1
 914 00c3 12       		.uleb128 0x12
 915 00c4 01       		.uleb128 0x1
 916 00c5 40       		.uleb128 0x40
 917 00c6 0A       		.uleb128 0xa
 918 00c7 9742     		.uleb128 0x2117
 919 00c9 0C       		.uleb128 0xc
 920 00ca 01       		.uleb128 0x1
 921 00cb 13       		.uleb128 0x13
 922 00cc 00       		.byte	0
 923 00cd 00       		.byte	0
 924 00ce 0F       		.uleb128 0xf
 925 00cf 05       		.uleb128 0x5
 926 00d0 00       		.byte	0
 927 00d1 03       		.uleb128 0x3
 928 00d2 0E       		.uleb128 0xe
 929 00d3 3A       		.uleb128 0x3a
 930 00d4 0B       		.uleb128 0xb
 931 00d5 3B       		.uleb128 0x3b
 932 00d6 0B       		.uleb128 0xb
 933 00d7 49       		.uleb128 0x49
 934 00d8 13       		.uleb128 0x13
 935 00d9 02       		.uleb128 0x2
 936 00da 0A       		.uleb128 0xa
 937 00db 00       		.byte	0
 938 00dc 00       		.byte	0
 939 00dd 10       		.uleb128 0x10
 940 00de 34       		.uleb128 0x34
 941 00df 00       		.byte	0
 942 00e0 03       		.uleb128 0x3
 943 00e1 0E       		.uleb128 0xe
 944 00e2 3A       		.uleb128 0x3a
 945 00e3 0B       		.uleb128 0xb
 946 00e4 3B       		.uleb128 0x3b
 947 00e5 0B       		.uleb128 0xb
 948 00e6 49       		.uleb128 0x49
 949 00e7 13       		.uleb128 0x13
 950 00e8 02       		.uleb128 0x2
 951 00e9 0A       		.uleb128 0xa
 952 00ea 00       		.byte	0
 953 00eb 00       		.byte	0
 954 00ec 11       		.uleb128 0x11
 955 00ed 34       		.uleb128 0x34
 956 00ee 00       		.byte	0
 957 00ef 03       		.uleb128 0x3
 958 00f0 08       		.uleb128 0x8
 959 00f1 3A       		.uleb128 0x3a
 960 00f2 0B       		.uleb128 0xb
 961 00f3 3B       		.uleb128 0x3b
 962 00f4 0B       		.uleb128 0xb
 963 00f5 49       		.uleb128 0x49
 964 00f6 13       		.uleb128 0x13
 965 00f7 02       		.uleb128 0x2
 966 00f8 06       		.uleb128 0x6
GAS LISTING C:\Users\sw46\AppData\Local\Temp\ccSlVYeJ.s 			page 18


 967 00f9 00       		.byte	0
 968 00fa 00       		.byte	0
 969 00fb 12       		.uleb128 0x12
 970 00fc 2E       		.uleb128 0x2e
 971 00fd 01       		.byte	0x1
 972 00fe 3F       		.uleb128 0x3f
 973 00ff 0C       		.uleb128 0xc
 974 0100 03       		.uleb128 0x3
 975 0101 0E       		.uleb128 0xe
 976 0102 3A       		.uleb128 0x3a
 977 0103 0B       		.uleb128 0xb
 978 0104 3B       		.uleb128 0x3b
 979 0105 0B       		.uleb128 0xb
 980 0106 27       		.uleb128 0x27
 981 0107 0C       		.uleb128 0xc
 982 0108 11       		.uleb128 0x11
 983 0109 01       		.uleb128 0x1
 984 010a 12       		.uleb128 0x12
 985 010b 01       		.uleb128 0x1
 986 010c 40       		.uleb128 0x40
 987 010d 06       		.uleb128 0x6
 988 010e 9742     		.uleb128 0x2117
 989 0110 0C       		.uleb128 0xc
 990 0111 01       		.uleb128 0x1
 991 0112 13       		.uleb128 0x13
 992 0113 00       		.byte	0
 993 0114 00       		.byte	0
 994 0115 13       		.uleb128 0x13
 995 0116 0B       		.uleb128 0xb
 996 0117 01       		.byte	0x1
 997 0118 11       		.uleb128 0x11
 998 0119 01       		.uleb128 0x1
 999 011a 12       		.uleb128 0x12
 1000 011b 01       		.uleb128 0x1
 1001 011c 00       		.byte	0
 1002 011d 00       		.byte	0
 1003 011e 14       		.uleb128 0x14
 1004 011f 898201   		.uleb128 0x4109
 1005 0122 00       		.byte	0
 1006 0123 11       		.uleb128 0x11
 1007 0124 01       		.uleb128 0x1
 1008 0125 31       		.uleb128 0x31
 1009 0126 13       		.uleb128 0x13
 1010 0127 00       		.byte	0
 1011 0128 00       		.byte	0
 1012 0129 15       		.uleb128 0x15
 1013 012a 01       		.uleb128 0x1
 1014 012b 01       		.byte	0x1
 1015 012c 49       		.uleb128 0x49
 1016 012d 13       		.uleb128 0x13
 1017 012e 01       		.uleb128 0x1
 1018 012f 13       		.uleb128 0x13
 1019 0130 00       		.byte	0
 1020 0131 00       		.byte	0
 1021 0132 16       		.uleb128 0x16
 1022 0133 21       		.uleb128 0x21
 1023 0134 00       		.byte	0
GAS LISTING C:\Users\sw46\AppData\Local\Temp\ccSlVYeJ.s 			page 19


 1024 0135 49       		.uleb128 0x49
 1025 0136 13       		.uleb128 0x13
 1026 0137 2F       		.uleb128 0x2f
 1027 0138 0B       		.uleb128 0xb
 1028 0139 00       		.byte	0
 1029 013a 00       		.byte	0
 1030 013b 17       		.uleb128 0x17
 1031 013c 2E       		.uleb128 0x2e
 1032 013d 01       		.byte	0x1
 1033 013e 3F       		.uleb128 0x3f
 1034 013f 0C       		.uleb128 0xc
 1035 0140 03       		.uleb128 0x3
 1036 0141 0E       		.uleb128 0xe
 1037 0142 3A       		.uleb128 0x3a
 1038 0143 0B       		.uleb128 0xb
 1039 0144 3B       		.uleb128 0x3b
 1040 0145 0B       		.uleb128 0xb
 1041 0146 27       		.uleb128 0x27
 1042 0147 0C       		.uleb128 0xc
 1043 0148 49       		.uleb128 0x49
 1044 0149 13       		.uleb128 0x13
 1045 014a 3C       		.uleb128 0x3c
 1046 014b 0C       		.uleb128 0xc
 1047 014c 00       		.byte	0
 1048 014d 00       		.byte	0
 1049 014e 18       		.uleb128 0x18
 1050 014f 05       		.uleb128 0x5
 1051 0150 00       		.byte	0
 1052 0151 49       		.uleb128 0x49
 1053 0152 13       		.uleb128 0x13
 1054 0153 00       		.byte	0
 1055 0154 00       		.byte	0
 1056 0155 00       		.byte	0
 1057              		.section	.debug_loc,"",@progbits
 1058              	.Ldebug_loc0:
 1059              	.LLST0:
 1060 0000 00000000 		.4byte	.LVL0
 1061 0004 00000000 		.4byte	.LVL4
 1062 0008 0001     		.2byte	0x1
 1063 000a 53       		.byte	0x53
 1064 000b 00000000 		.4byte	.LVL4
 1065 000f 00000000 		.4byte	.LFE0
 1066 0013 0002     		.2byte	0x2
 1067 0015 79       		.byte	0x79
 1068 0016 0C       		.sleb128 12
 1069 0017 00000000 		.4byte	0
 1070 001b 00000000 		.4byte	0
 1071              	.LLST1:
 1072 001f 00000000 		.4byte	.LVL1
 1073 0023 00000000 		.4byte	.LVL2
 1074 0027 0006     		.2byte	0x6
 1075 0029 03       		.byte	0x3
 1076 002a 00000000 		.4byte	OLpool
 1077 002e 9F       		.byte	0x9f
 1078 002f 00000000 		.4byte	.LVL3
 1079 0033 00000000 		.4byte	.LFE0
 1080 0037 0001     		.2byte	0x1
GAS LISTING C:\Users\sw46\AppData\Local\Temp\ccSlVYeJ.s 			page 20


 1081 0039 59       		.byte	0x59
 1082 003a 00000000 		.4byte	0
 1083 003e 00000000 		.4byte	0
 1084              	.LLST2:
 1085 0042 00000000 		.4byte	.LVL6
 1086 0046 00000000 		.4byte	.LVL7
 1087 004a 0001     		.2byte	0x1
 1088 004c 59       		.byte	0x59
 1089 004d 00000000 		.4byte	.LVL7
 1090 0051 00000000 		.4byte	.LFE1
 1091 0055 0002     		.2byte	0x2
 1092 0057 73       		.byte	0x73
 1093 0058 0C       		.sleb128 12
 1094 0059 00000000 		.4byte	0
 1095 005d 00000000 		.4byte	0
 1096              	.LLST3:
 1097 0061 00000000 		.4byte	.LVL8
 1098 0065 00000000 		.4byte	.LVL9
 1099 0069 0001     		.2byte	0x1
 1100 006b 53       		.byte	0x53
 1101 006c 00000000 		.4byte	.LVL9
 1102 0070 00000000 		.4byte	.LFE2
 1103 0074 0004     		.2byte	0x4
 1104 0076 F3       		.byte	0xf3
 1105 0077 01       		.uleb128 0x1
 1106 0078 53       		.byte	0x53
 1107 0079 9F       		.byte	0x9f
 1108 007a 00000000 		.4byte	0
 1109 007e 00000000 		.4byte	0
 1110              	.LLST5:
 1111 0082 00000000 		.4byte	.LVL8
 1112 0086 00000000 		.4byte	.LVL9
 1113 008a 0008     		.2byte	0x8
 1114 008c 73       		.byte	0x73
 1115 008d 00       		.sleb128 0
 1116 008e 93       		.byte	0x93
 1117 008f 02       		.uleb128 0x2
 1118 0090 30       		.byte	0x30
 1119 0091 9F       		.byte	0x9f
 1120 0092 93       		.byte	0x93
 1121 0093 02       		.uleb128 0x2
 1122 0094 00000000 		.4byte	.LVL9
 1123 0098 00000000 		.4byte	.LVL10
 1124 009c 0007     		.2byte	0x7
 1125 009e 53       		.byte	0x53
 1126 009f 93       		.byte	0x93
 1127 00a0 02       		.uleb128 0x2
 1128 00a1 30       		.byte	0x30
 1129 00a2 9F       		.byte	0x9f
 1130 00a3 93       		.byte	0x93
 1131 00a4 02       		.uleb128 0x2
 1132 00a5 00000000 		.4byte	.LVL10
 1133 00a9 00000000 		.4byte	.LFE2
 1134 00ad 0009     		.2byte	0x9
 1135 00af F3       		.byte	0xf3
 1136 00b0 01       		.uleb128 0x1
 1137 00b1 53       		.byte	0x53
GAS LISTING C:\Users\sw46\AppData\Local\Temp\ccSlVYeJ.s 			page 21


 1138 00b2 93       		.byte	0x93
 1139 00b3 02       		.uleb128 0x2
 1140 00b4 30       		.byte	0x30
 1141 00b5 9F       		.byte	0x9f
 1142 00b6 93       		.byte	0x93
 1143 00b7 02       		.uleb128 0x2
 1144 00b8 00000000 		.4byte	0
 1145 00bc 00000000 		.4byte	0
 1146              	.LLST6:
 1147 00c0 00000000 		.4byte	.LFB4
 1148 00c4 00000000 		.4byte	.LCFI0
 1149 00c8 0002     		.2byte	0x2
 1150 00ca 71       		.byte	0x71
 1151 00cb 00       		.sleb128 0
 1152 00cc 00000000 		.4byte	.LCFI0
 1153 00d0 00000000 		.4byte	.LCFI1
 1154 00d4 0002     		.2byte	0x2
 1155 00d6 71       		.byte	0x71
 1156 00d7 10       		.sleb128 16
 1157 00d8 00000000 		.4byte	.LCFI1
 1158 00dc 00000000 		.4byte	.LFE4
 1159 00e0 0002     		.2byte	0x2
 1160 00e2 71       		.byte	0x71
 1161 00e3 00       		.sleb128 0
 1162 00e4 00000000 		.4byte	0
 1163 00e8 00000000 		.4byte	0
 1164              	.LLST7:
 1165 00ec 00000000 		.4byte	.LVL12
 1166 00f0 00000000 		.4byte	.LVL14
 1167 00f4 0001     		.2byte	0x1
 1168 00f6 53       		.byte	0x53
 1169 00f7 00000000 		.4byte	.LVL14
 1170 00fb 00000000 		.4byte	.LVL17
 1171 00ff 0001     		.2byte	0x1
 1172 0101 6F       		.byte	0x6f
 1173 0102 00000000 		.4byte	.LVL17
 1174 0106 00000000 		.4byte	.LFE4
 1175 010a 0004     		.2byte	0x4
 1176 010c F3       		.byte	0xf3
 1177 010d 01       		.uleb128 0x1
 1178 010e 53       		.byte	0x53
 1179 010f 9F       		.byte	0x9f
 1180 0110 00000000 		.4byte	0
 1181 0114 00000000 		.4byte	0
 1182              	.LLST8:
 1183 0118 00000000 		.4byte	.LVL13
 1184 011c 00000000 		.4byte	.LVL18
 1185 0120 0001     		.2byte	0x1
 1186 0122 6E       		.byte	0x6e
 1187 0123 00000000 		.4byte	0
 1188 0127 00000000 		.4byte	0
 1189              	.LLST9:
 1190 012b 00000000 		.4byte	.LVL13
 1191 012f 00000000 		.4byte	.LVL14
 1192 0133 0001     		.2byte	0x1
 1193 0135 53       		.byte	0x53
 1194 0136 00000000 		.4byte	.LVL14
GAS LISTING C:\Users\sw46\AppData\Local\Temp\ccSlVYeJ.s 			page 22


 1195 013a 00000000 		.4byte	.LVL17
 1196 013e 0001     		.2byte	0x1
 1197 0140 6F       		.byte	0x6f
 1198 0141 00000000 		.4byte	.LVL17
 1199 0145 00000000 		.4byte	.LFE4
 1200 0149 0004     		.2byte	0x4
 1201 014b F3       		.byte	0xf3
 1202 014c 01       		.uleb128 0x1
 1203 014d 53       		.byte	0x53
 1204 014e 9F       		.byte	0x9f
 1205 014f 00000000 		.4byte	0
 1206 0153 00000000 		.4byte	0
 1207              	.LLST10:
 1208 0157 00000000 		.4byte	.LVL15
 1209 015b 00000000 		.4byte	.LVL16
 1210 015f 0001     		.2byte	0x1
 1211 0161 53       		.byte	0x53
 1212 0162 00000000 		.4byte	0
 1213 0166 00000000 		.4byte	0
 1214              	.LLST11:
 1215 016a 00000000 		.4byte	.LVL15
 1216 016e 00000000 		.4byte	.LVL16
 1217 0172 000D     		.2byte	0xd
 1218 0174 8E       		.byte	0x8e
 1219 0175 06       		.sleb128 6
 1220 0176 94       		.byte	0x94
 1221 0177 02       		.byte	0x2
 1222 0178 73       		.byte	0x73
 1223 0179 00       		.sleb128 0
 1224 017a 1E       		.byte	0x1e
 1225 017b 8E       		.byte	0x8e
 1226 017c 04       		.sleb128 4
 1227 017d 94       		.byte	0x94
 1228 017e 02       		.byte	0x2
 1229 017f 22       		.byte	0x22
 1230 0180 9F       		.byte	0x9f
 1231 0181 00000000 		.4byte	0
 1232 0185 00000000 		.4byte	0
 1233              		.section	.debug_aranges,"",@progbits
 1234 0000 00000044 		.4byte	0x44
 1235 0004 0002     		.2byte	0x2
 1236 0006 00000000 		.4byte	.Ldebug_info0
 1237 000a 04       		.byte	0x4
 1238 000b 00       		.byte	0
 1239 000c 0000     		.2byte	0
 1240 000e 0000     		.2byte	0
 1241 0010 00000000 		.4byte	.LFB0
 1242 0014 00000034 		.4byte	.LFE0-.LFB0
 1243 0018 00000000 		.4byte	.LFB1
 1244 001c 00000018 		.4byte	.LFE1-.LFB1
 1245 0020 00000000 		.4byte	.LFB2
 1246 0024 00000006 		.4byte	.LFE2-.LFB2
 1247 0028 00000000 		.4byte	.LFB3
 1248 002c 00000004 		.4byte	.LFE3-.LFB3
 1249 0030 00000000 		.4byte	.LFB4
 1250 0034 00000040 		.4byte	.LFE4-.LFB4
 1251 0038 00000000 		.4byte	.LFB5
GAS LISTING C:\Users\sw46\AppData\Local\Temp\ccSlVYeJ.s 			page 23


 1252 003c 00000004 		.4byte	.LFE5-.LFB5
 1253 0040 00000000 		.4byte	0
 1254 0044 00000000 		.4byte	0
 1255              		.section	.debug_ranges,"",@progbits
 1256              	.Ldebug_ranges0:
 1257 0000 00000000 		.4byte	.LFB0
 1258 0004 00000000 		.4byte	.LFE0
 1259 0008 00000000 		.4byte	.LFB1
 1260 000c 00000000 		.4byte	.LFE1
 1261 0010 00000000 		.4byte	.LFB2
 1262 0014 00000000 		.4byte	.LFE2
 1263 0018 00000000 		.4byte	.LFB3
 1264 001c 00000000 		.4byte	.LFE3
 1265 0020 00000000 		.4byte	.LFB4
 1266 0024 00000000 		.4byte	.LFE4
 1267 0028 00000000 		.4byte	.LFB5
 1268 002c 00000000 		.4byte	.LFE5
 1269 0030 00000000 		.4byte	0
 1270 0034 00000000 		.4byte	0
 1271              		.section	.debug_line,"",@progbits
 1272              	.Ldebug_line0:
 1273 0000 00000381 		.section	.debug_str,"MS",@progbits,1
 1273      00020000 
 1273      03090201 
 1273      FB0E0D00 
 1273      01010101 
 1274              	.LASF27:
 1275 0000 70566172 		.string	"pVars_t"
 1275      735F7400 
 1276              	.LASF41:
 1277 0008 4F4C5F55 		.string	"OL_UpdateVoltage"
 1277      70646174 
 1277      65566F6C 
 1277      74616765 
 1277      00
 1278              	.LASF11:
 1279 0019 71565F43 		.string	"qV_Component1"
 1279      6F6D706F 
 1279      6E656E74 
 1279      3100
 1280              	.LASF12:
 1281 0027 71565F43 		.string	"qV_Component2"
 1281      6F6D706F 
 1281      6E656E74 
 1281      3200
 1282              	.LASF9:
 1283 0035 5F5F696E 		.string	"__int16_t"
 1283      7431365F 
 1283      7400
 1284              	.LASF26:
 1285 003f 56617273 		.string	"Vars_t"
 1285      5F7400
 1286              	.LASF47:
 1287 0046 5646456E 		.string	"VFEnabling"
 1287      61626C69 
 1287      6E6700
 1288              	.LASF19:
GAS LISTING C:\Users\sw46\AppData\Local\Temp\ccSlVYeJ.s 			page 24


 1289 0051 6856464F 		.string	"hVFOffset"
 1289      66667365 
 1289      7400
 1290              	.LASF32:
 1291 005b 5F434F4C 		.string	"_COL"
 1291      00
 1292              	.LASF46:
 1293 0060 4F4C5F56 		.string	"OL_VF"
 1293      4600
 1294              	.LASF17:
 1295 0066 68446566 		.string	"hDefaultVoltage"
 1295      61756C74 
 1295      566F6C74 
 1295      61676500 
 1296              	.LASF15:
 1297 0076 43535044 		.string	"CSPD_t"
 1297      5F7400
 1298              	.LASF20:
 1299 007d 68564653 		.string	"hVFSlope"
 1299      6C6F7065 
 1299      00
 1300              	.LASF13:
 1301 0086 566F6C74 		.string	"Volt_Components"
 1301      5F436F6D 
 1301      706F6E65 
 1301      6E747300 
 1302              	.LASF16:
 1303 0096 434F4C5F 		.string	"COL_t"
 1303      7400
 1304              	.LASF36:
 1305 009c 70506172 		.string	"pParams"
 1305      616D7300 
 1306              	.LASF25:
 1307 00a4 6F565353 		.string	"oVSS"
 1307      00
 1308              	.LASF40:
 1309 00a9 4F4C5F49 		.string	"OL_Init"
 1309      6E697400 
 1310              	.LASF34:
 1311 00b1 74686973 		.string	"this"
 1311      00
 1312              	.LASF28:
 1313 00b6 70506172 		.string	"pParams_t"
 1313      616D735F 
 1313      7400
 1314              	.LASF5:
 1315 00c0 6C6F6E67 		.string	"long unsigned int"
 1315      20756E73 
 1315      69676E65 
 1315      6420696E 
 1315      7400
 1316              	.LASF51:
 1317 00d2 474E5520 		.string	"GNU C 4.9.2 20141030 (Mon Nov 23 22:27:42 EST 2015         build.sh rev= ELvle) -mcall-sy
 1317      4320342E 
 1317      392E3220 
 1317      32303134 
 1317      31303330 
GAS LISTING C:\Users\sw46\AppData\Local\Temp\ccSlVYeJ.s 			page 25


 1318              	.LASF3:
 1319 01d2 73686F72 		.string	"short unsigned int"
 1319      7420756E 
 1319      7369676E 
 1319      65642069 
 1319      6E7400
 1320              	.LASF35:
 1321 01e5 5F6F4F4C 		.string	"_oOL"
 1321      00
 1322              	.LASF22:
 1323 01ea 4F70656E 		.string	"OpenLoopParams_t"
 1323      4C6F6F70 
 1323      50617261 
 1323      6D735F74 
 1323      00
 1324              	.LASF49:
 1325 01fb 4F4C706F 		.string	"OLpool"
 1325      6F6C00
 1326              	.LASF30:
 1327 0202 70506172 		.string	"pParams_str"
 1327      616D735F 
 1327      73747200 
 1328              	.LASF1:
 1329 020e 756E7369 		.string	"unsigned char"
 1329      676E6564 
 1329      20636861 
 1329      7200
 1330              	.LASF42:
 1331 021c 684E6577 		.string	"hNewVoltage"
 1331      566F6C74 
 1331      61676500 
 1332              	.LASF39:
 1333 0228 4F4C5F56 		.string	"OL_VqdConditioning"
 1333      7164436F 
 1333      6E646974 
 1333      696F6E69 
 1333      6E6700
 1334              	.LASF52:
 1335 023b 2E2F636F 		.string	"./components/spc56xx_motor_control_component/lib/MC_Library/COL/src/OpenLoopClass.c"
 1335      6D706F6E 
 1335      656E7473 
 1335      2F737063 
 1335      35367878 
 1336              	.LASF54:
 1337 028f 5350445F 		.string	"SPD_GetAvrgMecSpeed01Hz"
 1337      47657441 
 1337      7672674D 
 1337      65635370 
 1337      65656430 
 1338              	.LASF14:
 1339 02a7 43535044 		.string	"CSPD"
 1339      00
 1340              	.LASF8:
 1341 02ac 756E7369 		.string	"unsigned int"
 1341      676E6564 
 1341      20696E74 
 1341      00
GAS LISTING C:\Users\sw46\AppData\Local\Temp\ccSlVYeJ.s 			page 26


 1342              	.LASF7:
 1343 02b9 6C6F6E67 		.string	"long long unsigned int"
 1343      206C6F6E 
 1343      6720756E 
 1343      7369676E 
 1343      65642069 
 1344              	.LASF33:
 1345 02d0 704F7065 		.string	"pOpenLoopParams"
 1345      6E4C6F6F 
 1345      70506172 
 1345      616D7300 
 1346              	.LASF24:
 1347 02e0 68566F6C 		.string	"hVoltage"
 1347      74616765 
 1347      00
 1348              	.LASF31:
 1349 02e9 5F434F4C 		.string	"_COL_t"
 1349      5F7400
 1350              	.LASF45:
 1351 02f0 684F4C56 		.string	"hOLVoltage"
 1351      6F6C7461 
 1351      676500
 1352              	.LASF10:
 1353 02fb 696E7431 		.string	"int16_t"
 1353      365F7400 
 1354              	.LASF23:
 1355 0303 704F7065 		.string	"pOpenLoopParams_t"
 1355      6E4C6F6F 
 1355      70506172 
 1355      616D735F 
 1355      7400
 1356              	.LASF53:
 1357 0315 433A5C55 		.string	"C:\\Users\\sw46\\Documents\\SPCStudio v5.0\\SPC564L_RLA_Motor_Control_Demo_Application"
 1357      73657273 
 1357      5C737734 
 1357      365C446F 
 1357      63756D65 
 1358              	.LASF37:
 1359 0367 70566172 		.string	"pVars"
 1359      7300
 1360              	.LASF48:
 1361 036d 73697A65 		.string	"sizetype"
 1361      74797065 
 1361      00
 1362              	.LASF6:
 1363 0376 6C6F6E67 		.string	"long long int"
 1363      206C6F6E 
 1363      6720696E 
 1363      7400
 1364              	.LASF38:
 1365 0384 4F4C5F4E 		.string	"OL_NewObject"
 1365      65774F62 
 1365      6A656374 
 1365      00
 1366              	.LASF44:
 1367 0391 684D6563 		.string	"hMecSpeed01Hz"
 1367      53706565 
GAS LISTING C:\Users\sw46\AppData\Local\Temp\ccSlVYeJ.s 			page 27


 1367      64303148 
 1367      7A00
 1368              	.LASF18:
 1369 039f 56464D6F 		.string	"VFMode"
 1369      646500
 1370              	.LASF2:
 1371 03a6 73686F72 		.string	"short int"
 1371      7420696E 
 1371      7400
 1372              	.LASF4:
 1373 03b0 6C6F6E67 		.string	"long int"
 1373      20696E74 
 1373      00
 1374              	.LASF0:
 1375 03b9 7369676E 		.string	"signed char"
 1375      65642063 
 1375      68617200 
 1376              	.LASF21:
 1377 03c5 5F426F6F 		.string	"_Bool"
 1377      6C00
 1378              	.LASF29:
 1379 03cb 56617273 		.string	"Vars_str"
 1379      5F737472 
 1379      00
 1380              	.LASF43:
 1381 03d4 4F4C5F43 		.string	"OL_Calc"
 1381      616C6300 
 1382              	.LASF50:
 1383 03dc 4F4C5F41 		.string	"OL_Allocated"
 1383      6C6C6F63 
 1383      61746564 
 1383      00
 1384              		.ident	"GCC: (GNU) 4.9.2 20141030 (Mon Nov 23 22:27:42 EST 2015         build.sh rev= ELvle)"
 1385              		.gnu_attribute 12, 1
GAS LISTING C:\Users\sw46\AppData\Local\Temp\ccSlVYeJ.s 			page 28


DEFINED SYMBOLS
                            *ABS*:00000000 OpenLoopClass.c
C:\Users\sw46\AppData\Local\Temp\ccSlVYeJ.s:10     .text.OL_NewObject:00000000 OL_NewObject
C:\Users\sw46\AppData\Local\Temp\ccSlVYeJ.s:49     .text.OL_Init:00000000 OL_Init
C:\Users\sw46\AppData\Local\Temp\ccSlVYeJ.s:75     .text.OL_VqdConditioning:00000000 OL_VqdConditioning
C:\Users\sw46\AppData\Local\Temp\ccSlVYeJ.s:95     .text.OL_UpdateVoltage:00000000 OL_UpdateVoltage
C:\Users\sw46\AppData\Local\Temp\ccSlVYeJ.s:111    .text.OL_Calc:00000000 OL_Calc
C:\Users\sw46\AppData\Local\Temp\ccSlVYeJ.s:170    .text.OL_VF:00000000 OL_VF
C:\Users\sw46\AppData\Local\Temp\ccSlVYeJ.s:186    .bss.OLpool:00000000 OLpool
C:\Users\sw46\AppData\Local\Temp\ccSlVYeJ.s:192    .bss.OL_Allocated:00000000 OL_Allocated

UNDEFINED SYMBOLS
SPD_GetAvrgMecSpeed01Hz
