GAS LISTING C:\Users\sw46\AppData\Local\Temp\cc8GjfTs.s 			page 1


   1              		.file	"osal.c"
   2              		.section	".text","axv"
   3              	.Ltext0:
   4              		.cfi_sections	.debug_frame
   5              		.section	.text.osalSysTimeDelayTicks,"axv",@progbits
   6              		.align 1
   7              		.p2align 4,,15
   8              		.type	osalSysTimeDelayTicks, @function
   9              	osalSysTimeDelayTicks:
  10              	.LFB11:
  11              		.file 1 "./components/spc56elxx_osal_component_rla/lib/src/osal.c"
  12              		.loc 1 217 0
  13              		.cfi_startproc
  14              	.LVL0:
  15              		.loc 1 221 0
  16 0000 7120E000 		e_lis %r9,.LANCHOR0@ha
  17 0004 51290000 		e_lwz %r9,.LANCHOR0@l(%r9)
  18              	.LVL1:
  19              		.loc 1 222 0
  20 0008 7140E000 		e_lis %r10,.LANCHOR0@ha
  21 000c 1D4A0000 		e_la %r10,.LANCHOR0@l(%r10)
  22 0010 7C634A14 		add %r3,%r3,%r9
  23              	.LVL2:
  24              	.L2:
  25              		.loc 1 222 0 is_stmt 0 discriminator 1
  26 0014 50EA0000 		e_lwz %r7,0(%r10)
  27 0018 0D73     		se_cmpl %r3,%r7
  28 001a 7A11FFFA 		e_bgt %cr0,.L2
  29              		.loc 1 225 0 is_stmt 1
  30 001e 0004     		se_blr
  31              		.cfi_endproc
  32              	.LFE11:
  33              		.size	osalSysTimeDelayTicks, .-osalSysTimeDelayTicks
  34              		.section	.text.osalSysTimeSetup,"axv",@progbits
  35              		.align 1
  36              		.p2align 4,,15
  37              		.globl osalSysTimeSetup
  38              		.type	osalSysTimeSetup, @function
  39              	osalSysTimeSetup:
  40              	.LFB2:
  41              		.loc 1 92 0
  42              		.cfi_startproc
  43              	.LVL3:
  44 0000 182106F8 		e_stwu %r1,-8(%r1)
  45              	.LCFI0:
  46              		.cfi_def_cfa_offset 8
  47 0004 0080     		se_mflr %r0
  48 0006 D301     		se_stw %r0,12(%r1)
  49              		.cfi_offset 65, 4
  50              		.loc 1 94 0
  51 0008 7120E000 		e_lis %r9,.LANCHOR1@ha
  52 000c 54690000 		e_stw %r3,.LANCHOR1@l(%r9)
  53              		.loc 1 96 0
  54 0010 78000001 		e_bl sysTimeSetup
  55              	.LVL4:
  56              		.loc 1 97 0
  57 0014 C301     		se_lwz %r0,12(%r1)
GAS LISTING C:\Users\sw46\AppData\Local\Temp\cc8GjfTs.s 			page 2


  58 0016 0090     		se_mtlr %r0
  59              		.cfi_restore 65
  60 0018 2071     		se_addi %r1,8
  61              	.LCFI1:
  62              		.cfi_def_cfa_offset 0
  63 001a 0004     		se_blr
  64              		.cfi_endproc
  65              	.LFE2:
  66              		.size	osalSysTimeSetup, .-osalSysTimeSetup
  67              		.section	.text.osalSysTimeReset,"axv",@progbits
  68              		.align 1
  69              		.p2align 4,,15
  70              		.globl osalSysTimeReset
  71              		.type	osalSysTimeReset, @function
  72              	osalSysTimeReset:
  73              	.LFB3:
  74              		.loc 1 105 0
  75              		.cfi_startproc
  76 0000 182106F8 		e_stwu %r1,-8(%r1)
  77              	.LCFI2:
  78              		.cfi_def_cfa_offset 8
  79 0004 0080     		se_mflr %r0
  80 0006 D301     		se_stw %r0,12(%r1)
  81              		.cfi_offset 65, 4
  82              		.loc 1 107 0
  83 0008 78000001 		e_bl sysTimeReset
  84              	.LVL5:
  85              		.loc 1 108 0
  86 000c C301     		se_lwz %r0,12(%r1)
  87 000e 0090     		se_mtlr %r0
  88              		.cfi_restore 65
  89 0010 2071     		se_addi %r1,8
  90              	.LCFI3:
  91              		.cfi_def_cfa_offset 0
  92 0012 0004     		se_blr
  93              		.cfi_endproc
  94              	.LFE3:
  95              		.size	osalSysTimeReset, .-osalSysTimeReset
  96              		.section	.text.vector59,"axv",@progbits
  97              		.align 1
  98              		.p2align 4,,15
  99              		.globl vector59
 100              		.type	vector59, @function
 101              	vector59:
 102              	.LFB13:
 103              		.loc 1 251 0
 104              		.cfi_startproc
 105 0000 182106F8 		e_stwu %r1,-8(%r1)
 106              	.LCFI4:
 107              		.cfi_def_cfa_offset 8
 108 0004 0080     		se_mflr %r0
 109 0006 D301     		se_stw %r0,12(%r1)
 110              		.cfi_offset 65, 4
 111              	.LBB32:
 112              	.LBB33:
 113              	.LBB34:
 114              		.file 2 "./components/spc56elxx_irq_component_rla/lib/include/irq.h"
GAS LISTING C:\Users\sw46\AppData\Local\Temp\cc8GjfTs.s 			page 3


 115              		.loc 2 92 0
 116              	 # 92 "./components/spc56elxx_irq_component_rla/lib/include/irq.h" 1
 117 0008 7C000146 		wrteei  0
 118              	 # 0 "" 2
 119              	.LBE34:
 120              	.LBE33:
 121              	.LBE32:
 122              		.loc 1 257 0
 123 000c 7140E000 		e_lis %r10,.LANCHOR0@ha
 124 0010 512A0000 		e_lwz %r9,.LANCHOR0@l(%r10)
 125 0014 19298001 		e_addi %r9,%r9,1
 126 0018 552A0000 		e_stw %r9,.LANCHOR0@l(%r10)
 127              	.LBB35:
 128              	.LBB36:
 129              	.LBB37:
 130              		.loc 2 77 0
 131              	 # 77 "./components/spc56elxx_irq_component_rla/lib/include/irq.h" 1
 132 001c 7C008146 		wrteei  1
 133              	 # 0 "" 2
 134              	.LBE37:
 135              	.LBE36:
 136              	.LBE35:
 137              	.LBB38:
 138              	.LBB39:
 139              		.loc 1 107 0
 140 0020 78000001 		e_bl sysTimeReset
 141              	.LVL6:
 142              	.LBE39:
 143              	.LBE38:
 144              		.loc 1 264 0
 145 0024 C301     		se_lwz %r0,12(%r1)
 146 0026 0090     		se_mtlr %r0
 147              		.cfi_restore 65
 148 0028 2071     		se_addi %r1,8
 149              	.LCFI5:
 150              		.cfi_def_cfa_offset 0
 151 002a 0004     		se_blr
 152              		.cfi_endproc
 153              	.LFE13:
 154              		.size	vector59, .-vector59
 155              		.section	.text.osalThreadDelaySeconds,"axv",@progbits
 156              		.align 1
 157              		.p2align 4,,15
 158              		.globl osalThreadDelaySeconds
 159              		.type	osalThreadDelaySeconds, @function
 160              	osalThreadDelaySeconds:
 161              	.LFB14:
 162              		.loc 1 281 0
 163              		.cfi_startproc
 164              	.LVL7:
 165 0000 182106F8 		e_stwu %r1,-8(%r1)
 166              	.LCFI6:
 167              		.cfi_def_cfa_offset 8
 168 0004 0080     		se_mflr %r0
 169 0006 D301     		se_stw %r0,12(%r1)
 170              		.cfi_offset 65, 4
 171              	.LVL8:
GAS LISTING C:\Users\sw46\AppData\Local\Temp\cc8GjfTs.s 			page 4


 172              	.LBB40:
 173              	.LBB41:
 174              		.loc 1 121 0
 175 0008 7120E000 		e_lis %r9,.LANCHOR1@ha
 176 000c 51290000 		e_lwz %r9,.LANCHOR1@l(%r9)
 177              	.LBE41:
 178              	.LBE40:
 179              		.loc 1 283 0
 180 0010 7C6349D6 		mullw %r3,%r3,%r9
 181              	.LVL9:
 182 0014 78000001 		e_bl osalSysTimeDelayTicks
 183              	.LVL10:
 184              		.loc 1 284 0
 185 0018 C301     		se_lwz %r0,12(%r1)
 186 001a 0090     		se_mtlr %r0
 187              		.cfi_restore 65
 188 001c 2071     		se_addi %r1,8
 189              	.LCFI7:
 190              		.cfi_def_cfa_offset 0
 191 001e 0004     		se_blr
 192              		.cfi_endproc
 193              	.LFE14:
 194              		.size	osalThreadDelaySeconds, .-osalThreadDelaySeconds
 195              		.section	.text.osalThreadDelayMilliseconds,"axv",@progbits
 196              		.align 1
 197              		.p2align 4,,15
 198              		.globl osalThreadDelayMilliseconds
 199              		.type	osalThreadDelayMilliseconds, @function
 200              	osalThreadDelayMilliseconds:
 201              	.LFB15:
 202              		.loc 1 296 0
 203              		.cfi_startproc
 204              	.LVL11:
 205 0000 182106F8 		e_stwu %r1,-8(%r1)
 206              	.LCFI8:
 207              		.cfi_def_cfa_offset 8
 208 0004 0080     		se_mflr %r0
 209 0006 D301     		se_stw %r0,12(%r1)
 210              		.cfi_offset 65, 4
 211              	.LVL12:
 212              	.LBB42:
 213              	.LBB43:
 214              		.loc 1 135 0
 215 0008 7120E000 		e_lis %r9,.LANCHOR1@ha
 216 000c 51290000 		e_lwz %r9,.LANCHOR1@l(%r9)
 217 0010 7C6349D6 		mullw %r3,%r3,%r9
 218              	.LVL13:
 219 0014 186384FF 		e_addi %r3,%r3,-1
 220 0018 7122E062 		e_lis %r9,0x1062
 221 001c 7129C5D3 		e_or2i %r9,19923
 222 0020 7C634816 		mulhwu %r3,%r3,%r9
 223 0024 6863     		se_srwi %r3,6
 224              	.LBE43:
 225              	.LBE42:
 226              		.loc 1 298 0
 227 0026 2003     		se_addi %r3,1
 228 0028 78000001 		e_bl osalSysTimeDelayTicks
GAS LISTING C:\Users\sw46\AppData\Local\Temp\cc8GjfTs.s 			page 5


 229              	.LVL14:
 230              		.loc 1 299 0
 231 002c C301     		se_lwz %r0,12(%r1)
 232 002e 0090     		se_mtlr %r0
 233              		.cfi_restore 65
 234 0030 2071     		se_addi %r1,8
 235              	.LCFI9:
 236              		.cfi_def_cfa_offset 0
 237 0032 0004     		se_blr
 238              		.cfi_endproc
 239              	.LFE15:
 240              		.size	osalThreadDelayMilliseconds, .-osalThreadDelayMilliseconds
 241              		.section	.text.osalThreadDelayMicroseconds,"axv",@progbits
 242              		.align 1
 243              		.p2align 4,,15
 244              		.globl osalThreadDelayMicroseconds
 245              		.type	osalThreadDelayMicroseconds, @function
 246              	osalThreadDelayMicroseconds:
 247              	.LFB16:
 248              		.loc 1 311 0
 249              		.cfi_startproc
 250              	.LVL15:
 251 0000 182106F8 		e_stwu %r1,-8(%r1)
 252              	.LCFI10:
 253              		.cfi_def_cfa_offset 8
 254 0004 0080     		se_mflr %r0
 255 0006 D301     		se_stw %r0,12(%r1)
 256              		.cfi_offset 65, 4
 257              	.LVL16:
 258              	.LBB44:
 259              	.LBB45:
 260              		.loc 1 150 0
 261 0008 7120E000 		e_lis %r9,.LANCHOR1@ha
 262 000c 51290000 		e_lwz %r9,.LANCHOR1@l(%r9)
 263 0010 7C6349D6 		mullw %r3,%r3,%r9
 264              	.LVL17:
 265 0014 186384FF 		e_addi %r3,%r3,-1
 266 0018 7128E31B 		e_lis %r9,0x431b
 267 001c 713BC683 		e_or2i %r9,56963
 268 0020 7C634816 		mulhwu %r3,%r3,%r9
 269 0024 6923     		se_srwi %r3,18
 270              	.LBE45:
 271              	.LBE44:
 272              		.loc 1 313 0
 273 0026 2003     		se_addi %r3,1
 274 0028 78000001 		e_bl osalSysTimeDelayTicks
 275              	.LVL18:
 276              		.loc 1 314 0
 277 002c C301     		se_lwz %r0,12(%r1)
 278 002e 0090     		se_mtlr %r0
 279              		.cfi_restore 65
 280 0030 2071     		se_addi %r1,8
 281              	.LCFI11:
 282              		.cfi_def_cfa_offset 0
 283 0032 0004     		se_blr
 284              		.cfi_endproc
 285              	.LFE16:
GAS LISTING C:\Users\sw46\AppData\Local\Temp\cc8GjfTs.s 			page 6


 286              		.size	osalThreadDelayMicroseconds, .-osalThreadDelayMicroseconds
 287              		.section	.text.osalThreadGetSeconds,"axv",@progbits
 288              		.align 1
 289              		.p2align 4,,15
 290              		.globl osalThreadGetSeconds
 291              		.type	osalThreadGetSeconds, @function
 292              	osalThreadGetSeconds:
 293              	.LFB17:
 294              		.loc 1 323 0
 295              		.cfi_startproc
 296              	.LBB50:
 297              	.LBB51:
 298              		.loc 1 236 0
 299 0000 7120E000 		e_lis %r9,.LANCHOR0@ha
 300 0004 50690000 		e_lwz %r3,.LANCHOR0@l(%r9)
 301              	.LBE51:
 302              	.LBE50:
 303              	.LBB52:
 304              	.LBB53:
 305              		.loc 1 165 0
 306 0008 7120E000 		e_lis %r9,.LANCHOR1@ha
 307 000c 51290000 		e_lwz %r9,.LANCHOR1@l(%r9)
 308              	.LBE53:
 309              	.LBE52:
 310              		.loc 1 326 0
 311 0010 7C634B96 		divwu %r3,%r3,%r9
 312 0014 0004     		se_blr
 313              		.cfi_endproc
 314              	.LFE17:
 315              		.size	osalThreadGetSeconds, .-osalThreadGetSeconds
 316              		.section	.text.osalThreadGetMilliseconds,"axv",@progbits
 317              		.align 1
 318              		.p2align 4,,15
 319              		.globl osalThreadGetMilliseconds
 320              		.type	osalThreadGetMilliseconds, @function
 321              	osalThreadGetMilliseconds:
 322              	.LFB18:
 323              		.loc 1 335 0
 324              		.cfi_startproc
 325              	.LBB58:
 326              	.LBB59:
 327              		.loc 1 236 0
 328 0000 7120E000 		e_lis %r9,.LANCHOR0@ha
 329 0004 51290000 		e_lwz %r9,.LANCHOR0@l(%r9)
 330              	.LBE59:
 331              	.LBE58:
 332              	.LBB60:
 333              	.LBB61:
 334              		.loc 1 179 0
 335 0008 7009A3E8 		e_mull2i %r9,1000
 336 000c 7140E000 		e_lis %r10,.LANCHOR1@ha
 337 0010 506A0000 		e_lwz %r3,.LANCHOR1@l(%r10)
 338              	.LBE61:
 339              	.LBE60:
 340              		.loc 1 338 0
 341 0014 7C691B96 		divwu %r3,%r9,%r3
 342 0018 0004     		se_blr
GAS LISTING C:\Users\sw46\AppData\Local\Temp\cc8GjfTs.s 			page 7


 343              		.cfi_endproc
 344              	.LFE18:
 345              		.size	osalThreadGetMilliseconds, .-osalThreadGetMilliseconds
 346              		.section	.text.osalThreadGetMicroseconds,"axv",@progbits
 347              		.align 1
 348              		.p2align 4,,15
 349              		.globl osalThreadGetMicroseconds
 350              		.type	osalThreadGetMicroseconds, @function
 351              	osalThreadGetMicroseconds:
 352              	.LFB19:
 353              		.loc 1 347 0
 354              		.cfi_startproc
 355              	.LBB66:
 356              	.LBB67:
 357              		.loc 1 236 0
 358 0000 7120E000 		e_lis %r9,.LANCHOR0@ha
 359 0004 50690000 		e_lwz %r3,.LANCHOR0@l(%r9)
 360              	.LBE67:
 361              	.LBE66:
 362              	.LBB68:
 363              	.LBB69:
 364              		.loc 1 193 0
 365 0008 7120E00F 		e_lis %r9,0xf
 366 000c 7128C240 		e_or2i %r9,16960
 367 0010 7D2349D6 		mullw %r9,%r3,%r9
 368 0014 7140E000 		e_lis %r10,.LANCHOR1@ha
 369 0018 506A0000 		e_lwz %r3,.LANCHOR1@l(%r10)
 370              	.LBE69:
 371              	.LBE68:
 372              		.loc 1 350 0
 373 001c 7C691B96 		divwu %r3,%r9,%r3
 374 0020 0004     		se_blr
 375              		.cfi_endproc
 376              	.LFE19:
 377              		.size	osalThreadGetMicroseconds, .-osalThreadGetMicroseconds
 378              		.section	.text.osalInit,"axv",@progbits
 379              		.align 1
 380              		.p2align 4,,15
 381              		.globl osalInit
 382              		.type	osalInit, @function
 383              	osalInit:
 384              	.LFB20:
 385              		.loc 1 363 0
 386              		.cfi_startproc
 387 0000 182106F8 		e_stwu %r1,-8(%r1)
 388              	.LCFI12:
 389              		.cfi_def_cfa_offset 8
 390 0004 0080     		se_mflr %r0
 391 0006 D301     		se_stw %r0,12(%r1)
 392              		.cfi_offset 65, 4
 393              		.loc 1 366 0
 394 0008 78000001 		e_bl _spr_init
 395              	.LVL19:
 396              	.LBB72:
 397              	.LBB73:
 398              		.loc 1 205 0
 399 000c 71400000 		e_li %r10,0
GAS LISTING C:\Users\sw46\AppData\Local\Temp\cc8GjfTs.s 			page 8


 400 0010 7120E000 		e_lis %r9,.LANCHOR0@ha
 401 0014 55490000 		e_stw %r10,.LANCHOR0@l(%r9)
 402              		.loc 1 207 0
 403 0018 706003E8 		e_li %r3,1000
 404 001c 78000001 		e_bl osalSysTimeSetup
 405              	.LVL20:
 406              	.LBE73:
 407              	.LBE72:
 408              		.loc 1 369 0
 409 0020 C301     		se_lwz %r0,12(%r1)
 410 0022 0090     		se_mtlr %r0
 411              		.cfi_restore 65
 412 0024 2071     		se_addi %r1,8
 413              	.LCFI13:
 414              		.cfi_def_cfa_offset 0
 415 0026 0004     		se_blr
 416              		.cfi_endproc
 417              	.LFE20:
 418              		.size	osalInit, .-osalInit
 419              		.section	.text.osalEnterCritical,"axv",@progbits
 420              		.align 1
 421              		.p2align 4,,15
 422              		.globl osalEnterCritical
 423              		.type	osalEnterCritical, @function
 424              	osalEnterCritical:
 425              	.LFB21:
 426              		.loc 1 376 0
 427              		.cfi_startproc
 428              	.LBB74:
 429              	.LBB75:
 430              		.loc 2 92 0
 431              	 # 92 "./components/spc56elxx_irq_component_rla/lib/include/irq.h" 1
 432 0000 7C000146 		wrteei  0
 433              	 # 0 "" 2
 434 0004 0004     		se_blr
 435              	.LBE75:
 436              	.LBE74:
 437              		.cfi_endproc
 438              	.LFE21:
 439              		.size	osalEnterCritical, .-osalEnterCritical
 440              		.section	.text.osalExitCritical,"axv",@progbits
 441              		.align 1
 442              		.p2align 4,,15
 443              		.globl osalExitCritical
 444              		.type	osalExitCritical, @function
 445              	osalExitCritical:
 446              	.LFB22:
 447              		.loc 1 386 0
 448              		.cfi_startproc
 449              	.LBB76:
 450              	.LBB77:
 451              		.loc 2 77 0
 452              	 # 77 "./components/spc56elxx_irq_component_rla/lib/include/irq.h" 1
 453 0000 7C008146 		wrteei  1
 454              	 # 0 "" 2
 455 0004 0004     		se_blr
 456              	.LBE77:
GAS LISTING C:\Users\sw46\AppData\Local\Temp\cc8GjfTs.s 			page 9


 457              	.LBE76:
 458              		.cfi_endproc
 459              	.LFE22:
 460              		.size	osalExitCritical, .-osalExitCritical
 461              		.section	.text.osalEnterCriticalFromISR,"axv",@progbits
 462              		.align 1
 463              		.p2align 4,,15
 464              		.globl osalEnterCriticalFromISR
 465              		.type	osalEnterCriticalFromISR, @function
 466              	osalEnterCriticalFromISR:
 467              	.LFB23:
 468              		.loc 1 396 0
 469              		.cfi_startproc
 470              	.LBB78:
 471              	.LBB79:
 472              		.loc 2 92 0
 473              	 # 92 "./components/spc56elxx_irq_component_rla/lib/include/irq.h" 1
 474 0000 7C000146 		wrteei  0
 475              	 # 0 "" 2
 476 0004 0004     		se_blr
 477              	.LBE79:
 478              	.LBE78:
 479              		.cfi_endproc
 480              	.LFE23:
 481              		.size	osalEnterCriticalFromISR, .-osalEnterCriticalFromISR
 482              		.section	.text.osalExitCriticalFromISR,"axv",@progbits
 483              		.align 1
 484              		.p2align 4,,15
 485              		.globl osalExitCriticalFromISR
 486              		.type	osalExitCriticalFromISR, @function
 487              	osalExitCriticalFromISR:
 488              	.LFB24:
 489              		.loc 1 408 0
 490              		.cfi_startproc
 491              	.LBB80:
 492              	.LBB81:
 493              		.loc 2 77 0
 494              	 # 77 "./components/spc56elxx_irq_component_rla/lib/include/irq.h" 1
 495 0000 7C008146 		wrteei  1
 496              	 # 0 "" 2
 497 0004 0004     		se_blr
 498              	.LBE81:
 499              	.LBE80:
 500              		.cfi_endproc
 501              	.LFE24:
 502              		.size	osalExitCriticalFromISR, .-osalExitCriticalFromISR
 503              		.section	.bss.osalsystime,"aw",@nobits
 504              		.align 2
 505              		.set	.LANCHOR0,. + 0
 506              		.type	osalsystime, @object
 507              		.size	osalsystime, 4
 508              	osalsystime:
 509 0000 00000000 		.zero	4
 510              		.section	.bss.osal_ticks_per_sec,"aw",@nobits
 511              		.align 2
 512              		.set	.LANCHOR1,. + 0
 513              		.type	osal_ticks_per_sec, @object
GAS LISTING C:\Users\sw46\AppData\Local\Temp\cc8GjfTs.s 			page 10


 514              		.size	osal_ticks_per_sec, 4
 515              	osal_ticks_per_sec:
 516 0000 00000000 		.zero	4
 517              		.section	".text","axv"
 518              	.Letext0:
 519              		.file 3 "c:\\spc5studio\\eclipse\\plugins\\com.st.tools.spc5.tools.gnu.gcc.ppcvle.win32_1.0.0.2016
 520              		.file 4 "c:\\spc5studio\\eclipse\\plugins\\com.st.tools.spc5.tools.gnu.gcc.ppcvle.win32_1.0.0.2016
 521              		.file 5 "./components/spc56elxx_osal_component_rla/lib/include/osal.h"
 522              		.file 6 "./components/spc56elxx_osal_component_rla/lib/include/systimer.h"
 523              		.section	.debug_info,"",@progbits
 524              	.Ldebug_info0:
 525 0000 0000059D 		.4byte	0x59d
 526 0004 0002     		.2byte	0x2
 527 0006 00000000 		.4byte	.Ldebug_abbrev0
 528 000a 04       		.byte	0x4
 529 000b 01       		.uleb128 0x1
 530 000c 00000000 		.4byte	.LASF45
 531 0010 01       		.byte	0x1
 532 0011 00000000 		.4byte	.LASF46
 533 0015 00000000 		.4byte	.LASF47
 534 0019 00000000 		.4byte	.Ldebug_ranges0+0
 535 001d 00000000 		.4byte	0
 536 0021 00000000 		.4byte	0
 537 0025 00000000 		.4byte	.Ldebug_line0
 538 0029 02       		.uleb128 0x2
 539 002a 01       		.byte	0x1
 540 002b 06       		.byte	0x6
 541 002c 00000000 		.4byte	.LASF0
 542 0030 02       		.uleb128 0x2
 543 0031 01       		.byte	0x1
 544 0032 08       		.byte	0x8
 545 0033 00000000 		.4byte	.LASF1
 546 0037 02       		.uleb128 0x2
 547 0038 02       		.byte	0x2
 548 0039 05       		.byte	0x5
 549 003a 00000000 		.4byte	.LASF2
 550 003e 02       		.uleb128 0x2
 551 003f 02       		.byte	0x2
 552 0040 07       		.byte	0x7
 553 0041 00000000 		.4byte	.LASF3
 554 0045 02       		.uleb128 0x2
 555 0046 04       		.byte	0x4
 556 0047 05       		.byte	0x5
 557 0048 00000000 		.4byte	.LASF4
 558 004c 03       		.uleb128 0x3
 559 004d 00000000 		.4byte	.LASF9
 560 0051 03       		.byte	0x3
 561 0052 41       		.byte	0x41
 562 0053 00000057 		.4byte	0x57
 563 0057 02       		.uleb128 0x2
 564 0058 04       		.byte	0x4
 565 0059 07       		.byte	0x7
 566 005a 00000000 		.4byte	.LASF5
 567 005e 02       		.uleb128 0x2
 568 005f 08       		.byte	0x8
 569 0060 05       		.byte	0x5
 570 0061 00000000 		.4byte	.LASF6
GAS LISTING C:\Users\sw46\AppData\Local\Temp\cc8GjfTs.s 			page 11


 571 0065 02       		.uleb128 0x2
 572 0066 08       		.byte	0x8
 573 0067 07       		.byte	0x7
 574 0068 00000000 		.4byte	.LASF7
 575 006c 04       		.uleb128 0x4
 576 006d 04       		.byte	0x4
 577 006e 05       		.byte	0x5
 578 006f 696E7400 		.string	"int"
 579 0073 02       		.uleb128 0x2
 580 0074 04       		.byte	0x4
 581 0075 07       		.byte	0x7
 582 0076 00000000 		.4byte	.LASF8
 583 007a 03       		.uleb128 0x3
 584 007b 00000000 		.4byte	.LASF10
 585 007f 04       		.byte	0x4
 586 0080 2D       		.byte	0x2d
 587 0081 0000004C 		.4byte	0x4c
 588 0085 02       		.uleb128 0x2
 589 0086 04       		.byte	0x4
 590 0087 07       		.byte	0x7
 591 0088 00000000 		.4byte	.LASF11
 592 008c 03       		.uleb128 0x3
 593 008d 00000000 		.4byte	.LASF12
 594 0091 05       		.byte	0x5
 595 0092 4C       		.byte	0x4c
 596 0093 0000007A 		.4byte	0x7a
 597 0097 05       		.uleb128 0x5
 598 0098 00000000 		.4byte	.LASF13
 599 009c 01       		.byte	0x1
 600 009d 78       		.byte	0x78
 601 009e 01       		.byte	0x1
 602 009f 0000008C 		.4byte	0x8c
 603 00a3 03       		.byte	0x3
 604 00a4 000000B4 		.4byte	0xb4
 605 00a8 06       		.uleb128 0x6
 606 00a9 73656300 		.string	"sec"
 607 00ad 01       		.byte	0x1
 608 00ae 78       		.byte	0x78
 609 00af 0000007A 		.4byte	0x7a
 610 00b3 00       		.byte	0
 611 00b4 05       		.uleb128 0x5
 612 00b5 00000000 		.4byte	.LASF14
 613 00b9 01       		.byte	0x1
 614 00ba 86       		.byte	0x86
 615 00bb 01       		.byte	0x1
 616 00bc 0000008C 		.4byte	0x8c
 617 00c0 03       		.byte	0x3
 618 00c1 000000D1 		.4byte	0xd1
 619 00c5 07       		.uleb128 0x7
 620 00c6 00000000 		.4byte	.LASF15
 621 00ca 01       		.byte	0x1
 622 00cb 86       		.byte	0x86
 623 00cc 0000007A 		.4byte	0x7a
 624 00d0 00       		.byte	0
 625 00d1 05       		.uleb128 0x5
 626 00d2 00000000 		.4byte	.LASF16
 627 00d6 01       		.byte	0x1
GAS LISTING C:\Users\sw46\AppData\Local\Temp\cc8GjfTs.s 			page 12


 628 00d7 95       		.byte	0x95
 629 00d8 01       		.byte	0x1
 630 00d9 0000008C 		.4byte	0x8c
 631 00dd 03       		.byte	0x3
 632 00de 000000EE 		.4byte	0xee
 633 00e2 07       		.uleb128 0x7
 634 00e3 00000000 		.4byte	.LASF17
 635 00e7 01       		.byte	0x1
 636 00e8 95       		.byte	0x95
 637 00e9 0000007A 		.4byte	0x7a
 638 00ed 00       		.byte	0
 639 00ee 05       		.uleb128 0x5
 640 00ef 00000000 		.4byte	.LASF18
 641 00f3 01       		.byte	0x1
 642 00f4 A4       		.byte	0xa4
 643 00f5 01       		.byte	0x1
 644 00f6 0000007A 		.4byte	0x7a
 645 00fa 03       		.byte	0x3
 646 00fb 0000010B 		.4byte	0x10b
 647 00ff 07       		.uleb128 0x7
 648 0100 00000000 		.4byte	.LASF19
 649 0104 01       		.byte	0x1
 650 0105 A4       		.byte	0xa4
 651 0106 0000008C 		.4byte	0x8c
 652 010a 00       		.byte	0
 653 010b 05       		.uleb128 0x5
 654 010c 00000000 		.4byte	.LASF20
 655 0110 01       		.byte	0x1
 656 0111 B2       		.byte	0xb2
 657 0112 01       		.byte	0x1
 658 0113 0000007A 		.4byte	0x7a
 659 0117 03       		.byte	0x3
 660 0118 00000128 		.4byte	0x128
 661 011c 07       		.uleb128 0x7
 662 011d 00000000 		.4byte	.LASF19
 663 0121 01       		.byte	0x1
 664 0122 B2       		.byte	0xb2
 665 0123 0000008C 		.4byte	0x8c
 666 0127 00       		.byte	0
 667 0128 05       		.uleb128 0x5
 668 0129 00000000 		.4byte	.LASF21
 669 012d 01       		.byte	0x1
 670 012e C0       		.byte	0xc0
 671 012f 01       		.byte	0x1
 672 0130 0000007A 		.4byte	0x7a
 673 0134 03       		.byte	0x3
 674 0135 00000145 		.4byte	0x145
 675 0139 07       		.uleb128 0x7
 676 013a 00000000 		.4byte	.LASF19
 677 013e 01       		.byte	0x1
 678 013f C0       		.byte	0xc0
 679 0140 0000008C 		.4byte	0x8c
 680 0144 00       		.byte	0
 681 0145 08       		.uleb128 0x8
 682 0146 00000000 		.4byte	.LASF22
 683 014a 02       		.byte	0x2
 684 014b 57       		.byte	0x57
GAS LISTING C:\Users\sw46\AppData\Local\Temp\cc8GjfTs.s 			page 13


 685 014c 01       		.byte	0x1
 686 014d 03       		.byte	0x3
 687 014e 08       		.uleb128 0x8
 688 014f 00000000 		.4byte	.LASF23
 689 0153 02       		.byte	0x2
 690 0154 49       		.byte	0x49
 691 0155 01       		.byte	0x1
 692 0156 03       		.byte	0x3
 693 0157 09       		.uleb128 0x9
 694 0158 00000000 		.4byte	.LASF48
 695 015c 01       		.byte	0x1
 696 015d D9       		.byte	0xd9
 697 015e 01       		.byte	0x1
 698 015f 00000000 		.4byte	.LFB11
 699 0163 00000000 		.4byte	.LFE11
 700 0167 02       		.byte	0x2
 701 0168 71       		.byte	0x71
 702 0169 00       		.sleb128 0
 703 016a 01       		.byte	0x1
 704 016b 0000018C 		.4byte	0x18c
 705 016f 0A       		.uleb128 0xa
 706 0170 00000000 		.4byte	.LASF19
 707 0174 01       		.byte	0x1
 708 0175 D9       		.byte	0xd9
 709 0176 0000008C 		.4byte	0x8c
 710 017a 00000000 		.4byte	.LLST0
 711 017e 0B       		.uleb128 0xb
 712 017f 00000000 		.4byte	.LASF40
 713 0183 01       		.byte	0x1
 714 0184 DB       		.byte	0xdb
 715 0185 0000008C 		.4byte	0x8c
 716 0189 01       		.byte	0x1
 717 018a 59       		.byte	0x59
 718 018b 00       		.byte	0
 719 018c 0C       		.uleb128 0xc
 720 018d 01       		.byte	0x1
 721 018e 00000000 		.4byte	.LASF28
 722 0192 01       		.byte	0x1
 723 0193 5B       		.byte	0x5b
 724 0194 01       		.byte	0x1
 725 0195 00000000 		.4byte	.LFB2
 726 0199 00000000 		.4byte	.LFE2
 727 019d 00000000 		.4byte	.LLST1
 728 01a1 01       		.byte	0x1
 729 01a2 000001C7 		.4byte	0x1c7
 730 01a6 0A       		.uleb128 0xa
 731 01a7 00000000 		.4byte	.LASF24
 732 01ab 01       		.byte	0x1
 733 01ac 5B       		.byte	0x5b
 734 01ad 0000007A 		.4byte	0x7a
 735 01b1 00000000 		.4byte	.LLST2
 736 01b5 0D       		.uleb128 0xd
 737 01b6 00000000 		.4byte	.LVL4
 738 01ba 00000577 		.4byte	0x577
 739 01be 0E       		.uleb128 0xe
 740 01bf 01       		.byte	0x1
 741 01c0 53       		.byte	0x53
GAS LISTING C:\Users\sw46\AppData\Local\Temp\cc8GjfTs.s 			page 14


 742 01c1 03       		.byte	0x3
 743 01c2 F3       		.byte	0xf3
 744 01c3 01       		.uleb128 0x1
 745 01c4 53       		.byte	0x53
 746 01c5 00       		.byte	0
 747 01c6 00       		.byte	0
 748 01c7 0F       		.uleb128 0xf
 749 01c8 01       		.byte	0x1
 750 01c9 00000000 		.4byte	.LASF25
 751 01cd 01       		.byte	0x1
 752 01ce 68       		.byte	0x68
 753 01cf 01       		.byte	0x1
 754 01d0 01       		.byte	0x1
 755 01d1 10       		.uleb128 0x10
 756 01d2 000001C7 		.4byte	0x1c7
 757 01d6 00000000 		.4byte	.LFB3
 758 01da 00000000 		.4byte	.LFE3
 759 01de 00000000 		.4byte	.LLST3
 760 01e2 01       		.byte	0x1
 761 01e3 000001F1 		.4byte	0x1f1
 762 01e7 11       		.uleb128 0x11
 763 01e8 00000000 		.4byte	.LVL5
 764 01ec 0000058B 		.4byte	0x58b
 765 01f0 00       		.byte	0
 766 01f1 12       		.uleb128 0x12
 767 01f2 01       		.byte	0x1
 768 01f3 00000000 		.4byte	.LASF26
 769 01f7 01       		.byte	0x1
 770 01f8 018C     		.2byte	0x18c
 771 01fa 01       		.byte	0x1
 772 01fb 01       		.byte	0x1
 773 01fc 12       		.uleb128 0x12
 774 01fd 01       		.byte	0x1
 775 01fe 00000000 		.4byte	.LASF27
 776 0202 01       		.byte	0x1
 777 0203 0198     		.2byte	0x198
 778 0205 01       		.byte	0x1
 779 0206 01       		.byte	0x1
 780 0207 0C       		.uleb128 0xc
 781 0208 01       		.byte	0x1
 782 0209 00000000 		.4byte	.LASF29
 783 020d 01       		.byte	0x1
 784 020e FB       		.byte	0xfb
 785 020f 01       		.byte	0x1
 786 0210 00000000 		.4byte	.LFB13
 787 0214 00000000 		.4byte	.LFE13
 788 0218 00000000 		.4byte	.LLST4
 789 021c 01       		.byte	0x1
 790 021d 00000285 		.4byte	0x285
 791 0221 13       		.uleb128 0x13
 792 0222 000001F1 		.4byte	0x1f1
 793 0226 00000000 		.4byte	.LBB32
 794 022a 00000000 		.4byte	.LBE32
 795 022e 01       		.byte	0x1
 796 022f FF       		.byte	0xff
 797 0230 00000245 		.4byte	0x245
 798 0234 14       		.uleb128 0x14
GAS LISTING C:\Users\sw46\AppData\Local\Temp\cc8GjfTs.s 			page 15


 799 0235 00000145 		.4byte	0x145
 800 0239 00000000 		.4byte	.LBB33
 801 023d 00000000 		.4byte	.LBE33
 802 0241 01       		.byte	0x1
 803 0242 018F     		.2byte	0x18f
 804 0244 00       		.byte	0
 805 0245 15       		.uleb128 0x15
 806 0246 000001FC 		.4byte	0x1fc
 807 024a 00000000 		.4byte	.LBB35
 808 024e 00000000 		.4byte	.LBE35
 809 0252 01       		.byte	0x1
 810 0253 0103     		.2byte	0x103
 811 0255 0000026A 		.4byte	0x26a
 812 0259 14       		.uleb128 0x14
 813 025a 0000014E 		.4byte	0x14e
 814 025e 00000000 		.4byte	.LBB36
 815 0262 00000000 		.4byte	.LBE36
 816 0266 01       		.byte	0x1
 817 0267 019B     		.2byte	0x19b
 818 0269 00       		.byte	0
 819 026a 16       		.uleb128 0x16
 820 026b 000001C7 		.4byte	0x1c7
 821 026f 00000000 		.4byte	.LBB38
 822 0273 00000000 		.4byte	.LBE38
 823 0277 01       		.byte	0x1
 824 0278 0105     		.2byte	0x105
 825 027a 11       		.uleb128 0x11
 826 027b 00000000 		.4byte	.LVL6
 827 027f 0000058B 		.4byte	0x58b
 828 0283 00       		.byte	0
 829 0284 00       		.byte	0
 830 0285 17       		.uleb128 0x17
 831 0286 01       		.byte	0x1
 832 0287 00000000 		.4byte	.LASF30
 833 028b 01       		.byte	0x1
 834 028c 0119     		.2byte	0x119
 835 028e 01       		.byte	0x1
 836 028f 00000000 		.4byte	.LFB14
 837 0293 00000000 		.4byte	.LFE14
 838 0297 00000000 		.4byte	.LLST5
 839 029b 01       		.byte	0x1
 840 029c 000002D8 		.4byte	0x2d8
 841 02a0 18       		.uleb128 0x18
 842 02a1 73656300 		.string	"sec"
 843 02a5 01       		.byte	0x1
 844 02a6 0119     		.2byte	0x119
 845 02a8 0000007A 		.4byte	0x7a
 846 02ac 00000000 		.4byte	.LLST6
 847 02b0 15       		.uleb128 0x15
 848 02b1 00000097 		.4byte	0x97
 849 02b5 00000000 		.4byte	.LBB40
 850 02b9 00000000 		.4byte	.LBE40
 851 02bd 01       		.byte	0x1
 852 02be 011B     		.2byte	0x11b
 853 02c0 000002CE 		.4byte	0x2ce
 854 02c4 19       		.uleb128 0x19
 855 02c5 000000A8 		.4byte	0xa8
GAS LISTING C:\Users\sw46\AppData\Local\Temp\cc8GjfTs.s 			page 16


 856 02c9 00000000 		.4byte	.LLST7
 857 02cd 00       		.byte	0
 858 02ce 11       		.uleb128 0x11
 859 02cf 00000000 		.4byte	.LVL10
 860 02d3 00000157 		.4byte	0x157
 861 02d7 00       		.byte	0
 862 02d8 17       		.uleb128 0x17
 863 02d9 01       		.byte	0x1
 864 02da 00000000 		.4byte	.LASF31
 865 02de 01       		.byte	0x1
 866 02df 0128     		.2byte	0x128
 867 02e1 01       		.byte	0x1
 868 02e2 00000000 		.4byte	.LFB15
 869 02e6 00000000 		.4byte	.LFE15
 870 02ea 00000000 		.4byte	.LLST8
 871 02ee 01       		.byte	0x1
 872 02ef 0000032B 		.4byte	0x32b
 873 02f3 1A       		.uleb128 0x1a
 874 02f4 00000000 		.4byte	.LASF15
 875 02f8 01       		.byte	0x1
 876 02f9 0128     		.2byte	0x128
 877 02fb 0000007A 		.4byte	0x7a
 878 02ff 00000000 		.4byte	.LLST9
 879 0303 15       		.uleb128 0x15
 880 0304 000000B4 		.4byte	0xb4
 881 0308 00000000 		.4byte	.LBB42
 882 030c 00000000 		.4byte	.LBE42
 883 0310 01       		.byte	0x1
 884 0311 012A     		.2byte	0x12a
 885 0313 00000321 		.4byte	0x321
 886 0317 19       		.uleb128 0x19
 887 0318 000000C5 		.4byte	0xc5
 888 031c 00000000 		.4byte	.LLST10
 889 0320 00       		.byte	0
 890 0321 11       		.uleb128 0x11
 891 0322 00000000 		.4byte	.LVL14
 892 0326 00000157 		.4byte	0x157
 893 032a 00       		.byte	0
 894 032b 17       		.uleb128 0x17
 895 032c 01       		.byte	0x1
 896 032d 00000000 		.4byte	.LASF32
 897 0331 01       		.byte	0x1
 898 0332 0137     		.2byte	0x137
 899 0334 01       		.byte	0x1
 900 0335 00000000 		.4byte	.LFB16
 901 0339 00000000 		.4byte	.LFE16
 902 033d 00000000 		.4byte	.LLST11
 903 0341 01       		.byte	0x1
 904 0342 0000037E 		.4byte	0x37e
 905 0346 1A       		.uleb128 0x1a
 906 0347 00000000 		.4byte	.LASF17
 907 034b 01       		.byte	0x1
 908 034c 0137     		.2byte	0x137
 909 034e 0000007A 		.4byte	0x7a
 910 0352 00000000 		.4byte	.LLST12
 911 0356 15       		.uleb128 0x15
 912 0357 000000D1 		.4byte	0xd1
GAS LISTING C:\Users\sw46\AppData\Local\Temp\cc8GjfTs.s 			page 17


 913 035b 00000000 		.4byte	.LBB44
 914 035f 00000000 		.4byte	.LBE44
 915 0363 01       		.byte	0x1
 916 0364 0139     		.2byte	0x139
 917 0366 00000374 		.4byte	0x374
 918 036a 19       		.uleb128 0x19
 919 036b 000000E2 		.4byte	0xe2
 920 036f 00000000 		.4byte	.LLST13
 921 0373 00       		.byte	0
 922 0374 11       		.uleb128 0x11
 923 0375 00000000 		.4byte	.LVL18
 924 0379 00000157 		.4byte	0x157
 925 037d 00       		.byte	0
 926 037e 1B       		.uleb128 0x1b
 927 037f 00000000 		.4byte	.LASF49
 928 0383 01       		.byte	0x1
 929 0384 EA       		.byte	0xea
 930 0385 01       		.byte	0x1
 931 0386 0000007A 		.4byte	0x7a
 932 038a 01       		.byte	0x1
 933 038b 1C       		.uleb128 0x1c
 934 038c 01       		.byte	0x1
 935 038d 00000000 		.4byte	.LASF33
 936 0391 01       		.byte	0x1
 937 0392 0143     		.2byte	0x143
 938 0394 01       		.byte	0x1
 939 0395 0000007A 		.4byte	0x7a
 940 0399 00000000 		.4byte	.LFB17
 941 039d 00000000 		.4byte	.LFE17
 942 03a1 02       		.byte	0x2
 943 03a2 71       		.byte	0x71
 944 03a3 00       		.sleb128 0
 945 03a4 01       		.byte	0x1
 946 03a5 000003D0 		.4byte	0x3d0
 947 03a9 14       		.uleb128 0x14
 948 03aa 0000037E 		.4byte	0x37e
 949 03ae 00000000 		.4byte	.LBB50
 950 03b2 00000000 		.4byte	.LBE50
 951 03b6 01       		.byte	0x1
 952 03b7 0145     		.2byte	0x145
 953 03b9 16       		.uleb128 0x16
 954 03ba 000000EE 		.4byte	0xee
 955 03be 00000000 		.4byte	.LBB52
 956 03c2 00000000 		.4byte	.LBE52
 957 03c6 01       		.byte	0x1
 958 03c7 0145     		.2byte	0x145
 959 03c9 1D       		.uleb128 0x1d
 960 03ca 000000FF 		.4byte	0xff
 961 03ce 00       		.byte	0
 962 03cf 00       		.byte	0
 963 03d0 1C       		.uleb128 0x1c
 964 03d1 01       		.byte	0x1
 965 03d2 00000000 		.4byte	.LASF34
 966 03d6 01       		.byte	0x1
 967 03d7 014F     		.2byte	0x14f
 968 03d9 01       		.byte	0x1
 969 03da 0000007A 		.4byte	0x7a
GAS LISTING C:\Users\sw46\AppData\Local\Temp\cc8GjfTs.s 			page 18


 970 03de 00000000 		.4byte	.LFB18
 971 03e2 00000000 		.4byte	.LFE18
 972 03e6 02       		.byte	0x2
 973 03e7 71       		.byte	0x71
 974 03e8 00       		.sleb128 0
 975 03e9 01       		.byte	0x1
 976 03ea 00000415 		.4byte	0x415
 977 03ee 14       		.uleb128 0x14
 978 03ef 0000037E 		.4byte	0x37e
 979 03f3 00000000 		.4byte	.LBB58
 980 03f7 00000000 		.4byte	.LBE58
 981 03fb 01       		.byte	0x1
 982 03fc 0151     		.2byte	0x151
 983 03fe 16       		.uleb128 0x16
 984 03ff 0000010B 		.4byte	0x10b
 985 0403 00000000 		.4byte	.LBB60
 986 0407 00000000 		.4byte	.LBE60
 987 040b 01       		.byte	0x1
 988 040c 0151     		.2byte	0x151
 989 040e 1D       		.uleb128 0x1d
 990 040f 0000011C 		.4byte	0x11c
 991 0413 00       		.byte	0
 992 0414 00       		.byte	0
 993 0415 1C       		.uleb128 0x1c
 994 0416 01       		.byte	0x1
 995 0417 00000000 		.4byte	.LASF35
 996 041b 01       		.byte	0x1
 997 041c 015B     		.2byte	0x15b
 998 041e 01       		.byte	0x1
 999 041f 0000007A 		.4byte	0x7a
 1000 0423 00000000 		.4byte	.LFB19
 1001 0427 00000000 		.4byte	.LFE19
 1002 042b 02       		.byte	0x2
 1003 042c 71       		.byte	0x71
 1004 042d 00       		.sleb128 0
 1005 042e 01       		.byte	0x1
 1006 042f 0000045A 		.4byte	0x45a
 1007 0433 14       		.uleb128 0x14
 1008 0434 0000037E 		.4byte	0x37e
 1009 0438 00000000 		.4byte	.LBB66
 1010 043c 00000000 		.4byte	.LBE66
 1011 0440 01       		.byte	0x1
 1012 0441 015D     		.2byte	0x15d
 1013 0443 16       		.uleb128 0x16
 1014 0444 00000128 		.4byte	0x128
 1015 0448 00000000 		.4byte	.LBB68
 1016 044c 00000000 		.4byte	.LBE68
 1017 0450 01       		.byte	0x1
 1018 0451 015D     		.2byte	0x15d
 1019 0453 1D       		.uleb128 0x1d
 1020 0454 00000139 		.4byte	0x139
 1021 0458 00       		.byte	0
 1022 0459 00       		.byte	0
 1023 045a 08       		.uleb128 0x8
 1024 045b 00000000 		.4byte	.LASF36
 1025 045f 01       		.byte	0x1
 1026 0460 CA       		.byte	0xca
GAS LISTING C:\Users\sw46\AppData\Local\Temp\cc8GjfTs.s 			page 19


 1027 0461 01       		.byte	0x1
 1028 0462 01       		.byte	0x1
 1029 0463 17       		.uleb128 0x17
 1030 0464 01       		.byte	0x1
 1031 0465 00000000 		.4byte	.LASF37
 1032 0469 01       		.byte	0x1
 1033 046a 016B     		.2byte	0x16b
 1034 046c 01       		.byte	0x1
 1035 046d 00000000 		.4byte	.LFB20
 1036 0471 00000000 		.4byte	.LFE20
 1037 0475 00000000 		.4byte	.LLST14
 1038 0479 01       		.byte	0x1
 1039 047a 000004AE 		.4byte	0x4ae
 1040 047e 15       		.uleb128 0x15
 1041 047f 0000045A 		.4byte	0x45a
 1042 0483 00000000 		.4byte	.LBB72
 1043 0487 00000000 		.4byte	.LBE72
 1044 048b 01       		.byte	0x1
 1045 048c 0170     		.2byte	0x170
 1046 048e 000004A4 		.4byte	0x4a4
 1047 0492 0D       		.uleb128 0xd
 1048 0493 00000000 		.4byte	.LVL20
 1049 0497 0000018C 		.4byte	0x18c
 1050 049b 0E       		.uleb128 0xe
 1051 049c 01       		.byte	0x1
 1052 049d 53       		.byte	0x53
 1053 049e 03       		.byte	0x3
 1054 049f 0A       		.byte	0xa
 1055 04a0 03E8     		.2byte	0x3e8
 1056 04a2 00       		.byte	0
 1057 04a3 00       		.byte	0
 1058 04a4 11       		.uleb128 0x11
 1059 04a5 00000000 		.4byte	.LVL19
 1060 04a9 00000595 		.4byte	0x595
 1061 04ad 00       		.byte	0
 1062 04ae 1E       		.uleb128 0x1e
 1063 04af 01       		.byte	0x1
 1064 04b0 00000000 		.4byte	.LASF38
 1065 04b4 01       		.byte	0x1
 1066 04b5 0178     		.2byte	0x178
 1067 04b7 01       		.byte	0x1
 1068 04b8 00000000 		.4byte	.LFB21
 1069 04bc 00000000 		.4byte	.LFE21
 1070 04c0 02       		.byte	0x2
 1071 04c1 71       		.byte	0x71
 1072 04c2 00       		.sleb128 0
 1073 04c3 01       		.byte	0x1
 1074 04c4 000004D9 		.4byte	0x4d9
 1075 04c8 14       		.uleb128 0x14
 1076 04c9 00000145 		.4byte	0x145
 1077 04cd 00000000 		.4byte	.LBB74
 1078 04d1 00000000 		.4byte	.LBE74
 1079 04d5 01       		.byte	0x1
 1080 04d6 017A     		.2byte	0x17a
 1081 04d8 00       		.byte	0
 1082 04d9 1E       		.uleb128 0x1e
 1083 04da 01       		.byte	0x1
GAS LISTING C:\Users\sw46\AppData\Local\Temp\cc8GjfTs.s 			page 20


 1084 04db 00000000 		.4byte	.LASF39
 1085 04df 01       		.byte	0x1
 1086 04e0 0182     		.2byte	0x182
 1087 04e2 01       		.byte	0x1
 1088 04e3 00000000 		.4byte	.LFB22
 1089 04e7 00000000 		.4byte	.LFE22
 1090 04eb 02       		.byte	0x2
 1091 04ec 71       		.byte	0x71
 1092 04ed 00       		.sleb128 0
 1093 04ee 01       		.byte	0x1
 1094 04ef 00000504 		.4byte	0x504
 1095 04f3 14       		.uleb128 0x14
 1096 04f4 0000014E 		.4byte	0x14e
 1097 04f8 00000000 		.4byte	.LBB76
 1098 04fc 00000000 		.4byte	.LBE76
 1099 0500 01       		.byte	0x1
 1100 0501 0184     		.2byte	0x184
 1101 0503 00       		.byte	0
 1102 0504 1F       		.uleb128 0x1f
 1103 0505 000001F1 		.4byte	0x1f1
 1104 0509 00000000 		.4byte	.LFB23
 1105 050d 00000000 		.4byte	.LFE23
 1106 0511 02       		.byte	0x2
 1107 0512 71       		.byte	0x71
 1108 0513 00       		.sleb128 0
 1109 0514 01       		.byte	0x1
 1110 0515 0000052A 		.4byte	0x52a
 1111 0519 14       		.uleb128 0x14
 1112 051a 00000145 		.4byte	0x145
 1113 051e 00000000 		.4byte	.LBB78
 1114 0522 00000000 		.4byte	.LBE78
 1115 0526 01       		.byte	0x1
 1116 0527 018F     		.2byte	0x18f
 1117 0529 00       		.byte	0
 1118 052a 1F       		.uleb128 0x1f
 1119 052b 000001FC 		.4byte	0x1fc
 1120 052f 00000000 		.4byte	.LFB24
 1121 0533 00000000 		.4byte	.LFE24
 1122 0537 02       		.byte	0x2
 1123 0538 71       		.byte	0x71
 1124 0539 00       		.sleb128 0
 1125 053a 01       		.byte	0x1
 1126 053b 00000550 		.4byte	0x550
 1127 053f 14       		.uleb128 0x14
 1128 0540 0000014E 		.4byte	0x14e
 1129 0544 00000000 		.4byte	.LBB80
 1130 0548 00000000 		.4byte	.LBE80
 1131 054c 01       		.byte	0x1
 1132 054d 019B     		.2byte	0x19b
 1133 054f 00       		.byte	0
 1134 0550 0B       		.uleb128 0xb
 1135 0551 00000000 		.4byte	.LASF41
 1136 0555 01       		.byte	0x1
 1137 0556 48       		.byte	0x48
 1138 0557 00000561 		.4byte	0x561
 1139 055b 05       		.byte	0x5
 1140 055c 03       		.byte	0x3
GAS LISTING C:\Users\sw46\AppData\Local\Temp\cc8GjfTs.s 			page 21


 1141 055d 00000000 		.4byte	osalsystime
 1142 0561 20       		.uleb128 0x20
 1143 0562 0000008C 		.4byte	0x8c
 1144 0566 0B       		.uleb128 0xb
 1145 0567 00000000 		.4byte	.LASF42
 1146 056b 01       		.byte	0x1
 1147 056c 4E       		.byte	0x4e
 1148 056d 0000007A 		.4byte	0x7a
 1149 0571 05       		.byte	0x5
 1150 0572 03       		.byte	0x3
 1151 0573 00000000 		.4byte	osal_ticks_per_sec
 1152 0577 21       		.uleb128 0x21
 1153 0578 01       		.byte	0x1
 1154 0579 00000000 		.4byte	.LASF50
 1155 057d 06       		.byte	0x6
 1156 057e 4B       		.byte	0x4b
 1157 057f 01       		.byte	0x1
 1158 0580 01       		.byte	0x1
 1159 0581 0000058B 		.4byte	0x58b
 1160 0585 22       		.uleb128 0x22
 1161 0586 0000007A 		.4byte	0x7a
 1162 058a 00       		.byte	0
 1163 058b 23       		.uleb128 0x23
 1164 058c 01       		.byte	0x1
 1165 058d 00000000 		.4byte	.LASF43
 1166 0591 06       		.byte	0x6
 1167 0592 4C       		.byte	0x4c
 1168 0593 01       		.byte	0x1
 1169 0594 01       		.byte	0x1
 1170 0595 24       		.uleb128 0x24
 1171 0596 01       		.byte	0x1
 1172 0597 00000000 		.4byte	.LASF44
 1173 059b 01       		.byte	0x1
 1174 059c 0163     		.2byte	0x163
 1175 059e 01       		.byte	0x1
 1176 059f 01       		.byte	0x1
 1177 05a0 00       		.byte	0
 1178              		.section	.debug_abbrev,"",@progbits
 1179              	.Ldebug_abbrev0:
 1180 0000 01       		.uleb128 0x1
 1181 0001 11       		.uleb128 0x11
 1182 0002 01       		.byte	0x1
 1183 0003 25       		.uleb128 0x25
 1184 0004 0E       		.uleb128 0xe
 1185 0005 13       		.uleb128 0x13
 1186 0006 0B       		.uleb128 0xb
 1187 0007 03       		.uleb128 0x3
 1188 0008 0E       		.uleb128 0xe
 1189 0009 1B       		.uleb128 0x1b
 1190 000a 0E       		.uleb128 0xe
 1191 000b 55       		.uleb128 0x55
 1192 000c 06       		.uleb128 0x6
 1193 000d 11       		.uleb128 0x11
 1194 000e 01       		.uleb128 0x1
 1195 000f 52       		.uleb128 0x52
 1196 0010 01       		.uleb128 0x1
 1197 0011 10       		.uleb128 0x10
GAS LISTING C:\Users\sw46\AppData\Local\Temp\cc8GjfTs.s 			page 22


 1198 0012 06       		.uleb128 0x6
 1199 0013 00       		.byte	0
 1200 0014 00       		.byte	0
 1201 0015 02       		.uleb128 0x2
 1202 0016 24       		.uleb128 0x24
 1203 0017 00       		.byte	0
 1204 0018 0B       		.uleb128 0xb
 1205 0019 0B       		.uleb128 0xb
 1206 001a 3E       		.uleb128 0x3e
 1207 001b 0B       		.uleb128 0xb
 1208 001c 03       		.uleb128 0x3
 1209 001d 0E       		.uleb128 0xe
 1210 001e 00       		.byte	0
 1211 001f 00       		.byte	0
 1212 0020 03       		.uleb128 0x3
 1213 0021 16       		.uleb128 0x16
 1214 0022 00       		.byte	0
 1215 0023 03       		.uleb128 0x3
 1216 0024 0E       		.uleb128 0xe
 1217 0025 3A       		.uleb128 0x3a
 1218 0026 0B       		.uleb128 0xb
 1219 0027 3B       		.uleb128 0x3b
 1220 0028 0B       		.uleb128 0xb
 1221 0029 49       		.uleb128 0x49
 1222 002a 13       		.uleb128 0x13
 1223 002b 00       		.byte	0
 1224 002c 00       		.byte	0
 1225 002d 04       		.uleb128 0x4
 1226 002e 24       		.uleb128 0x24
 1227 002f 00       		.byte	0
 1228 0030 0B       		.uleb128 0xb
 1229 0031 0B       		.uleb128 0xb
 1230 0032 3E       		.uleb128 0x3e
 1231 0033 0B       		.uleb128 0xb
 1232 0034 03       		.uleb128 0x3
 1233 0035 08       		.uleb128 0x8
 1234 0036 00       		.byte	0
 1235 0037 00       		.byte	0
 1236 0038 05       		.uleb128 0x5
 1237 0039 2E       		.uleb128 0x2e
 1238 003a 01       		.byte	0x1
 1239 003b 03       		.uleb128 0x3
 1240 003c 0E       		.uleb128 0xe
 1241 003d 3A       		.uleb128 0x3a
 1242 003e 0B       		.uleb128 0xb
 1243 003f 3B       		.uleb128 0x3b
 1244 0040 0B       		.uleb128 0xb
 1245 0041 27       		.uleb128 0x27
 1246 0042 0C       		.uleb128 0xc
 1247 0043 49       		.uleb128 0x49
 1248 0044 13       		.uleb128 0x13
 1249 0045 20       		.uleb128 0x20
 1250 0046 0B       		.uleb128 0xb
 1251 0047 01       		.uleb128 0x1
 1252 0048 13       		.uleb128 0x13
 1253 0049 00       		.byte	0
 1254 004a 00       		.byte	0
GAS LISTING C:\Users\sw46\AppData\Local\Temp\cc8GjfTs.s 			page 23


 1255 004b 06       		.uleb128 0x6
 1256 004c 05       		.uleb128 0x5
 1257 004d 00       		.byte	0
 1258 004e 03       		.uleb128 0x3
 1259 004f 08       		.uleb128 0x8
 1260 0050 3A       		.uleb128 0x3a
 1261 0051 0B       		.uleb128 0xb
 1262 0052 3B       		.uleb128 0x3b
 1263 0053 0B       		.uleb128 0xb
 1264 0054 49       		.uleb128 0x49
 1265 0055 13       		.uleb128 0x13
 1266 0056 00       		.byte	0
 1267 0057 00       		.byte	0
 1268 0058 07       		.uleb128 0x7
 1269 0059 05       		.uleb128 0x5
 1270 005a 00       		.byte	0
 1271 005b 03       		.uleb128 0x3
 1272 005c 0E       		.uleb128 0xe
 1273 005d 3A       		.uleb128 0x3a
 1274 005e 0B       		.uleb128 0xb
 1275 005f 3B       		.uleb128 0x3b
 1276 0060 0B       		.uleb128 0xb
 1277 0061 49       		.uleb128 0x49
 1278 0062 13       		.uleb128 0x13
 1279 0063 00       		.byte	0
 1280 0064 00       		.byte	0
 1281 0065 08       		.uleb128 0x8
 1282 0066 2E       		.uleb128 0x2e
 1283 0067 00       		.byte	0
 1284 0068 03       		.uleb128 0x3
 1285 0069 0E       		.uleb128 0xe
 1286 006a 3A       		.uleb128 0x3a
 1287 006b 0B       		.uleb128 0xb
 1288 006c 3B       		.uleb128 0x3b
 1289 006d 0B       		.uleb128 0xb
 1290 006e 27       		.uleb128 0x27
 1291 006f 0C       		.uleb128 0xc
 1292 0070 20       		.uleb128 0x20
 1293 0071 0B       		.uleb128 0xb
 1294 0072 00       		.byte	0
 1295 0073 00       		.byte	0
 1296 0074 09       		.uleb128 0x9
 1297 0075 2E       		.uleb128 0x2e
 1298 0076 01       		.byte	0x1
 1299 0077 03       		.uleb128 0x3
 1300 0078 0E       		.uleb128 0xe
 1301 0079 3A       		.uleb128 0x3a
 1302 007a 0B       		.uleb128 0xb
 1303 007b 3B       		.uleb128 0x3b
 1304 007c 0B       		.uleb128 0xb
 1305 007d 27       		.uleb128 0x27
 1306 007e 0C       		.uleb128 0xc
 1307 007f 11       		.uleb128 0x11
 1308 0080 01       		.uleb128 0x1
 1309 0081 12       		.uleb128 0x12
 1310 0082 01       		.uleb128 0x1
 1311 0083 40       		.uleb128 0x40
GAS LISTING C:\Users\sw46\AppData\Local\Temp\cc8GjfTs.s 			page 24


 1312 0084 0A       		.uleb128 0xa
 1313 0085 9742     		.uleb128 0x2117
 1314 0087 0C       		.uleb128 0xc
 1315 0088 01       		.uleb128 0x1
 1316 0089 13       		.uleb128 0x13
 1317 008a 00       		.byte	0
 1318 008b 00       		.byte	0
 1319 008c 0A       		.uleb128 0xa
 1320 008d 05       		.uleb128 0x5
 1321 008e 00       		.byte	0
 1322 008f 03       		.uleb128 0x3
 1323 0090 0E       		.uleb128 0xe
 1324 0091 3A       		.uleb128 0x3a
 1325 0092 0B       		.uleb128 0xb
 1326 0093 3B       		.uleb128 0x3b
 1327 0094 0B       		.uleb128 0xb
 1328 0095 49       		.uleb128 0x49
 1329 0096 13       		.uleb128 0x13
 1330 0097 02       		.uleb128 0x2
 1331 0098 06       		.uleb128 0x6
 1332 0099 00       		.byte	0
 1333 009a 00       		.byte	0
 1334 009b 0B       		.uleb128 0xb
 1335 009c 34       		.uleb128 0x34
 1336 009d 00       		.byte	0
 1337 009e 03       		.uleb128 0x3
 1338 009f 0E       		.uleb128 0xe
 1339 00a0 3A       		.uleb128 0x3a
 1340 00a1 0B       		.uleb128 0xb
 1341 00a2 3B       		.uleb128 0x3b
 1342 00a3 0B       		.uleb128 0xb
 1343 00a4 49       		.uleb128 0x49
 1344 00a5 13       		.uleb128 0x13
 1345 00a6 02       		.uleb128 0x2
 1346 00a7 0A       		.uleb128 0xa
 1347 00a8 00       		.byte	0
 1348 00a9 00       		.byte	0
 1349 00aa 0C       		.uleb128 0xc
 1350 00ab 2E       		.uleb128 0x2e
 1351 00ac 01       		.byte	0x1
 1352 00ad 3F       		.uleb128 0x3f
 1353 00ae 0C       		.uleb128 0xc
 1354 00af 03       		.uleb128 0x3
 1355 00b0 0E       		.uleb128 0xe
 1356 00b1 3A       		.uleb128 0x3a
 1357 00b2 0B       		.uleb128 0xb
 1358 00b3 3B       		.uleb128 0x3b
 1359 00b4 0B       		.uleb128 0xb
 1360 00b5 27       		.uleb128 0x27
 1361 00b6 0C       		.uleb128 0xc
 1362 00b7 11       		.uleb128 0x11
 1363 00b8 01       		.uleb128 0x1
 1364 00b9 12       		.uleb128 0x12
 1365 00ba 01       		.uleb128 0x1
 1366 00bb 40       		.uleb128 0x40
 1367 00bc 06       		.uleb128 0x6
 1368 00bd 9742     		.uleb128 0x2117
GAS LISTING C:\Users\sw46\AppData\Local\Temp\cc8GjfTs.s 			page 25


 1369 00bf 0C       		.uleb128 0xc
 1370 00c0 01       		.uleb128 0x1
 1371 00c1 13       		.uleb128 0x13
 1372 00c2 00       		.byte	0
 1373 00c3 00       		.byte	0
 1374 00c4 0D       		.uleb128 0xd
 1375 00c5 898201   		.uleb128 0x4109
 1376 00c8 01       		.byte	0x1
 1377 00c9 11       		.uleb128 0x11
 1378 00ca 01       		.uleb128 0x1
 1379 00cb 31       		.uleb128 0x31
 1380 00cc 13       		.uleb128 0x13
 1381 00cd 00       		.byte	0
 1382 00ce 00       		.byte	0
 1383 00cf 0E       		.uleb128 0xe
 1384 00d0 8A8201   		.uleb128 0x410a
 1385 00d3 00       		.byte	0
 1386 00d4 02       		.uleb128 0x2
 1387 00d5 0A       		.uleb128 0xa
 1388 00d6 9142     		.uleb128 0x2111
 1389 00d8 0A       		.uleb128 0xa
 1390 00d9 00       		.byte	0
 1391 00da 00       		.byte	0
 1392 00db 0F       		.uleb128 0xf
 1393 00dc 2E       		.uleb128 0x2e
 1394 00dd 00       		.byte	0
 1395 00de 3F       		.uleb128 0x3f
 1396 00df 0C       		.uleb128 0xc
 1397 00e0 03       		.uleb128 0x3
 1398 00e1 0E       		.uleb128 0xe
 1399 00e2 3A       		.uleb128 0x3a
 1400 00e3 0B       		.uleb128 0xb
 1401 00e4 3B       		.uleb128 0x3b
 1402 00e5 0B       		.uleb128 0xb
 1403 00e6 27       		.uleb128 0x27
 1404 00e7 0C       		.uleb128 0xc
 1405 00e8 20       		.uleb128 0x20
 1406 00e9 0B       		.uleb128 0xb
 1407 00ea 00       		.byte	0
 1408 00eb 00       		.byte	0
 1409 00ec 10       		.uleb128 0x10
 1410 00ed 2E       		.uleb128 0x2e
 1411 00ee 01       		.byte	0x1
 1412 00ef 31       		.uleb128 0x31
 1413 00f0 13       		.uleb128 0x13
 1414 00f1 11       		.uleb128 0x11
 1415 00f2 01       		.uleb128 0x1
 1416 00f3 12       		.uleb128 0x12
 1417 00f4 01       		.uleb128 0x1
 1418 00f5 40       		.uleb128 0x40
 1419 00f6 06       		.uleb128 0x6
 1420 00f7 9742     		.uleb128 0x2117
 1421 00f9 0C       		.uleb128 0xc
 1422 00fa 01       		.uleb128 0x1
 1423 00fb 13       		.uleb128 0x13
 1424 00fc 00       		.byte	0
 1425 00fd 00       		.byte	0
GAS LISTING C:\Users\sw46\AppData\Local\Temp\cc8GjfTs.s 			page 26


 1426 00fe 11       		.uleb128 0x11
 1427 00ff 898201   		.uleb128 0x4109
 1428 0102 00       		.byte	0
 1429 0103 11       		.uleb128 0x11
 1430 0104 01       		.uleb128 0x1
 1431 0105 31       		.uleb128 0x31
 1432 0106 13       		.uleb128 0x13
 1433 0107 00       		.byte	0
 1434 0108 00       		.byte	0
 1435 0109 12       		.uleb128 0x12
 1436 010a 2E       		.uleb128 0x2e
 1437 010b 00       		.byte	0
 1438 010c 3F       		.uleb128 0x3f
 1439 010d 0C       		.uleb128 0xc
 1440 010e 03       		.uleb128 0x3
 1441 010f 0E       		.uleb128 0xe
 1442 0110 3A       		.uleb128 0x3a
 1443 0111 0B       		.uleb128 0xb
 1444 0112 3B       		.uleb128 0x3b
 1445 0113 05       		.uleb128 0x5
 1446 0114 27       		.uleb128 0x27
 1447 0115 0C       		.uleb128 0xc
 1448 0116 20       		.uleb128 0x20
 1449 0117 0B       		.uleb128 0xb
 1450 0118 00       		.byte	0
 1451 0119 00       		.byte	0
 1452 011a 13       		.uleb128 0x13
 1453 011b 1D       		.uleb128 0x1d
 1454 011c 01       		.byte	0x1
 1455 011d 31       		.uleb128 0x31
 1456 011e 13       		.uleb128 0x13
 1457 011f 11       		.uleb128 0x11
 1458 0120 01       		.uleb128 0x1
 1459 0121 12       		.uleb128 0x12
 1460 0122 01       		.uleb128 0x1
 1461 0123 58       		.uleb128 0x58
 1462 0124 0B       		.uleb128 0xb
 1463 0125 59       		.uleb128 0x59
 1464 0126 0B       		.uleb128 0xb
 1465 0127 01       		.uleb128 0x1
 1466 0128 13       		.uleb128 0x13
 1467 0129 00       		.byte	0
 1468 012a 00       		.byte	0
 1469 012b 14       		.uleb128 0x14
 1470 012c 1D       		.uleb128 0x1d
 1471 012d 00       		.byte	0
 1472 012e 31       		.uleb128 0x31
 1473 012f 13       		.uleb128 0x13
 1474 0130 11       		.uleb128 0x11
 1475 0131 01       		.uleb128 0x1
 1476 0132 12       		.uleb128 0x12
 1477 0133 01       		.uleb128 0x1
 1478 0134 58       		.uleb128 0x58
 1479 0135 0B       		.uleb128 0xb
 1480 0136 59       		.uleb128 0x59
 1481 0137 05       		.uleb128 0x5
 1482 0138 00       		.byte	0
GAS LISTING C:\Users\sw46\AppData\Local\Temp\cc8GjfTs.s 			page 27


 1483 0139 00       		.byte	0
 1484 013a 15       		.uleb128 0x15
 1485 013b 1D       		.uleb128 0x1d
 1486 013c 01       		.byte	0x1
 1487 013d 31       		.uleb128 0x31
 1488 013e 13       		.uleb128 0x13
 1489 013f 11       		.uleb128 0x11
 1490 0140 01       		.uleb128 0x1
 1491 0141 12       		.uleb128 0x12
 1492 0142 01       		.uleb128 0x1
 1493 0143 58       		.uleb128 0x58
 1494 0144 0B       		.uleb128 0xb
 1495 0145 59       		.uleb128 0x59
 1496 0146 05       		.uleb128 0x5
 1497 0147 01       		.uleb128 0x1
 1498 0148 13       		.uleb128 0x13
 1499 0149 00       		.byte	0
 1500 014a 00       		.byte	0
 1501 014b 16       		.uleb128 0x16
 1502 014c 1D       		.uleb128 0x1d
 1503 014d 01       		.byte	0x1
 1504 014e 31       		.uleb128 0x31
 1505 014f 13       		.uleb128 0x13
 1506 0150 11       		.uleb128 0x11
 1507 0151 01       		.uleb128 0x1
 1508 0152 12       		.uleb128 0x12
 1509 0153 01       		.uleb128 0x1
 1510 0154 58       		.uleb128 0x58
 1511 0155 0B       		.uleb128 0xb
 1512 0156 59       		.uleb128 0x59
 1513 0157 05       		.uleb128 0x5
 1514 0158 00       		.byte	0
 1515 0159 00       		.byte	0
 1516 015a 17       		.uleb128 0x17
 1517 015b 2E       		.uleb128 0x2e
 1518 015c 01       		.byte	0x1
 1519 015d 3F       		.uleb128 0x3f
 1520 015e 0C       		.uleb128 0xc
 1521 015f 03       		.uleb128 0x3
 1522 0160 0E       		.uleb128 0xe
 1523 0161 3A       		.uleb128 0x3a
 1524 0162 0B       		.uleb128 0xb
 1525 0163 3B       		.uleb128 0x3b
 1526 0164 05       		.uleb128 0x5
 1527 0165 27       		.uleb128 0x27
 1528 0166 0C       		.uleb128 0xc
 1529 0167 11       		.uleb128 0x11
 1530 0168 01       		.uleb128 0x1
 1531 0169 12       		.uleb128 0x12
 1532 016a 01       		.uleb128 0x1
 1533 016b 40       		.uleb128 0x40
 1534 016c 06       		.uleb128 0x6
 1535 016d 9742     		.uleb128 0x2117
 1536 016f 0C       		.uleb128 0xc
 1537 0170 01       		.uleb128 0x1
 1538 0171 13       		.uleb128 0x13
 1539 0172 00       		.byte	0
GAS LISTING C:\Users\sw46\AppData\Local\Temp\cc8GjfTs.s 			page 28


 1540 0173 00       		.byte	0
 1541 0174 18       		.uleb128 0x18
 1542 0175 05       		.uleb128 0x5
 1543 0176 00       		.byte	0
 1544 0177 03       		.uleb128 0x3
 1545 0178 08       		.uleb128 0x8
 1546 0179 3A       		.uleb128 0x3a
 1547 017a 0B       		.uleb128 0xb
 1548 017b 3B       		.uleb128 0x3b
 1549 017c 05       		.uleb128 0x5
 1550 017d 49       		.uleb128 0x49
 1551 017e 13       		.uleb128 0x13
 1552 017f 02       		.uleb128 0x2
 1553 0180 06       		.uleb128 0x6
 1554 0181 00       		.byte	0
 1555 0182 00       		.byte	0
 1556 0183 19       		.uleb128 0x19
 1557 0184 05       		.uleb128 0x5
 1558 0185 00       		.byte	0
 1559 0186 31       		.uleb128 0x31
 1560 0187 13       		.uleb128 0x13
 1561 0188 02       		.uleb128 0x2
 1562 0189 06       		.uleb128 0x6
 1563 018a 00       		.byte	0
 1564 018b 00       		.byte	0
 1565 018c 1A       		.uleb128 0x1a
 1566 018d 05       		.uleb128 0x5
 1567 018e 00       		.byte	0
 1568 018f 03       		.uleb128 0x3
 1569 0190 0E       		.uleb128 0xe
 1570 0191 3A       		.uleb128 0x3a
 1571 0192 0B       		.uleb128 0xb
 1572 0193 3B       		.uleb128 0x3b
 1573 0194 05       		.uleb128 0x5
 1574 0195 49       		.uleb128 0x49
 1575 0196 13       		.uleb128 0x13
 1576 0197 02       		.uleb128 0x2
 1577 0198 06       		.uleb128 0x6
 1578 0199 00       		.byte	0
 1579 019a 00       		.byte	0
 1580 019b 1B       		.uleb128 0x1b
 1581 019c 2E       		.uleb128 0x2e
 1582 019d 00       		.byte	0
 1583 019e 03       		.uleb128 0x3
 1584 019f 0E       		.uleb128 0xe
 1585 01a0 3A       		.uleb128 0x3a
 1586 01a1 0B       		.uleb128 0xb
 1587 01a2 3B       		.uleb128 0x3b
 1588 01a3 0B       		.uleb128 0xb
 1589 01a4 27       		.uleb128 0x27
 1590 01a5 0C       		.uleb128 0xc
 1591 01a6 49       		.uleb128 0x49
 1592 01a7 13       		.uleb128 0x13
 1593 01a8 20       		.uleb128 0x20
 1594 01a9 0B       		.uleb128 0xb
 1595 01aa 00       		.byte	0
 1596 01ab 00       		.byte	0
GAS LISTING C:\Users\sw46\AppData\Local\Temp\cc8GjfTs.s 			page 29


 1597 01ac 1C       		.uleb128 0x1c
 1598 01ad 2E       		.uleb128 0x2e
 1599 01ae 01       		.byte	0x1
 1600 01af 3F       		.uleb128 0x3f
 1601 01b0 0C       		.uleb128 0xc
 1602 01b1 03       		.uleb128 0x3
 1603 01b2 0E       		.uleb128 0xe
 1604 01b3 3A       		.uleb128 0x3a
 1605 01b4 0B       		.uleb128 0xb
 1606 01b5 3B       		.uleb128 0x3b
 1607 01b6 05       		.uleb128 0x5
 1608 01b7 27       		.uleb128 0x27
 1609 01b8 0C       		.uleb128 0xc
 1610 01b9 49       		.uleb128 0x49
 1611 01ba 13       		.uleb128 0x13
 1612 01bb 11       		.uleb128 0x11
 1613 01bc 01       		.uleb128 0x1
 1614 01bd 12       		.uleb128 0x12
 1615 01be 01       		.uleb128 0x1
 1616 01bf 40       		.uleb128 0x40
 1617 01c0 0A       		.uleb128 0xa
 1618 01c1 9742     		.uleb128 0x2117
 1619 01c3 0C       		.uleb128 0xc
 1620 01c4 01       		.uleb128 0x1
 1621 01c5 13       		.uleb128 0x13
 1622 01c6 00       		.byte	0
 1623 01c7 00       		.byte	0
 1624 01c8 1D       		.uleb128 0x1d
 1625 01c9 05       		.uleb128 0x5
 1626 01ca 00       		.byte	0
 1627 01cb 31       		.uleb128 0x31
 1628 01cc 13       		.uleb128 0x13
 1629 01cd 00       		.byte	0
 1630 01ce 00       		.byte	0
 1631 01cf 1E       		.uleb128 0x1e
 1632 01d0 2E       		.uleb128 0x2e
 1633 01d1 01       		.byte	0x1
 1634 01d2 3F       		.uleb128 0x3f
 1635 01d3 0C       		.uleb128 0xc
 1636 01d4 03       		.uleb128 0x3
 1637 01d5 0E       		.uleb128 0xe
 1638 01d6 3A       		.uleb128 0x3a
 1639 01d7 0B       		.uleb128 0xb
 1640 01d8 3B       		.uleb128 0x3b
 1641 01d9 05       		.uleb128 0x5
 1642 01da 27       		.uleb128 0x27
 1643 01db 0C       		.uleb128 0xc
 1644 01dc 11       		.uleb128 0x11
 1645 01dd 01       		.uleb128 0x1
 1646 01de 12       		.uleb128 0x12
 1647 01df 01       		.uleb128 0x1
 1648 01e0 40       		.uleb128 0x40
 1649 01e1 0A       		.uleb128 0xa
 1650 01e2 9742     		.uleb128 0x2117
 1651 01e4 0C       		.uleb128 0xc
 1652 01e5 01       		.uleb128 0x1
 1653 01e6 13       		.uleb128 0x13
GAS LISTING C:\Users\sw46\AppData\Local\Temp\cc8GjfTs.s 			page 30


 1654 01e7 00       		.byte	0
 1655 01e8 00       		.byte	0
 1656 01e9 1F       		.uleb128 0x1f
 1657 01ea 2E       		.uleb128 0x2e
 1658 01eb 01       		.byte	0x1
 1659 01ec 31       		.uleb128 0x31
 1660 01ed 13       		.uleb128 0x13
 1661 01ee 11       		.uleb128 0x11
 1662 01ef 01       		.uleb128 0x1
 1663 01f0 12       		.uleb128 0x12
 1664 01f1 01       		.uleb128 0x1
 1665 01f2 40       		.uleb128 0x40
 1666 01f3 0A       		.uleb128 0xa
 1667 01f4 9742     		.uleb128 0x2117
 1668 01f6 0C       		.uleb128 0xc
 1669 01f7 01       		.uleb128 0x1
 1670 01f8 13       		.uleb128 0x13
 1671 01f9 00       		.byte	0
 1672 01fa 00       		.byte	0
 1673 01fb 20       		.uleb128 0x20
 1674 01fc 35       		.uleb128 0x35
 1675 01fd 00       		.byte	0
 1676 01fe 49       		.uleb128 0x49
 1677 01ff 13       		.uleb128 0x13
 1678 0200 00       		.byte	0
 1679 0201 00       		.byte	0
 1680 0202 21       		.uleb128 0x21
 1681 0203 2E       		.uleb128 0x2e
 1682 0204 01       		.byte	0x1
 1683 0205 3F       		.uleb128 0x3f
 1684 0206 0C       		.uleb128 0xc
 1685 0207 03       		.uleb128 0x3
 1686 0208 0E       		.uleb128 0xe
 1687 0209 3A       		.uleb128 0x3a
 1688 020a 0B       		.uleb128 0xb
 1689 020b 3B       		.uleb128 0x3b
 1690 020c 0B       		.uleb128 0xb
 1691 020d 27       		.uleb128 0x27
 1692 020e 0C       		.uleb128 0xc
 1693 020f 3C       		.uleb128 0x3c
 1694 0210 0C       		.uleb128 0xc
 1695 0211 01       		.uleb128 0x1
 1696 0212 13       		.uleb128 0x13
 1697 0213 00       		.byte	0
 1698 0214 00       		.byte	0
 1699 0215 22       		.uleb128 0x22
 1700 0216 05       		.uleb128 0x5
 1701 0217 00       		.byte	0
 1702 0218 49       		.uleb128 0x49
 1703 0219 13       		.uleb128 0x13
 1704 021a 00       		.byte	0
 1705 021b 00       		.byte	0
 1706 021c 23       		.uleb128 0x23
 1707 021d 2E       		.uleb128 0x2e
 1708 021e 00       		.byte	0
 1709 021f 3F       		.uleb128 0x3f
 1710 0220 0C       		.uleb128 0xc
GAS LISTING C:\Users\sw46\AppData\Local\Temp\cc8GjfTs.s 			page 31


 1711 0221 03       		.uleb128 0x3
 1712 0222 0E       		.uleb128 0xe
 1713 0223 3A       		.uleb128 0x3a
 1714 0224 0B       		.uleb128 0xb
 1715 0225 3B       		.uleb128 0x3b
 1716 0226 0B       		.uleb128 0xb
 1717 0227 27       		.uleb128 0x27
 1718 0228 0C       		.uleb128 0xc
 1719 0229 3C       		.uleb128 0x3c
 1720 022a 0C       		.uleb128 0xc
 1721 022b 00       		.byte	0
 1722 022c 00       		.byte	0
 1723 022d 24       		.uleb128 0x24
 1724 022e 2E       		.uleb128 0x2e
 1725 022f 00       		.byte	0
 1726 0230 3F       		.uleb128 0x3f
 1727 0231 0C       		.uleb128 0xc
 1728 0232 03       		.uleb128 0x3
 1729 0233 0E       		.uleb128 0xe
 1730 0234 3A       		.uleb128 0x3a
 1731 0235 0B       		.uleb128 0xb
 1732 0236 3B       		.uleb128 0x3b
 1733 0237 05       		.uleb128 0x5
 1734 0238 27       		.uleb128 0x27
 1735 0239 0C       		.uleb128 0xc
 1736 023a 3C       		.uleb128 0x3c
 1737 023b 0C       		.uleb128 0xc
 1738 023c 00       		.byte	0
 1739 023d 00       		.byte	0
 1740 023e 00       		.byte	0
 1741              		.section	.debug_loc,"",@progbits
 1742              	.Ldebug_loc0:
 1743              	.LLST0:
 1744 0000 00000000 		.4byte	.LVL0
 1745 0004 00000000 		.4byte	.LVL2
 1746 0008 0001     		.2byte	0x1
 1747 000a 53       		.byte	0x53
 1748 000b 00000000 		.4byte	.LVL2
 1749 000f 00000000 		.4byte	.LFE11
 1750 0013 0004     		.2byte	0x4
 1751 0015 F3       		.byte	0xf3
 1752 0016 01       		.uleb128 0x1
 1753 0017 53       		.byte	0x53
 1754 0018 9F       		.byte	0x9f
 1755 0019 00000000 		.4byte	0
 1756 001d 00000000 		.4byte	0
 1757              	.LLST1:
 1758 0021 00000000 		.4byte	.LFB2
 1759 0025 00000000 		.4byte	.LCFI0
 1760 0029 0002     		.2byte	0x2
 1761 002b 71       		.byte	0x71
 1762 002c 00       		.sleb128 0
 1763 002d 00000000 		.4byte	.LCFI0
 1764 0031 00000000 		.4byte	.LCFI1
 1765 0035 0002     		.2byte	0x2
 1766 0037 71       		.byte	0x71
 1767 0038 08       		.sleb128 8
GAS LISTING C:\Users\sw46\AppData\Local\Temp\cc8GjfTs.s 			page 32


 1768 0039 00000000 		.4byte	.LCFI1
 1769 003d 00000000 		.4byte	.LFE2
 1770 0041 0002     		.2byte	0x2
 1771 0043 71       		.byte	0x71
 1772 0044 00       		.sleb128 0
 1773 0045 00000000 		.4byte	0
 1774 0049 00000000 		.4byte	0
 1775              	.LLST2:
 1776 004d 00000000 		.4byte	.LVL3
 1777 0051 00000000 		.4byte	.LVL4-1
 1778 0055 0001     		.2byte	0x1
 1779 0057 53       		.byte	0x53
 1780 0058 00000000 		.4byte	.LVL4-1
 1781 005c 00000000 		.4byte	.LFE2
 1782 0060 0004     		.2byte	0x4
 1783 0062 F3       		.byte	0xf3
 1784 0063 01       		.uleb128 0x1
 1785 0064 53       		.byte	0x53
 1786 0065 9F       		.byte	0x9f
 1787 0066 00000000 		.4byte	0
 1788 006a 00000000 		.4byte	0
 1789              	.LLST3:
 1790 006e 00000000 		.4byte	.LFB3
 1791 0072 00000000 		.4byte	.LCFI2
 1792 0076 0002     		.2byte	0x2
 1793 0078 71       		.byte	0x71
 1794 0079 00       		.sleb128 0
 1795 007a 00000000 		.4byte	.LCFI2
 1796 007e 00000000 		.4byte	.LCFI3
 1797 0082 0002     		.2byte	0x2
 1798 0084 71       		.byte	0x71
 1799 0085 08       		.sleb128 8
 1800 0086 00000000 		.4byte	.LCFI3
 1801 008a 00000000 		.4byte	.LFE3
 1802 008e 0002     		.2byte	0x2
 1803 0090 71       		.byte	0x71
 1804 0091 00       		.sleb128 0
 1805 0092 00000000 		.4byte	0
 1806 0096 00000000 		.4byte	0
 1807              	.LLST4:
 1808 009a 00000000 		.4byte	.LFB13
 1809 009e 00000000 		.4byte	.LCFI4
 1810 00a2 0002     		.2byte	0x2
 1811 00a4 71       		.byte	0x71
 1812 00a5 00       		.sleb128 0
 1813 00a6 00000000 		.4byte	.LCFI4
 1814 00aa 00000000 		.4byte	.LCFI5
 1815 00ae 0002     		.2byte	0x2
 1816 00b0 71       		.byte	0x71
 1817 00b1 08       		.sleb128 8
 1818 00b2 00000000 		.4byte	.LCFI5
 1819 00b6 00000000 		.4byte	.LFE13
 1820 00ba 0002     		.2byte	0x2
 1821 00bc 71       		.byte	0x71
 1822 00bd 00       		.sleb128 0
 1823 00be 00000000 		.4byte	0
 1824 00c2 00000000 		.4byte	0
GAS LISTING C:\Users\sw46\AppData\Local\Temp\cc8GjfTs.s 			page 33


 1825              	.LLST5:
 1826 00c6 00000000 		.4byte	.LFB14
 1827 00ca 00000000 		.4byte	.LCFI6
 1828 00ce 0002     		.2byte	0x2
 1829 00d0 71       		.byte	0x71
 1830 00d1 00       		.sleb128 0
 1831 00d2 00000000 		.4byte	.LCFI6
 1832 00d6 00000000 		.4byte	.LCFI7
 1833 00da 0002     		.2byte	0x2
 1834 00dc 71       		.byte	0x71
 1835 00dd 08       		.sleb128 8
 1836 00de 00000000 		.4byte	.LCFI7
 1837 00e2 00000000 		.4byte	.LFE14
 1838 00e6 0002     		.2byte	0x2
 1839 00e8 71       		.byte	0x71
 1840 00e9 00       		.sleb128 0
 1841 00ea 00000000 		.4byte	0
 1842 00ee 00000000 		.4byte	0
 1843              	.LLST6:
 1844 00f2 00000000 		.4byte	.LVL7
 1845 00f6 00000000 		.4byte	.LVL9
 1846 00fa 0001     		.2byte	0x1
 1847 00fc 53       		.byte	0x53
 1848 00fd 00000000 		.4byte	.LVL9
 1849 0101 00000000 		.4byte	.LFE14
 1850 0105 0004     		.2byte	0x4
 1851 0107 F3       		.byte	0xf3
 1852 0108 01       		.uleb128 0x1
 1853 0109 53       		.byte	0x53
 1854 010a 9F       		.byte	0x9f
 1855 010b 00000000 		.4byte	0
 1856 010f 00000000 		.4byte	0
 1857              	.LLST7:
 1858 0113 00000000 		.4byte	.LVL8
 1859 0117 00000000 		.4byte	.LVL9
 1860 011b 0001     		.2byte	0x1
 1861 011d 53       		.byte	0x53
 1862 011e 00000000 		.4byte	.LVL9
 1863 0122 00000000 		.4byte	.LFE14
 1864 0126 0004     		.2byte	0x4
 1865 0128 F3       		.byte	0xf3
 1866 0129 01       		.uleb128 0x1
 1867 012a 53       		.byte	0x53
 1868 012b 9F       		.byte	0x9f
 1869 012c 00000000 		.4byte	0
 1870 0130 00000000 		.4byte	0
 1871              	.LLST8:
 1872 0134 00000000 		.4byte	.LFB15
 1873 0138 00000000 		.4byte	.LCFI8
 1874 013c 0002     		.2byte	0x2
 1875 013e 71       		.byte	0x71
 1876 013f 00       		.sleb128 0
 1877 0140 00000000 		.4byte	.LCFI8
 1878 0144 00000000 		.4byte	.LCFI9
 1879 0148 0002     		.2byte	0x2
 1880 014a 71       		.byte	0x71
 1881 014b 08       		.sleb128 8
GAS LISTING C:\Users\sw46\AppData\Local\Temp\cc8GjfTs.s 			page 34


 1882 014c 00000000 		.4byte	.LCFI9
 1883 0150 00000000 		.4byte	.LFE15
 1884 0154 0002     		.2byte	0x2
 1885 0156 71       		.byte	0x71
 1886 0157 00       		.sleb128 0
 1887 0158 00000000 		.4byte	0
 1888 015c 00000000 		.4byte	0
 1889              	.LLST9:
 1890 0160 00000000 		.4byte	.LVL11
 1891 0164 00000000 		.4byte	.LVL13
 1892 0168 0001     		.2byte	0x1
 1893 016a 53       		.byte	0x53
 1894 016b 00000000 		.4byte	.LVL13
 1895 016f 00000000 		.4byte	.LFE15
 1896 0173 0004     		.2byte	0x4
 1897 0175 F3       		.byte	0xf3
 1898 0176 01       		.uleb128 0x1
 1899 0177 53       		.byte	0x53
 1900 0178 9F       		.byte	0x9f
 1901 0179 00000000 		.4byte	0
 1902 017d 00000000 		.4byte	0
 1903              	.LLST10:
 1904 0181 00000000 		.4byte	.LVL12
 1905 0185 00000000 		.4byte	.LVL13
 1906 0189 0001     		.2byte	0x1
 1907 018b 53       		.byte	0x53
 1908 018c 00000000 		.4byte	.LVL13
 1909 0190 00000000 		.4byte	.LFE15
 1910 0194 0004     		.2byte	0x4
 1911 0196 F3       		.byte	0xf3
 1912 0197 01       		.uleb128 0x1
 1913 0198 53       		.byte	0x53
 1914 0199 9F       		.byte	0x9f
 1915 019a 00000000 		.4byte	0
 1916 019e 00000000 		.4byte	0
 1917              	.LLST11:
 1918 01a2 00000000 		.4byte	.LFB16
 1919 01a6 00000000 		.4byte	.LCFI10
 1920 01aa 0002     		.2byte	0x2
 1921 01ac 71       		.byte	0x71
 1922 01ad 00       		.sleb128 0
 1923 01ae 00000000 		.4byte	.LCFI10
 1924 01b2 00000000 		.4byte	.LCFI11
 1925 01b6 0002     		.2byte	0x2
 1926 01b8 71       		.byte	0x71
 1927 01b9 08       		.sleb128 8
 1928 01ba 00000000 		.4byte	.LCFI11
 1929 01be 00000000 		.4byte	.LFE16
 1930 01c2 0002     		.2byte	0x2
 1931 01c4 71       		.byte	0x71
 1932 01c5 00       		.sleb128 0
 1933 01c6 00000000 		.4byte	0
 1934 01ca 00000000 		.4byte	0
 1935              	.LLST12:
 1936 01ce 00000000 		.4byte	.LVL15
 1937 01d2 00000000 		.4byte	.LVL17
 1938 01d6 0001     		.2byte	0x1
GAS LISTING C:\Users\sw46\AppData\Local\Temp\cc8GjfTs.s 			page 35


 1939 01d8 53       		.byte	0x53
 1940 01d9 00000000 		.4byte	.LVL17
 1941 01dd 00000000 		.4byte	.LFE16
 1942 01e1 0004     		.2byte	0x4
 1943 01e3 F3       		.byte	0xf3
 1944 01e4 01       		.uleb128 0x1
 1945 01e5 53       		.byte	0x53
 1946 01e6 9F       		.byte	0x9f
 1947 01e7 00000000 		.4byte	0
 1948 01eb 00000000 		.4byte	0
 1949              	.LLST13:
 1950 01ef 00000000 		.4byte	.LVL16
 1951 01f3 00000000 		.4byte	.LVL17
 1952 01f7 0001     		.2byte	0x1
 1953 01f9 53       		.byte	0x53
 1954 01fa 00000000 		.4byte	.LVL17
 1955 01fe 00000000 		.4byte	.LFE16
 1956 0202 0004     		.2byte	0x4
 1957 0204 F3       		.byte	0xf3
 1958 0205 01       		.uleb128 0x1
 1959 0206 53       		.byte	0x53
 1960 0207 9F       		.byte	0x9f
 1961 0208 00000000 		.4byte	0
 1962 020c 00000000 		.4byte	0
 1963              	.LLST14:
 1964 0210 00000000 		.4byte	.LFB20
 1965 0214 00000000 		.4byte	.LCFI12
 1966 0218 0002     		.2byte	0x2
 1967 021a 71       		.byte	0x71
 1968 021b 00       		.sleb128 0
 1969 021c 00000000 		.4byte	.LCFI12
 1970 0220 00000000 		.4byte	.LCFI13
 1971 0224 0002     		.2byte	0x2
 1972 0226 71       		.byte	0x71
 1973 0227 08       		.sleb128 8
 1974 0228 00000000 		.4byte	.LCFI13
 1975 022c 00000000 		.4byte	.LFE20
 1976 0230 0002     		.2byte	0x2
 1977 0232 71       		.byte	0x71
 1978 0233 00       		.sleb128 0
 1979 0234 00000000 		.4byte	0
 1980 0238 00000000 		.4byte	0
 1981              		.section	.debug_aranges,"",@progbits
 1982 0000 0000008C 		.4byte	0x8c
 1983 0004 0002     		.2byte	0x2
 1984 0006 00000000 		.4byte	.Ldebug_info0
 1985 000a 04       		.byte	0x4
 1986 000b 00       		.byte	0
 1987 000c 0000     		.2byte	0
 1988 000e 0000     		.2byte	0
 1989 0010 00000000 		.4byte	.LFB11
 1990 0014 00000020 		.4byte	.LFE11-.LFB11
 1991 0018 00000000 		.4byte	.LFB2
 1992 001c 0000001C 		.4byte	.LFE2-.LFB2
 1993 0020 00000000 		.4byte	.LFB3
 1994 0024 00000014 		.4byte	.LFE3-.LFB3
 1995 0028 00000000 		.4byte	.LFB13
GAS LISTING C:\Users\sw46\AppData\Local\Temp\cc8GjfTs.s 			page 36


 1996 002c 0000002C 		.4byte	.LFE13-.LFB13
 1997 0030 00000000 		.4byte	.LFB14
 1998 0034 00000020 		.4byte	.LFE14-.LFB14
 1999 0038 00000000 		.4byte	.LFB15
 2000 003c 00000034 		.4byte	.LFE15-.LFB15
 2001 0040 00000000 		.4byte	.LFB16
 2002 0044 00000034 		.4byte	.LFE16-.LFB16
 2003 0048 00000000 		.4byte	.LFB17
 2004 004c 00000016 		.4byte	.LFE17-.LFB17
 2005 0050 00000000 		.4byte	.LFB18
 2006 0054 0000001A 		.4byte	.LFE18-.LFB18
 2007 0058 00000000 		.4byte	.LFB19
 2008 005c 00000022 		.4byte	.LFE19-.LFB19
 2009 0060 00000000 		.4byte	.LFB20
 2010 0064 00000028 		.4byte	.LFE20-.LFB20
 2011 0068 00000000 		.4byte	.LFB21
 2012 006c 00000006 		.4byte	.LFE21-.LFB21
 2013 0070 00000000 		.4byte	.LFB22
 2014 0074 00000006 		.4byte	.LFE22-.LFB22
 2015 0078 00000000 		.4byte	.LFB23
 2016 007c 00000006 		.4byte	.LFE23-.LFB23
 2017 0080 00000000 		.4byte	.LFB24
 2018 0084 00000006 		.4byte	.LFE24-.LFB24
 2019 0088 00000000 		.4byte	0
 2020 008c 00000000 		.4byte	0
 2021              		.section	.debug_ranges,"",@progbits
 2022              	.Ldebug_ranges0:
 2023 0000 00000000 		.4byte	.LFB11
 2024 0004 00000000 		.4byte	.LFE11
 2025 0008 00000000 		.4byte	.LFB2
 2026 000c 00000000 		.4byte	.LFE2
 2027 0010 00000000 		.4byte	.LFB3
 2028 0014 00000000 		.4byte	.LFE3
 2029 0018 00000000 		.4byte	.LFB13
 2030 001c 00000000 		.4byte	.LFE13
 2031 0020 00000000 		.4byte	.LFB14
 2032 0024 00000000 		.4byte	.LFE14
 2033 0028 00000000 		.4byte	.LFB15
 2034 002c 00000000 		.4byte	.LFE15
 2035 0030 00000000 		.4byte	.LFB16
 2036 0034 00000000 		.4byte	.LFE16
 2037 0038 00000000 		.4byte	.LFB17
 2038 003c 00000000 		.4byte	.LFE17
 2039 0040 00000000 		.4byte	.LFB18
 2040 0044 00000000 		.4byte	.LFE18
 2041 0048 00000000 		.4byte	.LFB19
 2042 004c 00000000 		.4byte	.LFE19
 2043 0050 00000000 		.4byte	.LFB20
 2044 0054 00000000 		.4byte	.LFE20
 2045 0058 00000000 		.4byte	.LFB21
 2046 005c 00000000 		.4byte	.LFE21
 2047 0060 00000000 		.4byte	.LFB22
 2048 0064 00000000 		.4byte	.LFE22
 2049 0068 00000000 		.4byte	.LFB23
 2050 006c 00000000 		.4byte	.LFE23
 2051 0070 00000000 		.4byte	.LFB24
 2052 0074 00000000 		.4byte	.LFE24
GAS LISTING C:\Users\sw46\AppData\Local\Temp\cc8GjfTs.s 			page 37


 2053 0078 00000000 		.4byte	0
 2054 007c 00000000 		.4byte	0
 2055              		.section	.debug_line,"",@progbits
 2056              	.Ldebug_line0:
 2057 0000 00000382 		.section	.debug_str,"MS",@progbits,1
 2057      00020000 
 2057      02030201 
 2057      FB0E0D00 
 2057      01010101 
 2058              	.LASF14:
 2059 0000 6F73616C 		.string	"osalSysTime_MS2ST"
 2059      53797354 
 2059      696D655F 
 2059      4D533253 
 2059      5400
 2060              	.LASF19:
 2061 0012 7469636B 		.string	"ticks"
 2061      7300
 2062              	.LASF25:
 2063 0018 6F73616C 		.string	"osalSysTimeReset"
 2063      53797354 
 2063      696D6552 
 2063      65736574 
 2063      00
 2064              	.LASF23:
 2065 0029 69727149 		.string	"irqIsrEnable"
 2065      7372456E 
 2065      61626C65 
 2065      00
 2066              	.LASF17:
 2067 0036 75736563 		.string	"usec"
 2067      00
 2068              	.LASF12:
 2069 003b 6F73616C 		.string	"osalsystime_t"
 2069      73797374 
 2069      696D655F 
 2069      7400
 2070              	.LASF39:
 2071 0049 6F73616C 		.string	"osalExitCritical"
 2071      45786974 
 2071      43726974 
 2071      6963616C 
 2071      00
 2072              	.LASF31:
 2073 005a 6F73616C 		.string	"osalThreadDelayMilliseconds"
 2073      54687265 
 2073      61644465 
 2073      6C61794D 
 2073      696C6C69 
 2074              	.LASF3:
 2075 0076 73686F72 		.string	"short unsigned int"
 2075      7420756E 
 2075      7369676E 
 2075      65642069 
 2075      6E7400
 2076              	.LASF13:
 2077 0089 6F73616C 		.string	"osalSysTime_S2ST"
GAS LISTING C:\Users\sw46\AppData\Local\Temp\cc8GjfTs.s 			page 38


 2077      53797354 
 2077      696D655F 
 2077      53325354 
 2077      00
 2078              	.LASF34:
 2079 009a 6F73616C 		.string	"osalThreadGetMilliseconds"
 2079      54687265 
 2079      61644765 
 2079      744D696C 
 2079      6C697365 
 2080              	.LASF29:
 2081 00b4 76656374 		.string	"vector59"
 2081      6F723539 
 2081      00
 2082              	.LASF38:
 2083 00bd 6F73616C 		.string	"osalEnterCritical"
 2083      456E7465 
 2083      72437269 
 2083      74696361 
 2083      6C00
 2084              	.LASF1:
 2085 00cf 756E7369 		.string	"unsigned char"
 2085      676E6564 
 2085      20636861 
 2085      7200
 2086              	.LASF5:
 2087 00dd 6C6F6E67 		.string	"long unsigned int"
 2087      20756E73 
 2087      69676E65 
 2087      6420696E 
 2087      7400
 2088              	.LASF45:
 2089 00ef 474E5520 		.string	"GNU C 4.9.2 20141030 (Mon Nov 23 22:27:42 EST 2015         build.sh rev= ELvle) -mcall-sy
 2089      4320342E 
 2089      392E3220 
 2089      32303134 
 2089      31303330 
 2090              	.LASF26:
 2091 01ef 6F73616C 		.string	"osalEnterCriticalFromISR"
 2091      456E7465 
 2091      72437269 
 2091      74696361 
 2091      6C46726F 
 2092              	.LASF33:
 2093 0208 6F73616C 		.string	"osalThreadGetSeconds"
 2093      54687265 
 2093      61644765 
 2093      74536563 
 2093      6F6E6473 
 2094              	.LASF47:
 2095 021d 433A5C55 		.string	"C:\\Users\\sw46\\Documents\\SPCStudio v5.0\\SPC564L_RLA_Motor_Control_Demo_Application"
 2095      73657273 
 2095      5C737734 
 2095      365C446F 
 2095      63756D65 
 2096              	.LASF43:
 2097 026f 73797354 		.string	"sysTimeReset"
GAS LISTING C:\Users\sw46\AppData\Local\Temp\cc8GjfTs.s 			page 39


 2097      696D6552 
 2097      65736574 
 2097      00
 2098              	.LASF9:
 2099 027c 5F5F7569 		.string	"__uint32_t"
 2099      6E743332 
 2099      5F7400
 2100              	.LASF32:
 2101 0287 6F73616C 		.string	"osalThreadDelayMicroseconds"
 2101      54687265 
 2101      61644465 
 2101      6C61794D 
 2101      6963726F 
 2102              	.LASF20:
 2103 02a3 6F73616C 		.string	"osalSysTime_ST2MS"
 2103      53797354 
 2103      696D655F 
 2103      5354324D 
 2103      5300
 2104              	.LASF18:
 2105 02b5 6F73616C 		.string	"osalSysTime_ST2S"
 2105      53797354 
 2105      696D655F 
 2105      53543253 
 2105      00
 2106              	.LASF36:
 2107 02c6 6F73616C 		.string	"osalSysTimeInit"
 2107      53797354 
 2107      696D6549 
 2107      6E697400 
 2108              	.LASF8:
 2109 02d6 756E7369 		.string	"unsigned int"
 2109      676E6564 
 2109      20696E74 
 2109      00
 2110              	.LASF7:
 2111 02e3 6C6F6E67 		.string	"long long unsigned int"
 2111      206C6F6E 
 2111      6720756E 
 2111      7369676E 
 2111      65642069 
 2112              	.LASF28:
 2113 02fa 6F73616C 		.string	"osalSysTimeSetup"
 2113      53797354 
 2113      696D6553 
 2113      65747570 
 2113      00
 2114              	.LASF44:
 2115 030b 5F737072 		.string	"_spr_init"
 2115      5F696E69 
 2115      7400
 2116              	.LASF27:
 2117 0315 6F73616C 		.string	"osalExitCriticalFromISR"
 2117      45786974 
 2117      43726974 
 2117      6963616C 
 2117      46726F6D 
GAS LISTING C:\Users\sw46\AppData\Local\Temp\cc8GjfTs.s 			page 40


 2118              	.LASF37:
 2119 032d 6F73616C 		.string	"osalInit"
 2119      496E6974 
 2119      00
 2120              	.LASF35:
 2121 0336 6F73616C 		.string	"osalThreadGetMicroseconds"
 2121      54687265 
 2121      61644765 
 2121      744D6963 
 2121      726F7365 
 2122              	.LASF11:
 2123 0350 73697A65 		.string	"sizetype"
 2123      74797065 
 2123      00
 2124              	.LASF24:
 2125 0359 7469636B 		.string	"ticks_per_sec"
 2125      735F7065 
 2125      725F7365 
 2125      6300
 2126              	.LASF46:
 2127 0367 2E2F636F 		.string	"./components/spc56elxx_osal_component_rla/lib/src/osal.c"
 2127      6D706F6E 
 2127      656E7473 
 2127      2F737063 
 2127      3536656C 
 2128              	.LASF6:
 2129 03a0 6C6F6E67 		.string	"long long int"
 2129      206C6F6E 
 2129      6720696E 
 2129      7400
 2130              	.LASF50:
 2131 03ae 73797354 		.string	"sysTimeSetup"
 2131      696D6553 
 2131      65747570 
 2131      00
 2132              	.LASF21:
 2133 03bb 6F73616C 		.string	"osalSysTime_ST2US"
 2133      53797354 
 2133      696D655F 
 2133      53543255 
 2133      5300
 2134              	.LASF15:
 2135 03cd 6D736563 		.string	"msec"
 2135      00
 2136              	.LASF30:
 2137 03d2 6F73616C 		.string	"osalThreadDelaySeconds"
 2137      54687265 
 2137      61644465 
 2137      6C617953 
 2137      65636F6E 
 2138              	.LASF2:
 2139 03e9 73686F72 		.string	"short int"
 2139      7420696E 
 2139      7400
 2140              	.LASF42:
 2141 03f3 6F73616C 		.string	"osal_ticks_per_sec"
 2141      5F746963 
GAS LISTING C:\Users\sw46\AppData\Local\Temp\cc8GjfTs.s 			page 41


 2141      6B735F70 
 2141      65725F73 
 2141      656300
 2142              	.LASF40:
 2143 0406 63757272 		.string	"current"
 2143      656E7400 
 2144              	.LASF10:
 2145 040e 75696E74 		.string	"uint32_t"
 2145      33325F74 
 2145      00
 2146              	.LASF4:
 2147 0417 6C6F6E67 		.string	"long int"
 2147      20696E74 
 2147      00
 2148              	.LASF48:
 2149 0420 6F73616C 		.string	"osalSysTimeDelayTicks"
 2149      53797354 
 2149      696D6544 
 2149      656C6179 
 2149      5469636B 
 2150              	.LASF22:
 2151 0436 69727149 		.string	"irqIsrDisable"
 2151      73724469 
 2151      7361626C 
 2151      6500
 2152              	.LASF0:
 2153 0444 7369676E 		.string	"signed char"
 2153      65642063 
 2153      68617200 
 2154              	.LASF16:
 2155 0450 6F73616C 		.string	"osalSysTime_US2ST"
 2155      53797354 
 2155      696D655F 
 2155      55533253 
 2155      5400
 2156              	.LASF41:
 2157 0462 6F73616C 		.string	"osalsystime"
 2157      73797374 
 2157      696D6500 
 2158              	.LASF49:
 2159 046e 6F73616C 		.string	"osalSysTimeGetTicks"
 2159      53797354 
 2159      696D6547 
 2159      65745469 
 2159      636B7300 
 2160              		.ident	"GCC: (GNU) 4.9.2 20141030 (Mon Nov 23 22:27:42 EST 2015         build.sh rev= ELvle)"
GAS LISTING C:\Users\sw46\AppData\Local\Temp\cc8GjfTs.s 			page 42


DEFINED SYMBOLS
                            *ABS*:00000000 osal.c
C:\Users\sw46\AppData\Local\Temp\cc8GjfTs.s:9      .text.osalSysTimeDelayTicks:00000000 osalSysTimeDelayTicks
C:\Users\sw46\AppData\Local\Temp\cc8GjfTs.s:39     .text.osalSysTimeSetup:00000000 osalSysTimeSetup
C:\Users\sw46\AppData\Local\Temp\cc8GjfTs.s:72     .text.osalSysTimeReset:00000000 osalSysTimeReset
C:\Users\sw46\AppData\Local\Temp\cc8GjfTs.s:101    .text.vector59:00000000 vector59
C:\Users\sw46\AppData\Local\Temp\cc8GjfTs.s:160    .text.osalThreadDelaySeconds:00000000 osalThreadDelaySeconds
C:\Users\sw46\AppData\Local\Temp\cc8GjfTs.s:200    .text.osalThreadDelayMilliseconds:00000000 osalThreadDelayMilliseconds
C:\Users\sw46\AppData\Local\Temp\cc8GjfTs.s:246    .text.osalThreadDelayMicroseconds:00000000 osalThreadDelayMicroseconds
C:\Users\sw46\AppData\Local\Temp\cc8GjfTs.s:292    .text.osalThreadGetSeconds:00000000 osalThreadGetSeconds
C:\Users\sw46\AppData\Local\Temp\cc8GjfTs.s:321    .text.osalThreadGetMilliseconds:00000000 osalThreadGetMilliseconds
C:\Users\sw46\AppData\Local\Temp\cc8GjfTs.s:351    .text.osalThreadGetMicroseconds:00000000 osalThreadGetMicroseconds
C:\Users\sw46\AppData\Local\Temp\cc8GjfTs.s:383    .text.osalInit:00000000 osalInit
C:\Users\sw46\AppData\Local\Temp\cc8GjfTs.s:424    .text.osalEnterCritical:00000000 osalEnterCritical
C:\Users\sw46\AppData\Local\Temp\cc8GjfTs.s:445    .text.osalExitCritical:00000000 osalExitCritical
C:\Users\sw46\AppData\Local\Temp\cc8GjfTs.s:466    .text.osalEnterCriticalFromISR:00000000 osalEnterCriticalFromISR
C:\Users\sw46\AppData\Local\Temp\cc8GjfTs.s:487    .text.osalExitCriticalFromISR:00000000 osalExitCriticalFromISR
C:\Users\sw46\AppData\Local\Temp\cc8GjfTs.s:508    .bss.osalsystime:00000000 osalsystime
C:\Users\sw46\AppData\Local\Temp\cc8GjfTs.s:515    .bss.osal_ticks_per_sec:00000000 osal_ticks_per_sec

UNDEFINED SYMBOLS
sysTimeSetup
sysTimeReset
_spr_init
