GAS LISTING C:\Users\sw46\AppData\Local\Temp\ccbQ8Z0K.s 			page 1


   1              		.file	"spc5_lld.c"
   2              		.section	".text","axv"
   3              	.Ltext0:
   4              		.cfi_sections	.debug_frame
   5              		.section	.text.spc5LLDInit,"axv",@progbits
   6              		.align 1
   7              		.p2align 4,,15
   8              		.globl spc5LLDInit
   9              		.type	spc5LLDInit, @function
  10              	spc5LLDInit:
  11              	.LFB2:
  12              		.file 1 "./components/spc56elxx_low_level_drivers_component_rla/lib/src/spc5_lld.c"
  13              		.loc 1 48 0
  14              		.cfi_startproc
  15 0000 182106F8 		e_stwu %r1,-8(%r1)
  16              	.LCFI0:
  17              		.cfi_def_cfa_offset 8
  18 0004 0080     		se_mflr %r0
  19 0006 D301     		se_stw %r0,12(%r1)
  20              		.cfi_offset 65, 4
  21              		.loc 1 60 0
  22 0008 78000001 		e_bl sd_lld_init
  23              	.LVL0:
  24              		.loc 1 69 0
  25 000c 78000001 		e_bl can_lld_init
  26              	.LVL1:
  27              		.loc 1 72 0
  28 0010 78000001 		e_bl spi_lld_init
  29              	.LVL2:
  30              		.loc 1 98 0
  31 0014 C301     		se_lwz %r0,12(%r1)
  32 0016 0090     		se_mtlr %r0
  33              		.cfi_restore 65
  34 0018 2071     		se_addi %r1,8
  35              	.LCFI1:
  36              		.cfi_def_cfa_offset 0
  37 001a 0004     		se_blr
  38              		.cfi_endproc
  39              	.LFE2:
  40              		.size	spc5LLDInit, .-spc5LLDInit
  41              		.section	".text","axv"
  42              	.Letext0:
  43              		.file 2 "./components/spc56elxx_low_level_drivers_component_rla/lib/include/serial_lld.h"
  44              		.file 3 "./components/spc56elxx_low_level_drivers_component_rla/lib/include/can_lld.h"
  45              		.file 4 "./components/spc56elxx_low_level_drivers_component_rla/lib/include/spi_lld.h"
  46              		.section	.debug_info,"",@progbits
  47              	.Ldebug_info0:
  48 0000 000000CA 		.4byte	0xca
  49 0004 0002     		.2byte	0x2
  50 0006 00000000 		.4byte	.Ldebug_abbrev0
  51 000a 04       		.byte	0x4
  52 000b 01       		.uleb128 0x1
  53 000c 00000000 		.4byte	.LASF13
  54 0010 01       		.byte	0x1
  55 0011 00000000 		.4byte	.LASF14
  56 0015 00000000 		.4byte	.LASF15
  57 0019 00000000 		.4byte	.Ldebug_ranges0+0
GAS LISTING C:\Users\sw46\AppData\Local\Temp\ccbQ8Z0K.s 			page 2


  58 001d 00000000 		.4byte	0
  59 0021 00000000 		.4byte	0
  60 0025 00000000 		.4byte	.Ldebug_line0
  61 0029 02       		.uleb128 0x2
  62 002a 01       		.byte	0x1
  63 002b 06       		.byte	0x6
  64 002c 00000000 		.4byte	.LASF0
  65 0030 02       		.uleb128 0x2
  66 0031 01       		.byte	0x1
  67 0032 08       		.byte	0x8
  68 0033 00000000 		.4byte	.LASF1
  69 0037 02       		.uleb128 0x2
  70 0038 02       		.byte	0x2
  71 0039 05       		.byte	0x5
  72 003a 00000000 		.4byte	.LASF2
  73 003e 02       		.uleb128 0x2
  74 003f 02       		.byte	0x2
  75 0040 07       		.byte	0x7
  76 0041 00000000 		.4byte	.LASF3
  77 0045 02       		.uleb128 0x2
  78 0046 04       		.byte	0x4
  79 0047 05       		.byte	0x5
  80 0048 00000000 		.4byte	.LASF4
  81 004c 02       		.uleb128 0x2
  82 004d 04       		.byte	0x4
  83 004e 07       		.byte	0x7
  84 004f 00000000 		.4byte	.LASF5
  85 0053 02       		.uleb128 0x2
  86 0054 08       		.byte	0x8
  87 0055 05       		.byte	0x5
  88 0056 00000000 		.4byte	.LASF6
  89 005a 02       		.uleb128 0x2
  90 005b 08       		.byte	0x8
  91 005c 07       		.byte	0x7
  92 005d 00000000 		.4byte	.LASF7
  93 0061 03       		.uleb128 0x3
  94 0062 04       		.byte	0x4
  95 0063 05       		.byte	0x5
  96 0064 696E7400 		.string	"int"
  97 0068 02       		.uleb128 0x2
  98 0069 04       		.byte	0x4
  99 006a 07       		.byte	0x7
 100 006b 00000000 		.4byte	.LASF8
 101 006f 02       		.uleb128 0x2
 102 0070 04       		.byte	0x4
 103 0071 07       		.byte	0x7
 104 0072 00000000 		.4byte	.LASF9
 105 0076 04       		.uleb128 0x4
 106 0077 01       		.byte	0x1
 107 0078 00000000 		.4byte	.LASF16
 108 007c 01       		.byte	0x1
 109 007d 30       		.byte	0x30
 110 007e 01       		.byte	0x1
 111 007f 00000000 		.4byte	.LFB2
 112 0083 00000000 		.4byte	.LFE2
 113 0087 00000000 		.4byte	.LLST0
 114 008b 01       		.byte	0x1
GAS LISTING C:\Users\sw46\AppData\Local\Temp\ccbQ8Z0K.s 			page 3


 115 008c 000000AC 		.4byte	0xac
 116 0090 05       		.uleb128 0x5
 117 0091 00000000 		.4byte	.LVL0
 118 0095 000000AC 		.4byte	0xac
 119 0099 05       		.uleb128 0x5
 120 009a 00000000 		.4byte	.LVL1
 121 009e 000000B7 		.4byte	0xb7
 122 00a2 05       		.uleb128 0x5
 123 00a3 00000000 		.4byte	.LVL2
 124 00a7 000000C2 		.4byte	0xc2
 125 00ab 00       		.byte	0
 126 00ac 06       		.uleb128 0x6
 127 00ad 01       		.byte	0x1
 128 00ae 00000000 		.4byte	.LASF10
 129 00b2 02       		.byte	0x2
 130 00b3 0403     		.2byte	0x403
 131 00b5 01       		.byte	0x1
 132 00b6 01       		.byte	0x1
 133 00b7 06       		.uleb128 0x6
 134 00b8 01       		.byte	0x1
 135 00b9 00000000 		.4byte	.LASF11
 136 00bd 03       		.byte	0x3
 137 00be 0394     		.2byte	0x394
 138 00c0 01       		.byte	0x1
 139 00c1 01       		.byte	0x1
 140 00c2 06       		.uleb128 0x6
 141 00c3 01       		.byte	0x1
 142 00c4 00000000 		.4byte	.LASF12
 143 00c8 04       		.byte	0x4
 144 00c9 0472     		.2byte	0x472
 145 00cb 01       		.byte	0x1
 146 00cc 01       		.byte	0x1
 147 00cd 00       		.byte	0
 148              		.section	.debug_abbrev,"",@progbits
 149              	.Ldebug_abbrev0:
 150 0000 01       		.uleb128 0x1
 151 0001 11       		.uleb128 0x11
 152 0002 01       		.byte	0x1
 153 0003 25       		.uleb128 0x25
 154 0004 0E       		.uleb128 0xe
 155 0005 13       		.uleb128 0x13
 156 0006 0B       		.uleb128 0xb
 157 0007 03       		.uleb128 0x3
 158 0008 0E       		.uleb128 0xe
 159 0009 1B       		.uleb128 0x1b
 160 000a 0E       		.uleb128 0xe
 161 000b 55       		.uleb128 0x55
 162 000c 06       		.uleb128 0x6
 163 000d 11       		.uleb128 0x11
 164 000e 01       		.uleb128 0x1
 165 000f 52       		.uleb128 0x52
 166 0010 01       		.uleb128 0x1
 167 0011 10       		.uleb128 0x10
 168 0012 06       		.uleb128 0x6
 169 0013 00       		.byte	0
 170 0014 00       		.byte	0
 171 0015 02       		.uleb128 0x2
GAS LISTING C:\Users\sw46\AppData\Local\Temp\ccbQ8Z0K.s 			page 4


 172 0016 24       		.uleb128 0x24
 173 0017 00       		.byte	0
 174 0018 0B       		.uleb128 0xb
 175 0019 0B       		.uleb128 0xb
 176 001a 3E       		.uleb128 0x3e
 177 001b 0B       		.uleb128 0xb
 178 001c 03       		.uleb128 0x3
 179 001d 0E       		.uleb128 0xe
 180 001e 00       		.byte	0
 181 001f 00       		.byte	0
 182 0020 03       		.uleb128 0x3
 183 0021 24       		.uleb128 0x24
 184 0022 00       		.byte	0
 185 0023 0B       		.uleb128 0xb
 186 0024 0B       		.uleb128 0xb
 187 0025 3E       		.uleb128 0x3e
 188 0026 0B       		.uleb128 0xb
 189 0027 03       		.uleb128 0x3
 190 0028 08       		.uleb128 0x8
 191 0029 00       		.byte	0
 192 002a 00       		.byte	0
 193 002b 04       		.uleb128 0x4
 194 002c 2E       		.uleb128 0x2e
 195 002d 01       		.byte	0x1
 196 002e 3F       		.uleb128 0x3f
 197 002f 0C       		.uleb128 0xc
 198 0030 03       		.uleb128 0x3
 199 0031 0E       		.uleb128 0xe
 200 0032 3A       		.uleb128 0x3a
 201 0033 0B       		.uleb128 0xb
 202 0034 3B       		.uleb128 0x3b
 203 0035 0B       		.uleb128 0xb
 204 0036 27       		.uleb128 0x27
 205 0037 0C       		.uleb128 0xc
 206 0038 11       		.uleb128 0x11
 207 0039 01       		.uleb128 0x1
 208 003a 12       		.uleb128 0x12
 209 003b 01       		.uleb128 0x1
 210 003c 40       		.uleb128 0x40
 211 003d 06       		.uleb128 0x6
 212 003e 9742     		.uleb128 0x2117
 213 0040 0C       		.uleb128 0xc
 214 0041 01       		.uleb128 0x1
 215 0042 13       		.uleb128 0x13
 216 0043 00       		.byte	0
 217 0044 00       		.byte	0
 218 0045 05       		.uleb128 0x5
 219 0046 898201   		.uleb128 0x4109
 220 0049 00       		.byte	0
 221 004a 11       		.uleb128 0x11
 222 004b 01       		.uleb128 0x1
 223 004c 31       		.uleb128 0x31
 224 004d 13       		.uleb128 0x13
 225 004e 00       		.byte	0
 226 004f 00       		.byte	0
 227 0050 06       		.uleb128 0x6
 228 0051 2E       		.uleb128 0x2e
GAS LISTING C:\Users\sw46\AppData\Local\Temp\ccbQ8Z0K.s 			page 5


 229 0052 00       		.byte	0
 230 0053 3F       		.uleb128 0x3f
 231 0054 0C       		.uleb128 0xc
 232 0055 03       		.uleb128 0x3
 233 0056 0E       		.uleb128 0xe
 234 0057 3A       		.uleb128 0x3a
 235 0058 0B       		.uleb128 0xb
 236 0059 3B       		.uleb128 0x3b
 237 005a 05       		.uleb128 0x5
 238 005b 27       		.uleb128 0x27
 239 005c 0C       		.uleb128 0xc
 240 005d 3C       		.uleb128 0x3c
 241 005e 0C       		.uleb128 0xc
 242 005f 00       		.byte	0
 243 0060 00       		.byte	0
 244 0061 00       		.byte	0
 245              		.section	.debug_loc,"",@progbits
 246              	.Ldebug_loc0:
 247              	.LLST0:
 248 0000 00000000 		.4byte	.LFB2
 249 0004 00000000 		.4byte	.LCFI0
 250 0008 0002     		.2byte	0x2
 251 000a 71       		.byte	0x71
 252 000b 00       		.sleb128 0
 253 000c 00000000 		.4byte	.LCFI0
 254 0010 00000000 		.4byte	.LCFI1
 255 0014 0002     		.2byte	0x2
 256 0016 71       		.byte	0x71
 257 0017 08       		.sleb128 8
 258 0018 00000000 		.4byte	.LCFI1
 259 001c 00000000 		.4byte	.LFE2
 260 0020 0002     		.2byte	0x2
 261 0022 71       		.byte	0x71
 262 0023 00       		.sleb128 0
 263 0024 00000000 		.4byte	0
 264 0028 00000000 		.4byte	0
 265              		.section	.debug_aranges,"",@progbits
 266 0000 0000001C 		.4byte	0x1c
 267 0004 0002     		.2byte	0x2
 268 0006 00000000 		.4byte	.Ldebug_info0
 269 000a 04       		.byte	0x4
 270 000b 00       		.byte	0
 271 000c 0000     		.2byte	0
 272 000e 0000     		.2byte	0
 273 0010 00000000 		.4byte	.LFB2
 274 0014 0000001C 		.4byte	.LFE2-.LFB2
 275 0018 00000000 		.4byte	0
 276 001c 00000000 		.4byte	0
 277              		.section	.debug_ranges,"",@progbits
 278              	.Ldebug_ranges0:
 279 0000 00000000 		.4byte	.LFB2
 280 0004 00000000 		.4byte	.LFE2
 281 0008 00000000 		.4byte	0
 282 000c 00000000 		.4byte	0
 283              		.section	.debug_line,"",@progbits
 284              	.Ldebug_line0:
 285 0000 000000EC 		.section	.debug_str,"MS",@progbits,1
GAS LISTING C:\Users\sw46\AppData\Local\Temp\ccbQ8Z0K.s 			page 6


 285      00020000 
 285      00CD0201 
 285      FB0E0D00 
 285      01010101 
 286              	.LASF6:
 287 0000 6C6F6E67 		.string	"long long int"
 287      206C6F6E 
 287      6720696E 
 287      7400
 288              	.LASF8:
 289 000e 756E7369 		.string	"unsigned int"
 289      676E6564 
 289      20696E74 
 289      00
 290              	.LASF15:
 291 001b 433A5C55 		.string	"C:\\Users\\sw46\\Documents\\SPCStudio v5.0\\SPC564L_RLA_Motor_Control_Demo_Application"
 291      73657273 
 291      5C737734 
 291      365C446F 
 291      63756D65 
 292              	.LASF12:
 293 006d 7370695F 		.string	"spi_lld_init"
 293      6C6C645F 
 293      696E6974 
 293      00
 294              	.LASF7:
 295 007a 6C6F6E67 		.string	"long long unsigned int"
 295      206C6F6E 
 295      6720756E 
 295      7369676E 
 295      65642069 
 296              	.LASF1:
 297 0091 756E7369 		.string	"unsigned char"
 297      676E6564 
 297      20636861 
 297      7200
 298              	.LASF11:
 299 009f 63616E5F 		.string	"can_lld_init"
 299      6C6C645F 
 299      696E6974 
 299      00
 300              	.LASF10:
 301 00ac 73645F6C 		.string	"sd_lld_init"
 301      6C645F69 
 301      6E697400 
 302              	.LASF4:
 303 00b8 6C6F6E67 		.string	"long int"
 303      20696E74 
 303      00
 304              	.LASF5:
 305 00c1 6C6F6E67 		.string	"long unsigned int"
 305      20756E73 
 305      69676E65 
 305      6420696E 
 305      7400
 306              	.LASF13:
 307 00d3 474E5520 		.string	"GNU C 4.9.2 20141030 (Mon Nov 23 22:27:42 EST 2015         build.sh rev= ELvle) -mcall-sy
GAS LISTING C:\Users\sw46\AppData\Local\Temp\ccbQ8Z0K.s 			page 7


 307      4320342E 
 307      392E3220 
 307      32303134 
 307      31303330 
 308              	.LASF14:
 309 01d3 2E2F636F 		.string	"./components/spc56elxx_low_level_drivers_component_rla/lib/src/spc5_lld.c"
 309      6D706F6E 
 309      656E7473 
 309      2F737063 
 309      3536656C 
 310              	.LASF3:
 311 021d 73686F72 		.string	"short unsigned int"
 311      7420756E 
 311      7369676E 
 311      65642069 
 311      6E7400
 312              	.LASF0:
 313 0230 7369676E 		.string	"signed char"
 313      65642063 
 313      68617200 
 314              	.LASF2:
 315 023c 73686F72 		.string	"short int"
 315      7420696E 
 315      7400
 316              	.LASF16:
 317 0246 73706335 		.string	"spc5LLDInit"
 317      4C4C4449 
 317      6E697400 
 318              	.LASF9:
 319 0252 73697A65 		.string	"sizetype"
 319      74797065 
 319      00
 320              		.ident	"GCC: (GNU) 4.9.2 20141030 (Mon Nov 23 22:27:42 EST 2015         build.sh rev= ELvle)"
GAS LISTING C:\Users\sw46\AppData\Local\Temp\ccbQ8Z0K.s 			page 8


DEFINED SYMBOLS
                            *ABS*:00000000 spc5_lld.c
C:\Users\sw46\AppData\Local\Temp\ccbQ8Z0K.s:10     .text.spc5LLDInit:00000000 spc5LLDInit

UNDEFINED SYMBOLS
sd_lld_init
can_lld_init
spi_lld_init
