GAS LISTING C:\Users\sw46\AppData\Local\Temp\cc8eQsX3.s 			page 1


   1              		.file	"spi_lld_cfg.c"
   2              		.section	".text","axv"
   3              	.Ltext0:
   4              		.cfi_sections	.debug_frame
   5              		.globl spi_config_L9907
   6              		.section	.rodata.spi_config_L9907,"a",@progbits
   7              		.align 2
   8              		.type	spi_config_L9907, @object
   9              		.size	spi_config_L9907, 20
  10              	spi_config_L9907:
  11 0000 00000000 		.long	0
  12 0004 00000002 		.long	2
  13 0008 0004     		.short	4
  14 000a 0000     		.zero	2
  15 000c 7A007776 		.long	2046850934
  16 0010 80010000 		.long	-2147418112
  17              		.section	".text","axv"
  18              	.Letext0:
  19              		.file 1 "c:\\spc5studio\\eclipse\\plugins\\com.st.tools.spc5.tools.gnu.gcc.ppcvle.win32_1.0.0.2016
  20              		.file 2 "c:\\spc5studio\\eclipse\\plugins\\com.st.tools.spc5.tools.gnu.gcc.ppcvle.win32_1.0.0.2016
  21              		.file 3 "c:\\spc5studio\\eclipse\\plugins\\com.st.tools.spc5.tools.gnu.gcc.ppcvle.win32_1.0.0.2016
  22              		.file 4 "./components/spc56elxx_platform_component_rla/lib/include/typedefs.h"
  23              		.file 5 "./components/spc56elxx_board_initialization_component_rla/lib/include/pal.h"
  24              		.file 6 "./components/spc56elxx_low_level_drivers_component_rla/lib/include/spc5_dspi.h"
  25              		.file 7 "./components/spc56elxx_low_level_drivers_component_rla/lib/include/spi_lld.h"
  26              		.file 8 "./components/spc56elxx_low_level_drivers_component_rla/cfg/spi_lld_cfg.c"
  27              		.section	.debug_info,"",@progbits
  28              	.Ldebug_info0:
  29 0000 00000C3D 		.4byte	0xc3d
  30 0004 0002     		.2byte	0x2
  31 0006 00000000 		.4byte	.Ldebug_abbrev0
  32 000a 04       		.byte	0x4
  33 000b 01       		.uleb128 0x1
  34 000c 00000000 		.4byte	.LASF129
  35 0010 01       		.byte	0x1
  36 0011 00000000 		.4byte	.LASF130
  37 0015 00000000 		.4byte	.LASF131
  38 0019 00000000 		.4byte	.Ldebug_line0
  39 001d 02       		.uleb128 0x2
  40 001e 01       		.byte	0x1
  41 001f 06       		.byte	0x6
  42 0020 00000000 		.4byte	.LASF0
  43 0024 03       		.uleb128 0x3
  44 0025 00000000 		.4byte	.LASF3
  45 0029 01       		.byte	0x1
  46 002a 1D       		.byte	0x1d
  47 002b 0000002F 		.4byte	0x2f
  48 002f 02       		.uleb128 0x2
  49 0030 01       		.byte	0x1
  50 0031 08       		.byte	0x8
  51 0032 00000000 		.4byte	.LASF1
  52 0036 02       		.uleb128 0x2
  53 0037 02       		.byte	0x2
  54 0038 05       		.byte	0x5
  55 0039 00000000 		.4byte	.LASF2
  56 003d 03       		.uleb128 0x3
  57 003e 00000000 		.4byte	.LASF4
GAS LISTING C:\Users\sw46\AppData\Local\Temp\cc8eQsX3.s 			page 2


  58 0042 01       		.byte	0x1
  59 0043 2B       		.byte	0x2b
  60 0044 00000048 		.4byte	0x48
  61 0048 02       		.uleb128 0x2
  62 0049 02       		.byte	0x2
  63 004a 07       		.byte	0x7
  64 004b 00000000 		.4byte	.LASF5
  65 004f 02       		.uleb128 0x2
  66 0050 04       		.byte	0x4
  67 0051 05       		.byte	0x5
  68 0052 00000000 		.4byte	.LASF6
  69 0056 03       		.uleb128 0x3
  70 0057 00000000 		.4byte	.LASF7
  71 005b 01       		.byte	0x1
  72 005c 41       		.byte	0x41
  73 005d 00000061 		.4byte	0x61
  74 0061 02       		.uleb128 0x2
  75 0062 04       		.byte	0x4
  76 0063 07       		.byte	0x7
  77 0064 00000000 		.4byte	.LASF8
  78 0068 02       		.uleb128 0x2
  79 0069 08       		.byte	0x8
  80 006a 05       		.byte	0x5
  81 006b 00000000 		.4byte	.LASF9
  82 006f 02       		.uleb128 0x2
  83 0070 08       		.byte	0x8
  84 0071 07       		.byte	0x7
  85 0072 00000000 		.4byte	.LASF10
  86 0076 04       		.uleb128 0x4
  87 0077 04       		.byte	0x4
  88 0078 05       		.byte	0x5
  89 0079 696E7400 		.string	"int"
  90 007d 02       		.uleb128 0x2
  91 007e 04       		.byte	0x4
  92 007f 07       		.byte	0x7
  93 0080 00000000 		.4byte	.LASF11
  94 0084 03       		.uleb128 0x3
  95 0085 00000000 		.4byte	.LASF12
  96 0089 02       		.byte	0x2
  97 008a 15       		.byte	0x15
  98 008b 00000024 		.4byte	0x24
  99 008f 03       		.uleb128 0x3
 100 0090 00000000 		.4byte	.LASF13
 101 0094 02       		.byte	0x2
 102 0095 21       		.byte	0x21
 103 0096 0000003D 		.4byte	0x3d
 104 009a 03       		.uleb128 0x3
 105 009b 00000000 		.4byte	.LASF14
 106 009f 02       		.byte	0x2
 107 00a0 2D       		.byte	0x2d
 108 00a1 00000056 		.4byte	0x56
 109 00a5 03       		.uleb128 0x3
 110 00a6 00000000 		.4byte	.LASF15
 111 00aa 03       		.byte	0x3
 112 00ab D4       		.byte	0xd4
 113 00ac 0000007D 		.4byte	0x7d
 114 00b0 03       		.uleb128 0x3
GAS LISTING C:\Users\sw46\AppData\Local\Temp\cc8eQsX3.s 			page 3


 115 00b1 00000000 		.4byte	.LASF16
 116 00b5 04       		.byte	0x4
 117 00b6 25       		.byte	0x25
 118 00b7 000000BB 		.4byte	0xbb
 119 00bb 05       		.uleb128 0x5
 120 00bc 0000009A 		.4byte	0x9a
 121 00c0 02       		.uleb128 0x2
 122 00c1 04       		.byte	0x4
 123 00c2 07       		.byte	0x7
 124 00c3 00000000 		.4byte	.LASF17
 125 00c7 03       		.uleb128 0x3
 126 00c8 00000000 		.4byte	.LASF18
 127 00cc 05       		.byte	0x5
 128 00cd A2       		.byte	0xa2
 129 00ce 0000009A 		.4byte	0x9a
 130 00d2 06       		.uleb128 0x6
 131 00d3 04       		.byte	0x4
 132 00d4 000000D8 		.4byte	0xd8
 133 00d8 07       		.uleb128 0x7
 134 00d9 00000084 		.4byte	0x84
 135 00dd 08       		.uleb128 0x8
 136 00de 04       		.byte	0x4
 137 00df 06       		.byte	0x6
 138 00e0 D9       		.byte	0xd9
 139 00e1 0000025C 		.4byte	0x25c
 140 00e5 09       		.uleb128 0x9
 141 00e6 00000000 		.4byte	.LASF19
 142 00ea 06       		.byte	0x6
 143 00eb DA       		.byte	0xda
 144 00ec 000000B0 		.4byte	0xb0
 145 00f0 04       		.byte	0x4
 146 00f1 01       		.byte	0x1
 147 00f2 00       		.byte	0
 148 00f3 02       		.byte	0x2
 149 00f4 23       		.byte	0x23
 150 00f5 00       		.uleb128 0
 151 00f6 09       		.uleb128 0x9
 152 00f7 00000000 		.4byte	.LASF20
 153 00fb 06       		.byte	0x6
 154 00fc DB       		.byte	0xdb
 155 00fd 000000B0 		.4byte	0xb0
 156 0101 04       		.byte	0x4
 157 0102 01       		.byte	0x1
 158 0103 01       		.byte	0x1
 159 0104 02       		.byte	0x2
 160 0105 23       		.byte	0x23
 161 0106 00       		.uleb128 0
 162 0107 09       		.uleb128 0x9
 163 0108 00000000 		.4byte	.LASF21
 164 010c 06       		.byte	0x6
 165 010d DC       		.byte	0xdc
 166 010e 000000B0 		.4byte	0xb0
 167 0112 04       		.byte	0x4
 168 0113 02       		.byte	0x2
 169 0114 02       		.byte	0x2
 170 0115 02       		.byte	0x2
 171 0116 23       		.byte	0x23
GAS LISTING C:\Users\sw46\AppData\Local\Temp\cc8eQsX3.s 			page 4


 172 0117 00       		.uleb128 0
 173 0118 0A       		.uleb128 0xa
 174 0119 46525A00 		.string	"FRZ"
 175 011d 06       		.byte	0x6
 176 011e DD       		.byte	0xdd
 177 011f 000000B0 		.4byte	0xb0
 178 0123 04       		.byte	0x4
 179 0124 01       		.byte	0x1
 180 0125 04       		.byte	0x4
 181 0126 02       		.byte	0x2
 182 0127 23       		.byte	0x23
 183 0128 00       		.uleb128 0
 184 0129 09       		.uleb128 0x9
 185 012a 00000000 		.4byte	.LASF22
 186 012e 06       		.byte	0x6
 187 012f DE       		.byte	0xde
 188 0130 000000B0 		.4byte	0xb0
 189 0134 04       		.byte	0x4
 190 0135 01       		.byte	0x1
 191 0136 05       		.byte	0x5
 192 0137 02       		.byte	0x2
 193 0138 23       		.byte	0x23
 194 0139 00       		.uleb128 0
 195 013a 09       		.uleb128 0x9
 196 013b 00000000 		.4byte	.LASF23
 197 013f 06       		.byte	0x6
 198 0140 DF       		.byte	0xdf
 199 0141 000000B0 		.4byte	0xb0
 200 0145 04       		.byte	0x4
 201 0146 01       		.byte	0x1
 202 0147 06       		.byte	0x6
 203 0148 02       		.byte	0x2
 204 0149 23       		.byte	0x23
 205 014a 00       		.uleb128 0
 206 014b 09       		.uleb128 0x9
 207 014c 00000000 		.4byte	.LASF24
 208 0150 06       		.byte	0x6
 209 0151 E0       		.byte	0xe0
 210 0152 000000B0 		.4byte	0xb0
 211 0156 04       		.byte	0x4
 212 0157 01       		.byte	0x1
 213 0158 07       		.byte	0x7
 214 0159 02       		.byte	0x2
 215 015a 23       		.byte	0x23
 216 015b 00       		.uleb128 0
 217 015c 09       		.uleb128 0x9
 218 015d 00000000 		.4byte	.LASF25
 219 0161 06       		.byte	0x6
 220 0162 E1       		.byte	0xe1
 221 0163 000000B0 		.4byte	0xb0
 222 0167 04       		.byte	0x4
 223 0168 01       		.byte	0x1
 224 0169 08       		.byte	0x8
 225 016a 02       		.byte	0x2
 226 016b 23       		.byte	0x23
 227 016c 00       		.uleb128 0
 228 016d 09       		.uleb128 0x9
GAS LISTING C:\Users\sw46\AppData\Local\Temp\cc8eQsX3.s 			page 5


 229 016e 00000000 		.4byte	.LASF26
 230 0172 06       		.byte	0x6
 231 0173 E2       		.byte	0xe2
 232 0174 000000B0 		.4byte	0xb0
 233 0178 04       		.byte	0x4
 234 0179 01       		.byte	0x1
 235 017a 09       		.byte	0x9
 236 017b 02       		.byte	0x2
 237 017c 23       		.byte	0x23
 238 017d 00       		.uleb128 0
 239 017e 09       		.uleb128 0x9
 240 017f 00000000 		.4byte	.LASF27
 241 0183 06       		.byte	0x6
 242 0184 E3       		.byte	0xe3
 243 0185 000000B0 		.4byte	0xb0
 244 0189 04       		.byte	0x4
 245 018a 01       		.byte	0x1
 246 018b 0A       		.byte	0xa
 247 018c 02       		.byte	0x2
 248 018d 23       		.byte	0x23
 249 018e 00       		.uleb128 0
 250 018f 09       		.uleb128 0x9
 251 0190 00000000 		.4byte	.LASF28
 252 0194 06       		.byte	0x6
 253 0195 E4       		.byte	0xe4
 254 0196 000000B0 		.4byte	0xb0
 255 019a 04       		.byte	0x4
 256 019b 01       		.byte	0x1
 257 019c 0B       		.byte	0xb
 258 019d 02       		.byte	0x2
 259 019e 23       		.byte	0x23
 260 019f 00       		.uleb128 0
 261 01a0 09       		.uleb128 0x9
 262 01a1 00000000 		.4byte	.LASF29
 263 01a5 06       		.byte	0x6
 264 01a6 E5       		.byte	0xe5
 265 01a7 000000B0 		.4byte	0xb0
 266 01ab 04       		.byte	0x4
 267 01ac 01       		.byte	0x1
 268 01ad 0C       		.byte	0xc
 269 01ae 02       		.byte	0x2
 270 01af 23       		.byte	0x23
 271 01b0 00       		.uleb128 0
 272 01b1 09       		.uleb128 0x9
 273 01b2 00000000 		.4byte	.LASF30
 274 01b6 06       		.byte	0x6
 275 01b7 E6       		.byte	0xe6
 276 01b8 000000B0 		.4byte	0xb0
 277 01bc 04       		.byte	0x4
 278 01bd 01       		.byte	0x1
 279 01be 0D       		.byte	0xd
 280 01bf 02       		.byte	0x2
 281 01c0 23       		.byte	0x23
 282 01c1 00       		.uleb128 0
 283 01c2 09       		.uleb128 0x9
 284 01c3 00000000 		.4byte	.LASF31
 285 01c7 06       		.byte	0x6
GAS LISTING C:\Users\sw46\AppData\Local\Temp\cc8eQsX3.s 			page 6


 286 01c8 E7       		.byte	0xe7
 287 01c9 000000B0 		.4byte	0xb0
 288 01cd 04       		.byte	0x4
 289 01ce 01       		.byte	0x1
 290 01cf 0E       		.byte	0xe
 291 01d0 02       		.byte	0x2
 292 01d1 23       		.byte	0x23
 293 01d2 00       		.uleb128 0
 294 01d3 09       		.uleb128 0x9
 295 01d4 00000000 		.4byte	.LASF32
 296 01d8 06       		.byte	0x6
 297 01d9 E8       		.byte	0xe8
 298 01da 000000B0 		.4byte	0xb0
 299 01de 04       		.byte	0x4
 300 01df 01       		.byte	0x1
 301 01e0 0F       		.byte	0xf
 302 01e1 02       		.byte	0x2
 303 01e2 23       		.byte	0x23
 304 01e3 00       		.uleb128 0
 305 01e4 09       		.uleb128 0x9
 306 01e5 00000000 		.4byte	.LASF33
 307 01e9 06       		.byte	0x6
 308 01ea EA       		.byte	0xea
 309 01eb 000000B0 		.4byte	0xb0
 310 01ef 04       		.byte	0x4
 311 01f0 01       		.byte	0x1
 312 01f1 11       		.byte	0x11
 313 01f2 02       		.byte	0x2
 314 01f3 23       		.byte	0x23
 315 01f4 00       		.uleb128 0
 316 01f5 09       		.uleb128 0x9
 317 01f6 00000000 		.4byte	.LASF34
 318 01fa 06       		.byte	0x6
 319 01fb EB       		.byte	0xeb
 320 01fc 000000B0 		.4byte	0xb0
 321 0200 04       		.byte	0x4
 322 0201 01       		.byte	0x1
 323 0202 12       		.byte	0x12
 324 0203 02       		.byte	0x2
 325 0204 23       		.byte	0x23
 326 0205 00       		.uleb128 0
 327 0206 09       		.uleb128 0x9
 328 0207 00000000 		.4byte	.LASF35
 329 020b 06       		.byte	0x6
 330 020c EC       		.byte	0xec
 331 020d 000000B0 		.4byte	0xb0
 332 0211 04       		.byte	0x4
 333 0212 01       		.byte	0x1
 334 0213 13       		.byte	0x13
 335 0214 02       		.byte	0x2
 336 0215 23       		.byte	0x23
 337 0216 00       		.uleb128 0
 338 0217 09       		.uleb128 0x9
 339 0218 00000000 		.4byte	.LASF36
 340 021c 06       		.byte	0x6
 341 021d ED       		.byte	0xed
 342 021e 000000B0 		.4byte	0xb0
GAS LISTING C:\Users\sw46\AppData\Local\Temp\cc8eQsX3.s 			page 7


 343 0222 04       		.byte	0x4
 344 0223 01       		.byte	0x1
 345 0224 14       		.byte	0x14
 346 0225 02       		.byte	0x2
 347 0226 23       		.byte	0x23
 348 0227 00       		.uleb128 0
 349 0228 09       		.uleb128 0x9
 350 0229 00000000 		.4byte	.LASF37
 351 022d 06       		.byte	0x6
 352 022e EE       		.byte	0xee
 353 022f 000000B0 		.4byte	0xb0
 354 0233 04       		.byte	0x4
 355 0234 01       		.byte	0x1
 356 0235 15       		.byte	0x15
 357 0236 02       		.byte	0x2
 358 0237 23       		.byte	0x23
 359 0238 00       		.uleb128 0
 360 0239 09       		.uleb128 0x9
 361 023a 00000000 		.4byte	.LASF38
 362 023e 06       		.byte	0x6
 363 023f EF       		.byte	0xef
 364 0240 000000B0 		.4byte	0xb0
 365 0244 04       		.byte	0x4
 366 0245 02       		.byte	0x2
 367 0246 16       		.byte	0x16
 368 0247 02       		.byte	0x2
 369 0248 23       		.byte	0x23
 370 0249 00       		.uleb128 0
 371 024a 09       		.uleb128 0x9
 372 024b 00000000 		.4byte	.LASF39
 373 024f 06       		.byte	0x6
 374 0250 F1       		.byte	0xf1
 375 0251 000000B0 		.4byte	0xb0
 376 0255 04       		.byte	0x4
 377 0256 01       		.byte	0x1
 378 0257 1F       		.byte	0x1f
 379 0258 02       		.byte	0x2
 380 0259 23       		.byte	0x23
 381 025a 00       		.uleb128 0
 382 025b 00       		.byte	0
 383 025c 0B       		.uleb128 0xb
 384 025d 04       		.byte	0x4
 385 025e 06       		.byte	0x6
 386 025f D7       		.byte	0xd7
 387 0260 00000277 		.4byte	0x277
 388 0264 0C       		.uleb128 0xc
 389 0265 5200     		.string	"R"
 390 0267 06       		.byte	0x6
 391 0268 D8       		.byte	0xd8
 392 0269 000000B0 		.4byte	0xb0
 393 026d 0C       		.uleb128 0xc
 394 026e 4200     		.string	"B"
 395 0270 06       		.byte	0x6
 396 0271 F2       		.byte	0xf2
 397 0272 000000DD 		.4byte	0xdd
 398 0276 00       		.byte	0
 399 0277 08       		.uleb128 0x8
GAS LISTING C:\Users\sw46\AppData\Local\Temp\cc8eQsX3.s 			page 8


 400 0278 04       		.byte	0x4
 401 0279 06       		.byte	0x6
 402 027a F9       		.byte	0xf9
 403 027b 00000291 		.4byte	0x291
 404 027f 09       		.uleb128 0x9
 405 0280 00000000 		.4byte	.LASF40
 406 0284 06       		.byte	0x6
 407 0285 FA       		.byte	0xfa
 408 0286 000000B0 		.4byte	0xb0
 409 028a 04       		.byte	0x4
 410 028b 10       		.byte	0x10
 411 028c 00       		.byte	0
 412 028d 02       		.byte	0x2
 413 028e 23       		.byte	0x23
 414 028f 00       		.uleb128 0
 415 0290 00       		.byte	0
 416 0291 0B       		.uleb128 0xb
 417 0292 04       		.byte	0x4
 418 0293 06       		.byte	0x6
 419 0294 F7       		.byte	0xf7
 420 0295 000002AC 		.4byte	0x2ac
 421 0299 0C       		.uleb128 0xc
 422 029a 5200     		.string	"R"
 423 029c 06       		.byte	0x6
 424 029d F8       		.byte	0xf8
 425 029e 000000B0 		.4byte	0xb0
 426 02a2 0C       		.uleb128 0xc
 427 02a3 4200     		.string	"B"
 428 02a5 06       		.byte	0x6
 429 02a6 FC       		.byte	0xfc
 430 02a7 00000277 		.4byte	0x277
 431 02ab 00       		.byte	0
 432 02ac 0D       		.uleb128 0xd
 433 02ad 04       		.byte	0x4
 434 02ae 06       		.byte	0x6
 435 02af 0101     		.2byte	0x101
 436 02b1 0000039E 		.4byte	0x39e
 437 02b5 0E       		.uleb128 0xe
 438 02b6 44425200 		.string	"DBR"
 439 02ba 06       		.byte	0x6
 440 02bb 0102     		.2byte	0x102
 441 02bd 000000B0 		.4byte	0xb0
 442 02c1 04       		.byte	0x4
 443 02c2 01       		.byte	0x1
 444 02c3 00       		.byte	0
 445 02c4 02       		.byte	0x2
 446 02c5 23       		.byte	0x23
 447 02c6 00       		.uleb128 0
 448 02c7 0F       		.uleb128 0xf
 449 02c8 00000000 		.4byte	.LASF41
 450 02cc 06       		.byte	0x6
 451 02cd 0103     		.2byte	0x103
 452 02cf 000000B0 		.4byte	0xb0
 453 02d3 04       		.byte	0x4
 454 02d4 04       		.byte	0x4
 455 02d5 01       		.byte	0x1
 456 02d6 02       		.byte	0x2
GAS LISTING C:\Users\sw46\AppData\Local\Temp\cc8eQsX3.s 			page 9


 457 02d7 23       		.byte	0x23
 458 02d8 00       		.uleb128 0
 459 02d9 0F       		.uleb128 0xf
 460 02da 00000000 		.4byte	.LASF42
 461 02de 06       		.byte	0x6
 462 02df 0104     		.2byte	0x104
 463 02e1 000000B0 		.4byte	0xb0
 464 02e5 04       		.byte	0x4
 465 02e6 01       		.byte	0x1
 466 02e7 05       		.byte	0x5
 467 02e8 02       		.byte	0x2
 468 02e9 23       		.byte	0x23
 469 02ea 00       		.uleb128 0
 470 02eb 0F       		.uleb128 0xf
 471 02ec 00000000 		.4byte	.LASF43
 472 02f0 06       		.byte	0x6
 473 02f1 0105     		.2byte	0x105
 474 02f3 000000B0 		.4byte	0xb0
 475 02f7 04       		.byte	0x4
 476 02f8 01       		.byte	0x1
 477 02f9 06       		.byte	0x6
 478 02fa 02       		.byte	0x2
 479 02fb 23       		.byte	0x23
 480 02fc 00       		.uleb128 0
 481 02fd 0F       		.uleb128 0xf
 482 02fe 00000000 		.4byte	.LASF44
 483 0302 06       		.byte	0x6
 484 0303 0106     		.2byte	0x106
 485 0305 000000B0 		.4byte	0xb0
 486 0309 04       		.byte	0x4
 487 030a 01       		.byte	0x1
 488 030b 07       		.byte	0x7
 489 030c 02       		.byte	0x2
 490 030d 23       		.byte	0x23
 491 030e 00       		.uleb128 0
 492 030f 0F       		.uleb128 0xf
 493 0310 00000000 		.4byte	.LASF45
 494 0314 06       		.byte	0x6
 495 0315 0107     		.2byte	0x107
 496 0317 000000B0 		.4byte	0xb0
 497 031b 04       		.byte	0x4
 498 031c 02       		.byte	0x2
 499 031d 08       		.byte	0x8
 500 031e 02       		.byte	0x2
 501 031f 23       		.byte	0x23
 502 0320 00       		.uleb128 0
 503 0321 0F       		.uleb128 0xf
 504 0322 00000000 		.4byte	.LASF46
 505 0326 06       		.byte	0x6
 506 0327 0108     		.2byte	0x108
 507 0329 000000B0 		.4byte	0xb0
 508 032d 04       		.byte	0x4
 509 032e 02       		.byte	0x2
 510 032f 0A       		.byte	0xa
 511 0330 02       		.byte	0x2
 512 0331 23       		.byte	0x23
 513 0332 00       		.uleb128 0
GAS LISTING C:\Users\sw46\AppData\Local\Temp\cc8eQsX3.s 			page 10


 514 0333 0E       		.uleb128 0xe
 515 0334 50445400 		.string	"PDT"
 516 0338 06       		.byte	0x6
 517 0339 0109     		.2byte	0x109
 518 033b 000000B0 		.4byte	0xb0
 519 033f 04       		.byte	0x4
 520 0340 02       		.byte	0x2
 521 0341 0C       		.byte	0xc
 522 0342 02       		.byte	0x2
 523 0343 23       		.byte	0x23
 524 0344 00       		.uleb128 0
 525 0345 0E       		.uleb128 0xe
 526 0346 50425200 		.string	"PBR"
 527 034a 06       		.byte	0x6
 528 034b 010A     		.2byte	0x10a
 529 034d 000000B0 		.4byte	0xb0
 530 0351 04       		.byte	0x4
 531 0352 02       		.byte	0x2
 532 0353 0E       		.byte	0xe
 533 0354 02       		.byte	0x2
 534 0355 23       		.byte	0x23
 535 0356 00       		.uleb128 0
 536 0357 0F       		.uleb128 0xf
 537 0358 00000000 		.4byte	.LASF47
 538 035c 06       		.byte	0x6
 539 035d 010B     		.2byte	0x10b
 540 035f 000000B0 		.4byte	0xb0
 541 0363 04       		.byte	0x4
 542 0364 04       		.byte	0x4
 543 0365 10       		.byte	0x10
 544 0366 02       		.byte	0x2
 545 0367 23       		.byte	0x23
 546 0368 00       		.uleb128 0
 547 0369 0E       		.uleb128 0xe
 548 036a 41534300 		.string	"ASC"
 549 036e 06       		.byte	0x6
 550 036f 010C     		.2byte	0x10c
 551 0371 000000B0 		.4byte	0xb0
 552 0375 04       		.byte	0x4
 553 0376 04       		.byte	0x4
 554 0377 14       		.byte	0x14
 555 0378 02       		.byte	0x2
 556 0379 23       		.byte	0x23
 557 037a 00       		.uleb128 0
 558 037b 0E       		.uleb128 0xe
 559 037c 445400   		.string	"DT"
 560 037f 06       		.byte	0x6
 561 0380 010D     		.2byte	0x10d
 562 0382 000000B0 		.4byte	0xb0
 563 0386 04       		.byte	0x4
 564 0387 04       		.byte	0x4
 565 0388 18       		.byte	0x18
 566 0389 02       		.byte	0x2
 567 038a 23       		.byte	0x23
 568 038b 00       		.uleb128 0
 569 038c 0E       		.uleb128 0xe
 570 038d 425200   		.string	"BR"
GAS LISTING C:\Users\sw46\AppData\Local\Temp\cc8eQsX3.s 			page 11


 571 0390 06       		.byte	0x6
 572 0391 010E     		.2byte	0x10e
 573 0393 000000B0 		.4byte	0xb0
 574 0397 04       		.byte	0x4
 575 0398 04       		.byte	0x4
 576 0399 1C       		.byte	0x1c
 577 039a 02       		.byte	0x2
 578 039b 23       		.byte	0x23
 579 039c 00       		.uleb128 0
 580 039d 00       		.byte	0
 581 039e 0B       		.uleb128 0xb
 582 039f 04       		.byte	0x4
 583 03a0 06       		.byte	0x6
 584 03a1 FF       		.byte	0xff
 585 03a2 000003BB 		.4byte	0x3bb
 586 03a6 10       		.uleb128 0x10
 587 03a7 5200     		.string	"R"
 588 03a9 06       		.byte	0x6
 589 03aa 0100     		.2byte	0x100
 590 03ac 000000B0 		.4byte	0xb0
 591 03b0 10       		.uleb128 0x10
 592 03b1 4200     		.string	"B"
 593 03b3 06       		.byte	0x6
 594 03b4 010F     		.2byte	0x10f
 595 03b6 000002AC 		.4byte	0x2ac
 596 03ba 00       		.byte	0
 597 03bb 0D       		.uleb128 0xd
 598 03bc 04       		.byte	0x4
 599 03bd 06       		.byte	0x6
 600 03be 0114     		.2byte	0x114
 601 03c0 0000048B 		.4byte	0x48b
 602 03c4 0E       		.uleb128 0xe
 603 03c5 54434600 		.string	"TCF"
 604 03c9 06       		.byte	0x6
 605 03ca 0115     		.2byte	0x115
 606 03cc 000000B0 		.4byte	0xb0
 607 03d0 04       		.byte	0x4
 608 03d1 01       		.byte	0x1
 609 03d2 00       		.byte	0
 610 03d3 02       		.byte	0x2
 611 03d4 23       		.byte	0x23
 612 03d5 00       		.uleb128 0
 613 03d6 0F       		.uleb128 0xf
 614 03d7 00000000 		.4byte	.LASF48
 615 03db 06       		.byte	0x6
 616 03dc 0116     		.2byte	0x116
 617 03de 000000B0 		.4byte	0xb0
 618 03e2 04       		.byte	0x4
 619 03e3 01       		.byte	0x1
 620 03e4 01       		.byte	0x1
 621 03e5 02       		.byte	0x2
 622 03e6 23       		.byte	0x23
 623 03e7 00       		.uleb128 0
 624 03e8 0F       		.uleb128 0xf
 625 03e9 00000000 		.4byte	.LASF49
 626 03ed 06       		.byte	0x6
 627 03ee 0118     		.2byte	0x118
GAS LISTING C:\Users\sw46\AppData\Local\Temp\cc8eQsX3.s 			page 12


 628 03f0 000000B0 		.4byte	0xb0
 629 03f4 04       		.byte	0x4
 630 03f5 01       		.byte	0x1
 631 03f6 03       		.byte	0x3
 632 03f7 02       		.byte	0x2
 633 03f8 23       		.byte	0x23
 634 03f9 00       		.uleb128 0
 635 03fa 0F       		.uleb128 0xf
 636 03fb 00000000 		.4byte	.LASF50
 637 03ff 06       		.byte	0x6
 638 0400 0119     		.2byte	0x119
 639 0402 000000B0 		.4byte	0xb0
 640 0406 04       		.byte	0x4
 641 0407 01       		.byte	0x1
 642 0408 04       		.byte	0x4
 643 0409 02       		.byte	0x2
 644 040a 23       		.byte	0x23
 645 040b 00       		.uleb128 0
 646 040c 0F       		.uleb128 0xf
 647 040d 00000000 		.4byte	.LASF51
 648 0411 06       		.byte	0x6
 649 0412 011B     		.2byte	0x11b
 650 0414 000000B0 		.4byte	0xb0
 651 0418 04       		.byte	0x4
 652 0419 01       		.byte	0x1
 653 041a 06       		.byte	0x6
 654 041b 02       		.byte	0x2
 655 041c 23       		.byte	0x23
 656 041d 00       		.uleb128 0
 657 041e 0F       		.uleb128 0xf
 658 041f 00000000 		.4byte	.LASF52
 659 0423 06       		.byte	0x6
 660 0424 011D     		.2byte	0x11d
 661 0426 000000B0 		.4byte	0xb0
 662 042a 04       		.byte	0x4
 663 042b 01       		.byte	0x1
 664 042c 0C       		.byte	0xc
 665 042d 02       		.byte	0x2
 666 042e 23       		.byte	0x23
 667 042f 00       		.uleb128 0
 668 0430 0F       		.uleb128 0xf
 669 0431 00000000 		.4byte	.LASF53
 670 0435 06       		.byte	0x6
 671 0436 011F     		.2byte	0x11f
 672 0438 000000B0 		.4byte	0xb0
 673 043c 04       		.byte	0x4
 674 043d 01       		.byte	0x1
 675 043e 0E       		.byte	0xe
 676 043f 02       		.byte	0x2
 677 0440 23       		.byte	0x23
 678 0441 00       		.uleb128 0
 679 0442 0F       		.uleb128 0xf
 680 0443 00000000 		.4byte	.LASF54
 681 0447 06       		.byte	0x6
 682 0448 0121     		.2byte	0x121
 683 044a 000000B0 		.4byte	0xb0
 684 044e 04       		.byte	0x4
GAS LISTING C:\Users\sw46\AppData\Local\Temp\cc8eQsX3.s 			page 13


 685 044f 04       		.byte	0x4
 686 0450 10       		.byte	0x10
 687 0451 02       		.byte	0x2
 688 0452 23       		.byte	0x23
 689 0453 00       		.uleb128 0
 690 0454 0F       		.uleb128 0xf
 691 0455 00000000 		.4byte	.LASF55
 692 0459 06       		.byte	0x6
 693 045a 0122     		.2byte	0x122
 694 045c 000000B0 		.4byte	0xb0
 695 0460 04       		.byte	0x4
 696 0461 04       		.byte	0x4
 697 0462 14       		.byte	0x14
 698 0463 02       		.byte	0x2
 699 0464 23       		.byte	0x23
 700 0465 00       		.uleb128 0
 701 0466 0F       		.uleb128 0xf
 702 0467 00000000 		.4byte	.LASF56
 703 046b 06       		.byte	0x6
 704 046c 0123     		.2byte	0x123
 705 046e 000000B0 		.4byte	0xb0
 706 0472 04       		.byte	0x4
 707 0473 04       		.byte	0x4
 708 0474 18       		.byte	0x18
 709 0475 02       		.byte	0x2
 710 0476 23       		.byte	0x23
 711 0477 00       		.uleb128 0
 712 0478 0F       		.uleb128 0xf
 713 0479 00000000 		.4byte	.LASF57
 714 047d 06       		.byte	0x6
 715 047e 0124     		.2byte	0x124
 716 0480 000000B0 		.4byte	0xb0
 717 0484 04       		.byte	0x4
 718 0485 04       		.byte	0x4
 719 0486 1C       		.byte	0x1c
 720 0487 02       		.byte	0x2
 721 0488 23       		.byte	0x23
 722 0489 00       		.uleb128 0
 723 048a 00       		.byte	0
 724 048b 11       		.uleb128 0x11
 725 048c 04       		.byte	0x4
 726 048d 06       		.byte	0x6
 727 048e 0112     		.2byte	0x112
 728 0490 000004A9 		.4byte	0x4a9
 729 0494 10       		.uleb128 0x10
 730 0495 5200     		.string	"R"
 731 0497 06       		.byte	0x6
 732 0498 0113     		.2byte	0x113
 733 049a 000000B0 		.4byte	0xb0
 734 049e 10       		.uleb128 0x10
 735 049f 4200     		.string	"B"
 736 04a1 06       		.byte	0x6
 737 04a2 0125     		.2byte	0x125
 738 04a4 000003BB 		.4byte	0x3bb
 739 04a8 00       		.byte	0
 740 04a9 0D       		.uleb128 0xd
 741 04aa 04       		.byte	0x4
GAS LISTING C:\Users\sw46\AppData\Local\Temp\cc8eQsX3.s 			page 14


 742 04ab 06       		.byte	0x6
 743 04ac 012A     		.2byte	0x12a
 744 04ae 00000543 		.4byte	0x543
 745 04b2 0F       		.uleb128 0xf
 746 04b3 00000000 		.4byte	.LASF58
 747 04b7 06       		.byte	0x6
 748 04b8 012B     		.2byte	0x12b
 749 04ba 000000B0 		.4byte	0xb0
 750 04be 04       		.byte	0x4
 751 04bf 01       		.byte	0x1
 752 04c0 00       		.byte	0
 753 04c1 02       		.byte	0x2
 754 04c2 23       		.byte	0x23
 755 04c3 00       		.uleb128 0
 756 04c4 0F       		.uleb128 0xf
 757 04c5 00000000 		.4byte	.LASF59
 758 04c9 06       		.byte	0x6
 759 04ca 012D     		.2byte	0x12d
 760 04cc 000000B0 		.4byte	0xb0
 761 04d0 04       		.byte	0x4
 762 04d1 01       		.byte	0x1
 763 04d2 03       		.byte	0x3
 764 04d3 02       		.byte	0x2
 765 04d4 23       		.byte	0x23
 766 04d5 00       		.uleb128 0
 767 04d6 0F       		.uleb128 0xf
 768 04d7 00000000 		.4byte	.LASF60
 769 04db 06       		.byte	0x6
 770 04dc 012E     		.2byte	0x12e
 771 04de 000000B0 		.4byte	0xb0
 772 04e2 04       		.byte	0x4
 773 04e3 01       		.byte	0x1
 774 04e4 04       		.byte	0x4
 775 04e5 02       		.byte	0x2
 776 04e6 23       		.byte	0x23
 777 04e7 00       		.uleb128 0
 778 04e8 0F       		.uleb128 0xf
 779 04e9 00000000 		.4byte	.LASF61
 780 04ed 06       		.byte	0x6
 781 04ee 0130     		.2byte	0x130
 782 04f0 000000B0 		.4byte	0xb0
 783 04f4 04       		.byte	0x4
 784 04f5 01       		.byte	0x1
 785 04f6 06       		.byte	0x6
 786 04f7 02       		.byte	0x2
 787 04f8 23       		.byte	0x23
 788 04f9 00       		.uleb128 0
 789 04fa 0F       		.uleb128 0xf
 790 04fb 00000000 		.4byte	.LASF62
 791 04ff 06       		.byte	0x6
 792 0500 0131     		.2byte	0x131
 793 0502 000000B0 		.4byte	0xb0
 794 0506 04       		.byte	0x4
 795 0507 01       		.byte	0x1
 796 0508 07       		.byte	0x7
 797 0509 02       		.byte	0x2
 798 050a 23       		.byte	0x23
GAS LISTING C:\Users\sw46\AppData\Local\Temp\cc8eQsX3.s 			page 15


 799 050b 00       		.uleb128 0
 800 050c 0F       		.uleb128 0xf
 801 050d 00000000 		.4byte	.LASF63
 802 0511 06       		.byte	0x6
 803 0512 0133     		.2byte	0x133
 804 0514 000000B0 		.4byte	0xb0
 805 0518 04       		.byte	0x4
 806 0519 01       		.byte	0x1
 807 051a 0C       		.byte	0xc
 808 051b 02       		.byte	0x2
 809 051c 23       		.byte	0x23
 810 051d 00       		.uleb128 0
 811 051e 0F       		.uleb128 0xf
 812 051f 00000000 		.4byte	.LASF64
 813 0523 06       		.byte	0x6
 814 0524 0135     		.2byte	0x135
 815 0526 000000B0 		.4byte	0xb0
 816 052a 04       		.byte	0x4
 817 052b 01       		.byte	0x1
 818 052c 0E       		.byte	0xe
 819 052d 02       		.byte	0x2
 820 052e 23       		.byte	0x23
 821 052f 00       		.uleb128 0
 822 0530 0F       		.uleb128 0xf
 823 0531 00000000 		.4byte	.LASF65
 824 0535 06       		.byte	0x6
 825 0536 0136     		.2byte	0x136
 826 0538 000000B0 		.4byte	0xb0
 827 053c 04       		.byte	0x4
 828 053d 01       		.byte	0x1
 829 053e 0F       		.byte	0xf
 830 053f 02       		.byte	0x2
 831 0540 23       		.byte	0x23
 832 0541 00       		.uleb128 0
 833 0542 00       		.byte	0
 834 0543 11       		.uleb128 0x11
 835 0544 04       		.byte	0x4
 836 0545 06       		.byte	0x6
 837 0546 0128     		.2byte	0x128
 838 0548 00000561 		.4byte	0x561
 839 054c 10       		.uleb128 0x10
 840 054d 5200     		.string	"R"
 841 054f 06       		.byte	0x6
 842 0550 0129     		.2byte	0x129
 843 0552 000000B0 		.4byte	0xb0
 844 0556 10       		.uleb128 0x10
 845 0557 4200     		.string	"B"
 846 0559 06       		.byte	0x6
 847 055a 0138     		.2byte	0x138
 848 055c 000004A9 		.4byte	0x4a9
 849 0560 00       		.byte	0
 850 0561 0D       		.uleb128 0xd
 851 0562 04       		.byte	0x4
 852 0563 06       		.byte	0x6
 853 0564 013D     		.2byte	0x13d
 854 0566 00000655 		.4byte	0x655
 855 056a 0F       		.uleb128 0xf
GAS LISTING C:\Users\sw46\AppData\Local\Temp\cc8eQsX3.s 			page 16


 856 056b 00000000 		.4byte	.LASF66
 857 056f 06       		.byte	0x6
 858 0570 013E     		.2byte	0x13e
 859 0572 000000B0 		.4byte	0xb0
 860 0576 04       		.byte	0x4
 861 0577 01       		.byte	0x1
 862 0578 00       		.byte	0
 863 0579 02       		.byte	0x2
 864 057a 23       		.byte	0x23
 865 057b 00       		.uleb128 0
 866 057c 0F       		.uleb128 0xf
 867 057d 00000000 		.4byte	.LASF67
 868 0581 06       		.byte	0x6
 869 0582 013F     		.2byte	0x13f
 870 0584 000000B0 		.4byte	0xb0
 871 0588 04       		.byte	0x4
 872 0589 03       		.byte	0x3
 873 058a 01       		.byte	0x1
 874 058b 02       		.byte	0x2
 875 058c 23       		.byte	0x23
 876 058d 00       		.uleb128 0
 877 058e 0E       		.uleb128 0xe
 878 058f 454F5100 		.string	"EOQ"
 879 0593 06       		.byte	0x6
 880 0594 0140     		.2byte	0x140
 881 0596 000000B0 		.4byte	0xb0
 882 059a 04       		.byte	0x4
 883 059b 01       		.byte	0x1
 884 059c 04       		.byte	0x4
 885 059d 02       		.byte	0x2
 886 059e 23       		.byte	0x23
 887 059f 00       		.uleb128 0
 888 05a0 0F       		.uleb128 0xf
 889 05a1 00000000 		.4byte	.LASF68
 890 05a5 06       		.byte	0x6
 891 05a6 0141     		.2byte	0x141
 892 05a8 000000B0 		.4byte	0xb0
 893 05ac 04       		.byte	0x4
 894 05ad 01       		.byte	0x1
 895 05ae 05       		.byte	0x5
 896 05af 02       		.byte	0x2
 897 05b0 23       		.byte	0x23
 898 05b1 00       		.uleb128 0
 899 05b2 0F       		.uleb128 0xf
 900 05b3 00000000 		.4byte	.LASF69
 901 05b7 06       		.byte	0x6
 902 05b8 0143     		.2byte	0x143
 903 05ba 000000B0 		.4byte	0xb0
 904 05be 04       		.byte	0x4
 905 05bf 01       		.byte	0x1
 906 05c0 08       		.byte	0x8
 907 05c1 02       		.byte	0x2
 908 05c2 23       		.byte	0x23
 909 05c3 00       		.uleb128 0
 910 05c4 0F       		.uleb128 0xf
 911 05c5 00000000 		.4byte	.LASF70
 912 05c9 06       		.byte	0x6
GAS LISTING C:\Users\sw46\AppData\Local\Temp\cc8eQsX3.s 			page 17


 913 05ca 0144     		.2byte	0x144
 914 05cc 000000B0 		.4byte	0xb0
 915 05d0 04       		.byte	0x4
 916 05d1 01       		.byte	0x1
 917 05d2 09       		.byte	0x9
 918 05d3 02       		.byte	0x2
 919 05d4 23       		.byte	0x23
 920 05d5 00       		.uleb128 0
 921 05d6 0F       		.uleb128 0xf
 922 05d7 00000000 		.4byte	.LASF71
 923 05db 06       		.byte	0x6
 924 05dc 0145     		.2byte	0x145
 925 05de 000000B0 		.4byte	0xb0
 926 05e2 04       		.byte	0x4
 927 05e3 01       		.byte	0x1
 928 05e4 0A       		.byte	0xa
 929 05e5 02       		.byte	0x2
 930 05e6 23       		.byte	0x23
 931 05e7 00       		.uleb128 0
 932 05e8 0F       		.uleb128 0xf
 933 05e9 00000000 		.4byte	.LASF72
 934 05ed 06       		.byte	0x6
 935 05ee 0146     		.2byte	0x146
 936 05f0 000000B0 		.4byte	0xb0
 937 05f4 04       		.byte	0x4
 938 05f5 01       		.byte	0x1
 939 05f6 0B       		.byte	0xb
 940 05f7 02       		.byte	0x2
 941 05f8 23       		.byte	0x23
 942 05f9 00       		.uleb128 0
 943 05fa 0F       		.uleb128 0xf
 944 05fb 00000000 		.4byte	.LASF73
 945 05ff 06       		.byte	0x6
 946 0600 0147     		.2byte	0x147
 947 0602 000000B0 		.4byte	0xb0
 948 0606 04       		.byte	0x4
 949 0607 01       		.byte	0x1
 950 0608 0C       		.byte	0xc
 951 0609 02       		.byte	0x2
 952 060a 23       		.byte	0x23
 953 060b 00       		.uleb128 0
 954 060c 0F       		.uleb128 0xf
 955 060d 00000000 		.4byte	.LASF74
 956 0611 06       		.byte	0x6
 957 0612 0148     		.2byte	0x148
 958 0614 000000B0 		.4byte	0xb0
 959 0618 04       		.byte	0x4
 960 0619 01       		.byte	0x1
 961 061a 0D       		.byte	0xd
 962 061b 02       		.byte	0x2
 963 061c 23       		.byte	0x23
 964 061d 00       		.uleb128 0
 965 061e 0F       		.uleb128 0xf
 966 061f 00000000 		.4byte	.LASF75
 967 0623 06       		.byte	0x6
 968 0624 0149     		.2byte	0x149
 969 0626 000000B0 		.4byte	0xb0
GAS LISTING C:\Users\sw46\AppData\Local\Temp\cc8eQsX3.s 			page 18


 970 062a 04       		.byte	0x4
 971 062b 01       		.byte	0x1
 972 062c 0E       		.byte	0xe
 973 062d 02       		.byte	0x2
 974 062e 23       		.byte	0x23
 975 062f 00       		.uleb128 0
 976 0630 0F       		.uleb128 0xf
 977 0631 00000000 		.4byte	.LASF76
 978 0635 06       		.byte	0x6
 979 0636 014A     		.2byte	0x14a
 980 0638 000000B0 		.4byte	0xb0
 981 063c 04       		.byte	0x4
 982 063d 01       		.byte	0x1
 983 063e 0F       		.byte	0xf
 984 063f 02       		.byte	0x2
 985 0640 23       		.byte	0x23
 986 0641 00       		.uleb128 0
 987 0642 0F       		.uleb128 0xf
 988 0643 00000000 		.4byte	.LASF77
 989 0647 06       		.byte	0x6
 990 0648 014B     		.2byte	0x14b
 991 064a 000000B0 		.4byte	0xb0
 992 064e 04       		.byte	0x4
 993 064f 10       		.byte	0x10
 994 0650 10       		.byte	0x10
 995 0651 02       		.byte	0x2
 996 0652 23       		.byte	0x23
 997 0653 00       		.uleb128 0
 998 0654 00       		.byte	0
 999 0655 11       		.uleb128 0x11
 1000 0656 04       		.byte	0x4
 1001 0657 06       		.byte	0x6
 1002 0658 013B     		.2byte	0x13b
 1003 065a 00000673 		.4byte	0x673
 1004 065e 10       		.uleb128 0x10
 1005 065f 5200     		.string	"R"
 1006 0661 06       		.byte	0x6
 1007 0662 013C     		.2byte	0x13c
 1008 0664 000000B0 		.4byte	0xb0
 1009 0668 10       		.uleb128 0x10
 1010 0669 4200     		.string	"B"
 1011 066b 06       		.byte	0x6
 1012 066c 014C     		.2byte	0x14c
 1013 066e 00000561 		.4byte	0x561
 1014 0672 00       		.byte	0
 1015 0673 0D       		.uleb128 0xd
 1016 0674 04       		.byte	0x4
 1017 0675 06       		.byte	0x6
 1018 0676 0151     		.2byte	0x151
 1019 0678 0000068F 		.4byte	0x68f
 1020 067c 0F       		.uleb128 0xf
 1021 067d 00000000 		.4byte	.LASF78
 1022 0681 06       		.byte	0x6
 1023 0682 0153     		.2byte	0x153
 1024 0684 000000B0 		.4byte	0xb0
 1025 0688 04       		.byte	0x4
 1026 0689 10       		.byte	0x10
GAS LISTING C:\Users\sw46\AppData\Local\Temp\cc8eQsX3.s 			page 19


 1027 068a 10       		.byte	0x10
 1028 068b 02       		.byte	0x2
 1029 068c 23       		.byte	0x23
 1030 068d 00       		.uleb128 0
 1031 068e 00       		.byte	0
 1032 068f 11       		.uleb128 0x11
 1033 0690 04       		.byte	0x4
 1034 0691 06       		.byte	0x6
 1035 0692 014F     		.2byte	0x14f
 1036 0694 000006AD 		.4byte	0x6ad
 1037 0698 10       		.uleb128 0x10
 1038 0699 5200     		.string	"R"
 1039 069b 06       		.byte	0x6
 1040 069c 0150     		.2byte	0x150
 1041 069e 000000B0 		.4byte	0xb0
 1042 06a2 10       		.uleb128 0x10
 1043 06a3 4200     		.string	"B"
 1044 06a5 06       		.byte	0x6
 1045 06a6 0154     		.2byte	0x154
 1046 06a8 00000673 		.4byte	0x673
 1047 06ac 00       		.byte	0
 1048 06ad 0D       		.uleb128 0xd
 1049 06ae 04       		.byte	0x4
 1050 06af 06       		.byte	0x6
 1051 06b0 0159     		.2byte	0x159
 1052 06b2 000006DB 		.4byte	0x6db
 1053 06b6 0F       		.uleb128 0xf
 1054 06b7 00000000 		.4byte	.LASF79
 1055 06bb 06       		.byte	0x6
 1056 06bc 015A     		.2byte	0x15a
 1057 06be 000000B0 		.4byte	0xb0
 1058 06c2 04       		.byte	0x4
 1059 06c3 10       		.byte	0x10
 1060 06c4 00       		.byte	0
 1061 06c5 02       		.byte	0x2
 1062 06c6 23       		.byte	0x23
 1063 06c7 00       		.uleb128 0
 1064 06c8 0F       		.uleb128 0xf
 1065 06c9 00000000 		.4byte	.LASF77
 1066 06cd 06       		.byte	0x6
 1067 06ce 015B     		.2byte	0x15b
 1068 06d0 000000B0 		.4byte	0xb0
 1069 06d4 04       		.byte	0x4
 1070 06d5 10       		.byte	0x10
 1071 06d6 10       		.byte	0x10
 1072 06d7 02       		.byte	0x2
 1073 06d8 23       		.byte	0x23
 1074 06d9 00       		.uleb128 0
 1075 06da 00       		.byte	0
 1076 06db 11       		.uleb128 0x11
 1077 06dc 04       		.byte	0x4
 1078 06dd 06       		.byte	0x6
 1079 06de 0157     		.2byte	0x157
 1080 06e0 000006F9 		.4byte	0x6f9
 1081 06e4 10       		.uleb128 0x10
 1082 06e5 5200     		.string	"R"
 1083 06e7 06       		.byte	0x6
GAS LISTING C:\Users\sw46\AppData\Local\Temp\cc8eQsX3.s 			page 20


 1084 06e8 0158     		.2byte	0x158
 1085 06ea 000000B0 		.4byte	0xb0
 1086 06ee 10       		.uleb128 0x10
 1087 06ef 4200     		.string	"B"
 1088 06f1 06       		.byte	0x6
 1089 06f2 015C     		.2byte	0x15c
 1090 06f4 000006AD 		.4byte	0x6ad
 1091 06f8 00       		.byte	0
 1092 06f9 0D       		.uleb128 0xd
 1093 06fa 04       		.byte	0x4
 1094 06fb 06       		.byte	0x6
 1095 06fc 0163     		.2byte	0x163
 1096 06fe 00000715 		.4byte	0x715
 1097 0702 0F       		.uleb128 0xf
 1098 0703 00000000 		.4byte	.LASF78
 1099 0707 06       		.byte	0x6
 1100 0708 0165     		.2byte	0x165
 1101 070a 000000B0 		.4byte	0xb0
 1102 070e 04       		.byte	0x4
 1103 070f 10       		.byte	0x10
 1104 0710 10       		.byte	0x10
 1105 0711 02       		.byte	0x2
 1106 0712 23       		.byte	0x23
 1107 0713 00       		.uleb128 0
 1108 0714 00       		.byte	0
 1109 0715 11       		.uleb128 0x11
 1110 0716 04       		.byte	0x4
 1111 0717 06       		.byte	0x6
 1112 0718 0161     		.2byte	0x161
 1113 071a 00000733 		.4byte	0x733
 1114 071e 10       		.uleb128 0x10
 1115 071f 5200     		.string	"R"
 1116 0721 06       		.byte	0x6
 1117 0722 0162     		.2byte	0x162
 1118 0724 000000B0 		.4byte	0xb0
 1119 0728 10       		.uleb128 0x10
 1120 0729 4200     		.string	"B"
 1121 072b 06       		.byte	0x6
 1122 072c 0166     		.2byte	0x166
 1123 072e 000006F9 		.4byte	0x6f9
 1124 0732 00       		.byte	0
 1125 0733 0D       		.uleb128 0xd
 1126 0734 04       		.byte	0x4
 1127 0735 06       		.byte	0x6
 1128 0736 016D     		.2byte	0x16d
 1129 0738 00000839 		.4byte	0x839
 1130 073c 0F       		.uleb128 0xf
 1131 073d 00000000 		.4byte	.LASF80
 1132 0741 06       		.byte	0x6
 1133 0742 016E     		.2byte	0x16e
 1134 0744 000000B0 		.4byte	0xb0
 1135 0748 04       		.byte	0x4
 1136 0749 01       		.byte	0x1
 1137 074a 00       		.byte	0
 1138 074b 02       		.byte	0x2
 1139 074c 23       		.byte	0x23
 1140 074d 00       		.uleb128 0
GAS LISTING C:\Users\sw46\AppData\Local\Temp\cc8eQsX3.s 			page 21


 1141 074e 0F       		.uleb128 0xf
 1142 074f 00000000 		.4byte	.LASF81
 1143 0753 06       		.byte	0x6
 1144 0754 0170     		.2byte	0x170
 1145 0756 000000B0 		.4byte	0xb0
 1146 075a 04       		.byte	0x4
 1147 075b 06       		.byte	0x6
 1148 075c 02       		.byte	0x2
 1149 075d 02       		.byte	0x2
 1150 075e 23       		.byte	0x23
 1151 075f 00       		.uleb128 0
 1152 0760 0F       		.uleb128 0xf
 1153 0761 00000000 		.4byte	.LASF82
 1154 0765 06       		.byte	0x6
 1155 0766 0172     		.2byte	0x172
 1156 0768 000000B0 		.4byte	0xb0
 1157 076c 04       		.byte	0x4
 1158 076d 01       		.byte	0x1
 1159 076e 0C       		.byte	0xc
 1160 076f 02       		.byte	0x2
 1161 0770 23       		.byte	0x23
 1162 0771 00       		.uleb128 0
 1163 0772 0F       		.uleb128 0xf
 1164 0773 00000000 		.4byte	.LASF83
 1165 0777 06       		.byte	0x6
 1166 0778 0173     		.2byte	0x173
 1167 077a 000000B0 		.4byte	0xb0
 1168 077e 04       		.byte	0x4
 1169 077f 01       		.byte	0x1
 1170 0780 0D       		.byte	0xd
 1171 0781 02       		.byte	0x2
 1172 0782 23       		.byte	0x23
 1173 0783 00       		.uleb128 0
 1174 0784 0F       		.uleb128 0xf
 1175 0785 00000000 		.4byte	.LASF84
 1176 0789 06       		.byte	0x6
 1177 078a 0174     		.2byte	0x174
 1178 078c 000000B0 		.4byte	0xb0
 1179 0790 04       		.byte	0x4
 1180 0791 01       		.byte	0x1
 1181 0792 0E       		.byte	0xe
 1182 0793 02       		.byte	0x2
 1183 0794 23       		.byte	0x23
 1184 0795 00       		.uleb128 0
 1185 0796 0E       		.uleb128 0xe
 1186 0797 43494400 		.string	"CID"
 1187 079b 06       		.byte	0x6
 1188 079c 0175     		.2byte	0x175
 1189 079e 000000B0 		.4byte	0xb0
 1190 07a2 04       		.byte	0x4
 1191 07a3 01       		.byte	0x1
 1192 07a4 0F       		.byte	0xf
 1193 07a5 02       		.byte	0x2
 1194 07a6 23       		.byte	0x23
 1195 07a7 00       		.uleb128 0
 1196 07a8 0F       		.uleb128 0xf
 1197 07a9 00000000 		.4byte	.LASF85
GAS LISTING C:\Users\sw46\AppData\Local\Temp\cc8eQsX3.s 			page 22


 1198 07ad 06       		.byte	0x6
 1199 07ae 0176     		.2byte	0x176
 1200 07b0 000000B0 		.4byte	0xb0
 1201 07b4 04       		.byte	0x4
 1202 07b5 01       		.byte	0x1
 1203 07b6 10       		.byte	0x10
 1204 07b7 02       		.byte	0x2
 1205 07b8 23       		.byte	0x23
 1206 07b9 00       		.uleb128 0
 1207 07ba 0F       		.uleb128 0xf
 1208 07bb 00000000 		.4byte	.LASF86
 1209 07bf 06       		.byte	0x6
 1210 07c0 0177     		.2byte	0x177
 1211 07c2 000000B0 		.4byte	0xb0
 1212 07c6 04       		.byte	0x4
 1213 07c7 03       		.byte	0x3
 1214 07c8 11       		.byte	0x11
 1215 07c9 02       		.byte	0x2
 1216 07ca 23       		.byte	0x23
 1217 07cb 00       		.uleb128 0
 1218 07cc 0F       		.uleb128 0xf
 1219 07cd 00000000 		.4byte	.LASF87
 1220 07d1 06       		.byte	0x6
 1221 07d2 0179     		.2byte	0x179
 1222 07d4 000000B0 		.4byte	0xb0
 1223 07d8 04       		.byte	0x4
 1224 07d9 01       		.byte	0x1
 1225 07da 1A       		.byte	0x1a
 1226 07db 02       		.byte	0x2
 1227 07dc 23       		.byte	0x23
 1228 07dd 00       		.uleb128 0
 1229 07de 0F       		.uleb128 0xf
 1230 07df 00000000 		.4byte	.LASF88
 1231 07e3 06       		.byte	0x6
 1232 07e4 017A     		.2byte	0x17a
 1233 07e6 000000B0 		.4byte	0xb0
 1234 07ea 04       		.byte	0x4
 1235 07eb 01       		.byte	0x1
 1236 07ec 1B       		.byte	0x1b
 1237 07ed 02       		.byte	0x2
 1238 07ee 23       		.byte	0x23
 1239 07ef 00       		.uleb128 0
 1240 07f0 0F       		.uleb128 0xf
 1241 07f1 00000000 		.4byte	.LASF89
 1242 07f5 06       		.byte	0x6
 1243 07f6 017B     		.2byte	0x17b
 1244 07f8 000000B0 		.4byte	0xb0
 1245 07fc 04       		.byte	0x4
 1246 07fd 01       		.byte	0x1
 1247 07fe 1C       		.byte	0x1c
 1248 07ff 02       		.byte	0x2
 1249 0800 23       		.byte	0x23
 1250 0801 00       		.uleb128 0
 1251 0802 0F       		.uleb128 0xf
 1252 0803 00000000 		.4byte	.LASF90
 1253 0807 06       		.byte	0x6
 1254 0808 017C     		.2byte	0x17c
GAS LISTING C:\Users\sw46\AppData\Local\Temp\cc8eQsX3.s 			page 23


 1255 080a 000000B0 		.4byte	0xb0
 1256 080e 04       		.byte	0x4
 1257 080f 01       		.byte	0x1
 1258 0810 1D       		.byte	0x1d
 1259 0811 02       		.byte	0x2
 1260 0812 23       		.byte	0x23
 1261 0813 00       		.uleb128 0
 1262 0814 0F       		.uleb128 0xf
 1263 0815 00000000 		.4byte	.LASF91
 1264 0819 06       		.byte	0x6
 1265 081a 017D     		.2byte	0x17d
 1266 081c 000000B0 		.4byte	0xb0
 1267 0820 04       		.byte	0x4
 1268 0821 01       		.byte	0x1
 1269 0822 1E       		.byte	0x1e
 1270 0823 02       		.byte	0x2
 1271 0824 23       		.byte	0x23
 1272 0825 00       		.uleb128 0
 1273 0826 0F       		.uleb128 0xf
 1274 0827 00000000 		.4byte	.LASF92
 1275 082b 06       		.byte	0x6
 1276 082c 017E     		.2byte	0x17e
 1277 082e 000000B0 		.4byte	0xb0
 1278 0832 04       		.byte	0x4
 1279 0833 01       		.byte	0x1
 1280 0834 1F       		.byte	0x1f
 1281 0835 02       		.byte	0x2
 1282 0836 23       		.byte	0x23
 1283 0837 00       		.uleb128 0
 1284 0838 00       		.byte	0
 1285 0839 11       		.uleb128 0x11
 1286 083a 04       		.byte	0x4
 1287 083b 06       		.byte	0x6
 1288 083c 016B     		.2byte	0x16b
 1289 083e 00000857 		.4byte	0x857
 1290 0842 10       		.uleb128 0x10
 1291 0843 5200     		.string	"R"
 1292 0845 06       		.byte	0x6
 1293 0846 016C     		.2byte	0x16c
 1294 0848 000000B0 		.4byte	0xb0
 1295 084c 10       		.uleb128 0x10
 1296 084d 4200     		.string	"B"
 1297 084f 06       		.byte	0x6
 1298 0850 017F     		.2byte	0x17f
 1299 0852 00000733 		.4byte	0x733
 1300 0856 00       		.byte	0
 1301 0857 0D       		.uleb128 0xd
 1302 0858 04       		.byte	0x4
 1303 0859 06       		.byte	0x6
 1304 085a 0184     		.2byte	0x184
 1305 085c 00000873 		.4byte	0x873
 1306 0860 0F       		.uleb128 0xf
 1307 0861 00000000 		.4byte	.LASF93
 1308 0865 06       		.byte	0x6
 1309 0866 0186     		.2byte	0x186
 1310 0868 000000B0 		.4byte	0xb0
 1311 086c 04       		.byte	0x4
GAS LISTING C:\Users\sw46\AppData\Local\Temp\cc8eQsX3.s 			page 24


 1312 086d 10       		.byte	0x10
 1313 086e 10       		.byte	0x10
 1314 086f 02       		.byte	0x2
 1315 0870 23       		.byte	0x23
 1316 0871 00       		.uleb128 0
 1317 0872 00       		.byte	0
 1318 0873 11       		.uleb128 0x11
 1319 0874 04       		.byte	0x4
 1320 0875 06       		.byte	0x6
 1321 0876 0182     		.2byte	0x182
 1322 0878 00000891 		.4byte	0x891
 1323 087c 10       		.uleb128 0x10
 1324 087d 5200     		.string	"R"
 1325 087f 06       		.byte	0x6
 1326 0880 0183     		.2byte	0x183
 1327 0882 000000B0 		.4byte	0xb0
 1328 0886 10       		.uleb128 0x10
 1329 0887 4200     		.string	"B"
 1330 0889 06       		.byte	0x6
 1331 088a 0187     		.2byte	0x187
 1332 088c 00000857 		.4byte	0x857
 1333 0890 00       		.byte	0
 1334 0891 0D       		.uleb128 0xd
 1335 0892 04       		.byte	0x4
 1336 0893 06       		.byte	0x6
 1337 0894 018C     		.2byte	0x18c
 1338 0896 000008AD 		.4byte	0x8ad
 1339 089a 0F       		.uleb128 0xf
 1340 089b 00000000 		.4byte	.LASF94
 1341 089f 06       		.byte	0x6
 1342 08a0 018E     		.2byte	0x18e
 1343 08a2 000000B0 		.4byte	0xb0
 1344 08a6 04       		.byte	0x4
 1345 08a7 10       		.byte	0x10
 1346 08a8 10       		.byte	0x10
 1347 08a9 02       		.byte	0x2
 1348 08aa 23       		.byte	0x23
 1349 08ab 00       		.uleb128 0
 1350 08ac 00       		.byte	0
 1351 08ad 11       		.uleb128 0x11
 1352 08ae 04       		.byte	0x4
 1353 08af 06       		.byte	0x6
 1354 08b0 018A     		.2byte	0x18a
 1355 08b2 000008CB 		.4byte	0x8cb
 1356 08b6 10       		.uleb128 0x10
 1357 08b7 5200     		.string	"R"
 1358 08b9 06       		.byte	0x6
 1359 08ba 018B     		.2byte	0x18b
 1360 08bc 000000B0 		.4byte	0xb0
 1361 08c0 10       		.uleb128 0x10
 1362 08c1 4200     		.string	"B"
 1363 08c3 06       		.byte	0x6
 1364 08c4 018F     		.2byte	0x18f
 1365 08c6 00000891 		.4byte	0x891
 1366 08ca 00       		.byte	0
 1367 08cb 0D       		.uleb128 0xd
 1368 08cc 04       		.byte	0x4
GAS LISTING C:\Users\sw46\AppData\Local\Temp\cc8eQsX3.s 			page 25


 1369 08cd 06       		.byte	0x6
 1370 08ce 0194     		.2byte	0x194
 1371 08d0 000008E7 		.4byte	0x8e7
 1372 08d4 0F       		.uleb128 0xf
 1373 08d5 00000000 		.4byte	.LASF95
 1374 08d9 06       		.byte	0x6
 1375 08da 0196     		.2byte	0x196
 1376 08dc 000000B0 		.4byte	0xb0
 1377 08e0 04       		.byte	0x4
 1378 08e1 10       		.byte	0x10
 1379 08e2 10       		.byte	0x10
 1380 08e3 02       		.byte	0x2
 1381 08e4 23       		.byte	0x23
 1382 08e5 00       		.uleb128 0
 1383 08e6 00       		.byte	0
 1384 08e7 11       		.uleb128 0x11
 1385 08e8 04       		.byte	0x4
 1386 08e9 06       		.byte	0x6
 1387 08ea 0192     		.2byte	0x192
 1388 08ec 00000905 		.4byte	0x905
 1389 08f0 10       		.uleb128 0x10
 1390 08f1 5200     		.string	"R"
 1391 08f3 06       		.byte	0x6
 1392 08f4 0193     		.2byte	0x193
 1393 08f6 000000B0 		.4byte	0xb0
 1394 08fa 10       		.uleb128 0x10
 1395 08fb 4200     		.string	"B"
 1396 08fd 06       		.byte	0x6
 1397 08fe 0197     		.2byte	0x197
 1398 0900 000008CB 		.4byte	0x8cb
 1399 0904 00       		.byte	0
 1400 0905 0D       		.uleb128 0xd
 1401 0906 04       		.byte	0x4
 1402 0907 06       		.byte	0x6
 1403 0908 019C     		.2byte	0x19c
 1404 090a 00000921 		.4byte	0x921
 1405 090e 0F       		.uleb128 0xf
 1406 090f 00000000 		.4byte	.LASF96
 1407 0913 06       		.byte	0x6
 1408 0914 019E     		.2byte	0x19e
 1409 0916 000000B0 		.4byte	0xb0
 1410 091a 04       		.byte	0x4
 1411 091b 10       		.byte	0x10
 1412 091c 10       		.byte	0x10
 1413 091d 02       		.byte	0x2
 1414 091e 23       		.byte	0x23
 1415 091f 00       		.uleb128 0
 1416 0920 00       		.byte	0
 1417 0921 11       		.uleb128 0x11
 1418 0922 04       		.byte	0x4
 1419 0923 06       		.byte	0x6
 1420 0924 019A     		.2byte	0x19a
 1421 0926 0000093F 		.4byte	0x93f
 1422 092a 10       		.uleb128 0x10
 1423 092b 5200     		.string	"R"
 1424 092d 06       		.byte	0x6
 1425 092e 019B     		.2byte	0x19b
GAS LISTING C:\Users\sw46\AppData\Local\Temp\cc8eQsX3.s 			page 26


 1426 0930 000000B0 		.4byte	0xb0
 1427 0934 10       		.uleb128 0x10
 1428 0935 4200     		.string	"B"
 1429 0937 06       		.byte	0x6
 1430 0938 019F     		.2byte	0x19f
 1431 093a 00000905 		.4byte	0x905
 1432 093e 00       		.byte	0
 1433 093f 12       		.uleb128 0x12
 1434 0940 00000000 		.4byte	.LASF110
 1435 0944 D4       		.byte	0xd4
 1436 0945 06       		.byte	0x6
 1437 0946 D6       		.byte	0xd6
 1438 0947 00000A4D 		.4byte	0xa4d
 1439 094b 13       		.uleb128 0x13
 1440 094c 4D435200 		.string	"MCR"
 1441 0950 06       		.byte	0x6
 1442 0951 F3       		.byte	0xf3
 1443 0952 0000025C 		.4byte	0x25c
 1444 0956 02       		.byte	0x2
 1445 0957 23       		.byte	0x23
 1446 0958 00       		.uleb128 0
 1447 0959 14       		.uleb128 0x14
 1448 095a 00000000 		.4byte	.LASF97
 1449 095e 06       		.byte	0x6
 1450 095f F5       		.byte	0xf5
 1451 0960 0000009A 		.4byte	0x9a
 1452 0964 02       		.byte	0x2
 1453 0965 23       		.byte	0x23
 1454 0966 04       		.uleb128 0x4
 1455 0967 13       		.uleb128 0x13
 1456 0968 54435200 		.string	"TCR"
 1457 096c 06       		.byte	0x6
 1458 096d FD       		.byte	0xfd
 1459 096e 00000291 		.4byte	0x291
 1460 0972 02       		.byte	0x2
 1461 0973 23       		.byte	0x23
 1462 0974 08       		.uleb128 0x8
 1463 0975 15       		.uleb128 0x15
 1464 0976 00000000 		.4byte	.LASF98
 1465 097a 06       		.byte	0x6
 1466 097b 0110     		.2byte	0x110
 1467 097d 00000A4D 		.4byte	0xa4d
 1468 0981 02       		.byte	0x2
 1469 0982 23       		.byte	0x23
 1470 0983 0C       		.uleb128 0xc
 1471 0984 16       		.uleb128 0x16
 1472 0985 535200   		.string	"SR"
 1473 0988 06       		.byte	0x6
 1474 0989 0126     		.2byte	0x126
 1475 098b 0000048B 		.4byte	0x48b
 1476 098f 02       		.byte	0x2
 1477 0990 23       		.byte	0x23
 1478 0991 2C       		.uleb128 0x2c
 1479 0992 15       		.uleb128 0x15
 1480 0993 00000000 		.4byte	.LASF99
 1481 0997 06       		.byte	0x6
 1482 0998 0139     		.2byte	0x139
GAS LISTING C:\Users\sw46\AppData\Local\Temp\cc8eQsX3.s 			page 27


 1483 099a 00000543 		.4byte	0x543
 1484 099e 02       		.byte	0x2
 1485 099f 23       		.byte	0x23
 1486 09a0 30       		.uleb128 0x30
 1487 09a1 15       		.uleb128 0x15
 1488 09a2 00000000 		.4byte	.LASF100
 1489 09a6 06       		.byte	0x6
 1490 09a7 014D     		.2byte	0x14d
 1491 09a9 00000655 		.4byte	0x655
 1492 09ad 02       		.byte	0x2
 1493 09ae 23       		.byte	0x23
 1494 09af 34       		.uleb128 0x34
 1495 09b0 15       		.uleb128 0x15
 1496 09b1 00000000 		.4byte	.LASF101
 1497 09b5 06       		.byte	0x6
 1498 09b6 0155     		.2byte	0x155
 1499 09b8 0000068F 		.4byte	0x68f
 1500 09bc 02       		.byte	0x2
 1501 09bd 23       		.byte	0x23
 1502 09be 38       		.uleb128 0x38
 1503 09bf 15       		.uleb128 0x15
 1504 09c0 00000000 		.4byte	.LASF102
 1505 09c4 06       		.byte	0x6
 1506 09c5 015D     		.2byte	0x15d
 1507 09c7 00000A5D 		.4byte	0xa5d
 1508 09cb 02       		.byte	0x2
 1509 09cc 23       		.byte	0x23
 1510 09cd 3C       		.uleb128 0x3c
 1511 09ce 15       		.uleb128 0x15
 1512 09cf 00000000 		.4byte	.LASF103
 1513 09d3 06       		.byte	0x6
 1514 09d4 015F     		.2byte	0x15f
 1515 09d6 00000A7D 		.4byte	0xa7d
 1516 09da 02       		.byte	0x2
 1517 09db 23       		.byte	0x23
 1518 09dc 50       		.uleb128 0x50
 1519 09dd 15       		.uleb128 0x15
 1520 09de 00000000 		.4byte	.LASF104
 1521 09e2 06       		.byte	0x6
 1522 09e3 0167     		.2byte	0x167
 1523 09e5 00000A82 		.4byte	0xa82
 1524 09e9 02       		.byte	0x2
 1525 09ea 23       		.byte	0x23
 1526 09eb 7C       		.uleb128 0x7c
 1527 09ec 15       		.uleb128 0x15
 1528 09ed 00000000 		.4byte	.LASF105
 1529 09f1 06       		.byte	0x6
 1530 09f2 0169     		.2byte	0x169
 1531 09f4 00000AA2 		.4byte	0xaa2
 1532 09f8 03       		.byte	0x3
 1533 09f9 23       		.byte	0x23
 1534 09fa 9001     		.uleb128 0x90
 1535 09fc 15       		.uleb128 0x15
 1536 09fd 00000000 		.4byte	.LASF106
 1537 0a01 06       		.byte	0x6
 1538 0a02 0180     		.2byte	0x180
 1539 0a04 00000839 		.4byte	0x839
GAS LISTING C:\Users\sw46\AppData\Local\Temp\cc8eQsX3.s 			page 28


 1540 0a08 03       		.byte	0x3
 1541 0a09 23       		.byte	0x23
 1542 0a0a C001     		.uleb128 0xc0
 1543 0a0c 16       		.uleb128 0x16
 1544 0a0d 53445200 		.string	"SDR"
 1545 0a11 06       		.byte	0x6
 1546 0a12 0188     		.2byte	0x188
 1547 0a14 00000873 		.4byte	0x873
 1548 0a18 03       		.byte	0x3
 1549 0a19 23       		.byte	0x23
 1550 0a1a C401     		.uleb128 0xc4
 1551 0a1c 15       		.uleb128 0x15
 1552 0a1d 00000000 		.4byte	.LASF107
 1553 0a21 06       		.byte	0x6
 1554 0a22 0190     		.2byte	0x190
 1555 0a24 000008AD 		.4byte	0x8ad
 1556 0a28 03       		.byte	0x3
 1557 0a29 23       		.byte	0x23
 1558 0a2a C801     		.uleb128 0xc8
 1559 0a2c 15       		.uleb128 0x15
 1560 0a2d 00000000 		.4byte	.LASF108
 1561 0a31 06       		.byte	0x6
 1562 0a32 0198     		.2byte	0x198
 1563 0a34 000008E7 		.4byte	0x8e7
 1564 0a38 03       		.byte	0x3
 1565 0a39 23       		.byte	0x23
 1566 0a3a CC01     		.uleb128 0xcc
 1567 0a3c 16       		.uleb128 0x16
 1568 0a3d 44445200 		.string	"DDR"
 1569 0a41 06       		.byte	0x6
 1570 0a42 01A0     		.2byte	0x1a0
 1571 0a44 00000921 		.4byte	0x921
 1572 0a48 03       		.byte	0x3
 1573 0a49 23       		.byte	0x23
 1574 0a4a D001     		.uleb128 0xd0
 1575 0a4c 00       		.byte	0
 1576 0a4d 17       		.uleb128 0x17
 1577 0a4e 0000039E 		.4byte	0x39e
 1578 0a52 00000A5D 		.4byte	0xa5d
 1579 0a56 18       		.uleb128 0x18
 1580 0a57 000000C0 		.4byte	0xc0
 1581 0a5b 07       		.byte	0x7
 1582 0a5c 00       		.byte	0
 1583 0a5d 17       		.uleb128 0x17
 1584 0a5e 000006DB 		.4byte	0x6db
 1585 0a62 00000A6D 		.4byte	0xa6d
 1586 0a66 18       		.uleb128 0x18
 1587 0a67 000000C0 		.4byte	0xc0
 1588 0a6b 04       		.byte	0x4
 1589 0a6c 00       		.byte	0
 1590 0a6d 17       		.uleb128 0x17
 1591 0a6e 000000B0 		.4byte	0xb0
 1592 0a72 00000A7D 		.4byte	0xa7d
 1593 0a76 18       		.uleb128 0x18
 1594 0a77 000000C0 		.4byte	0xc0
 1595 0a7b 0A       		.byte	0xa
 1596 0a7c 00       		.byte	0
GAS LISTING C:\Users\sw46\AppData\Local\Temp\cc8eQsX3.s 			page 29


 1597 0a7d 05       		.uleb128 0x5
 1598 0a7e 00000A6D 		.4byte	0xa6d
 1599 0a82 17       		.uleb128 0x17
 1600 0a83 00000715 		.4byte	0x715
 1601 0a87 00000A92 		.4byte	0xa92
 1602 0a8b 18       		.uleb128 0x18
 1603 0a8c 000000C0 		.4byte	0xc0
 1604 0a90 04       		.byte	0x4
 1605 0a91 00       		.byte	0
 1606 0a92 17       		.uleb128 0x17
 1607 0a93 000000B0 		.4byte	0xb0
 1608 0a97 00000AA2 		.4byte	0xaa2
 1609 0a9b 18       		.uleb128 0x18
 1610 0a9c 000000C0 		.4byte	0xc0
 1611 0aa0 0B       		.byte	0xb
 1612 0aa1 00       		.byte	0
 1613 0aa2 05       		.uleb128 0x5
 1614 0aa3 00000A92 		.4byte	0xa92
 1615 0aa7 19       		.uleb128 0x19
 1616 0aa8 00000000 		.4byte	.LASF109
 1617 0aac 07       		.byte	0x7
 1618 0aad 0332     		.2byte	0x332
 1619 0aaf 00000AB3 		.4byte	0xab3
 1620 0ab3 1A       		.uleb128 0x1a
 1621 0ab4 00000000 		.4byte	.LASF109
 1622 0ab8 1C       		.byte	0x1c
 1623 0ab9 07       		.byte	0x7
 1624 0aba 0360     		.2byte	0x360
 1625 0abc 00000B1C 		.4byte	0xb1c
 1626 0ac0 15       		.uleb128 0x15
 1627 0ac1 00000000 		.4byte	.LASF111
 1628 0ac5 07       		.byte	0x7
 1629 0ac6 0364     		.2byte	0x364
 1630 0ac8 00000C1D 		.4byte	0xc1d
 1631 0acc 02       		.byte	0x2
 1632 0acd 23       		.byte	0x23
 1633 0ace 00       		.uleb128 0
 1634 0acf 15       		.uleb128 0x15
 1635 0ad0 00000000 		.4byte	.LASF112
 1636 0ad4 07       		.byte	0x7
 1637 0ad5 0369     		.2byte	0x369
 1638 0ad7 00000084 		.4byte	0x84
 1639 0adb 02       		.byte	0x2
 1640 0adc 23       		.byte	0x23
 1641 0add 04       		.uleb128 0x4
 1642 0ade 15       		.uleb128 0x15
 1643 0adf 00000000 		.4byte	.LASF113
 1644 0ae3 07       		.byte	0x7
 1645 0ae4 036E     		.2byte	0x36e
 1646 0ae6 00000C28 		.4byte	0xc28
 1647 0aea 02       		.byte	0x2
 1648 0aeb 23       		.byte	0x23
 1649 0aec 08       		.uleb128 0x8
 1650 0aed 1B       		.uleb128 0x1b
 1651 0aee 00000BA1 		.4byte	0xba1
 1652 0af2 02       		.byte	0x2
 1653 0af3 23       		.byte	0x23
GAS LISTING C:\Users\sw46\AppData\Local\Temp\cc8eQsX3.s 			page 30


 1654 0af4 0C       		.uleb128 0xc
 1655 0af5 15       		.uleb128 0x15
 1656 0af6 00000000 		.4byte	.LASF114
 1657 0afa 07       		.byte	0x7
 1658 0afb 0380     		.2byte	0x380
 1659 0afd 000000A5 		.4byte	0xa5
 1660 0b01 02       		.byte	0x2
 1661 0b02 23       		.byte	0x23
 1662 0b03 10       		.uleb128 0x10
 1663 0b04 1B       		.uleb128 0x1b
 1664 0b05 00000BDD 		.4byte	0xbdd
 1665 0b09 02       		.byte	0x2
 1666 0b0a 23       		.byte	0x23
 1667 0b0b 14       		.uleb128 0x14
 1668 0b0c 15       		.uleb128 0x15
 1669 0b0d 00000000 		.4byte	.LASF115
 1670 0b11 07       		.byte	0x7
 1671 0b12 039F     		.2byte	0x39f
 1672 0b14 000000A5 		.4byte	0xa5
 1673 0b18 02       		.byte	0x2
 1674 0b19 23       		.byte	0x23
 1675 0b1a 18       		.uleb128 0x18
 1676 0b1b 00       		.byte	0
 1677 0b1c 19       		.uleb128 0x19
 1678 0b1d 00000000 		.4byte	.LASF116
 1679 0b21 07       		.byte	0x7
 1680 0b22 033A     		.2byte	0x33a
 1681 0b24 00000B28 		.4byte	0xb28
 1682 0b28 06       		.uleb128 0x6
 1683 0b29 04       		.byte	0x4
 1684 0b2a 00000B2E 		.4byte	0xb2e
 1685 0b2e 1C       		.uleb128 0x1c
 1686 0b2f 01       		.byte	0x1
 1687 0b30 00000B3A 		.4byte	0xb3a
 1688 0b34 1D       		.uleb128 0x1d
 1689 0b35 00000B3A 		.4byte	0xb3a
 1690 0b39 00       		.byte	0
 1691 0b3a 06       		.uleb128 0x6
 1692 0b3b 04       		.byte	0x4
 1693 0b3c 00000AA7 		.4byte	0xaa7
 1694 0b40 0D       		.uleb128 0xd
 1695 0b41 14       		.byte	0x14
 1696 0b42 07       		.byte	0x7
 1697 0b43 0341     		.2byte	0x341
 1698 0b45 00000B95 		.4byte	0xb95
 1699 0b49 15       		.uleb128 0x15
 1700 0b4a 00000000 		.4byte	.LASF117
 1701 0b4e 07       		.byte	0x7
 1702 0b4f 0345     		.2byte	0x345
 1703 0b51 00000B1C 		.4byte	0xb1c
 1704 0b55 02       		.byte	0x2
 1705 0b56 23       		.byte	0x23
 1706 0b57 00       		.uleb128 0
 1707 0b58 15       		.uleb128 0x15
 1708 0b59 00000000 		.4byte	.LASF118
 1709 0b5d 07       		.byte	0x7
 1710 0b5e 034A     		.2byte	0x34a
GAS LISTING C:\Users\sw46\AppData\Local\Temp\cc8eQsX3.s 			page 31


 1711 0b60 000000C7 		.4byte	0xc7
 1712 0b64 02       		.byte	0x2
 1713 0b65 23       		.byte	0x23
 1714 0b66 04       		.uleb128 0x4
 1715 0b67 15       		.uleb128 0x15
 1716 0b68 00000000 		.4byte	.LASF119
 1717 0b6c 07       		.byte	0x7
 1718 0b6d 034E     		.2byte	0x34e
 1719 0b6f 0000008F 		.4byte	0x8f
 1720 0b73 02       		.byte	0x2
 1721 0b74 23       		.byte	0x23
 1722 0b75 08       		.uleb128 0x8
 1723 0b76 15       		.uleb128 0x15
 1724 0b77 00000000 		.4byte	.LASF120
 1725 0b7b 07       		.byte	0x7
 1726 0b7c 0352     		.2byte	0x352
 1727 0b7e 0000009A 		.4byte	0x9a
 1728 0b82 02       		.byte	0x2
 1729 0b83 23       		.byte	0x23
 1730 0b84 0C       		.uleb128 0xc
 1731 0b85 15       		.uleb128 0x15
 1732 0b86 00000000 		.4byte	.LASF121
 1733 0b8a 07       		.byte	0x7
 1734 0b8b 0358     		.2byte	0x358
 1735 0b8d 0000009A 		.4byte	0x9a
 1736 0b91 02       		.byte	0x2
 1737 0b92 23       		.byte	0x23
 1738 0b93 10       		.uleb128 0x10
 1739 0b94 00       		.byte	0
 1740 0b95 19       		.uleb128 0x19
 1741 0b96 00000000 		.4byte	.LASF122
 1742 0b9a 07       		.byte	0x7
 1743 0b9b 0359     		.2byte	0x359
 1744 0b9d 00000B40 		.4byte	0xb40
 1745 0ba1 11       		.uleb128 0x11
 1746 0ba2 04       		.byte	0x4
 1747 0ba3 07       		.byte	0x7
 1748 0ba4 0378     		.2byte	0x378
 1749 0ba6 00000BCF 		.4byte	0xbcf
 1750 0baa 1E       		.uleb128 0x1e
 1751 0bab 00000000 		.4byte	.LASF123
 1752 0baf 07       		.byte	0x7
 1753 0bb0 0379     		.2byte	0x379
 1754 0bb2 00000BCF 		.4byte	0xbcf
 1755 0bb6 1E       		.uleb128 0x1e
 1756 0bb7 00000000 		.4byte	.LASF124
 1757 0bbb 07       		.byte	0x7
 1758 0bbc 037A     		.2byte	0x37a
 1759 0bbe 00000BD1 		.4byte	0xbd1
 1760 0bc2 1E       		.uleb128 0x1e
 1761 0bc3 00000000 		.4byte	.LASF125
 1762 0bc7 07       		.byte	0x7
 1763 0bc8 037B     		.2byte	0x37b
 1764 0bca 00000BD7 		.4byte	0xbd7
 1765 0bce 00       		.byte	0
 1766 0bcf 1F       		.uleb128 0x1f
 1767 0bd0 04       		.byte	0x4
GAS LISTING C:\Users\sw46\AppData\Local\Temp\cc8eQsX3.s 			page 32


 1768 0bd1 06       		.uleb128 0x6
 1769 0bd2 04       		.byte	0x4
 1770 0bd3 00000084 		.4byte	0x84
 1771 0bd7 06       		.uleb128 0x6
 1772 0bd8 04       		.byte	0x4
 1773 0bd9 0000008F 		.4byte	0x8f
 1774 0bdd 11       		.uleb128 0x11
 1775 0bde 04       		.byte	0x4
 1776 0bdf 07       		.byte	0x7
 1777 0be0 0397     		.2byte	0x397
 1778 0be2 00000C0B 		.4byte	0xc0b
 1779 0be6 1E       		.uleb128 0x1e
 1780 0be7 00000000 		.4byte	.LASF126
 1781 0beb 07       		.byte	0x7
 1782 0bec 0398     		.2byte	0x398
 1783 0bee 00000C0B 		.4byte	0xc0b
 1784 0bf2 1E       		.uleb128 0x1e
 1785 0bf3 00000000 		.4byte	.LASF127
 1786 0bf7 07       		.byte	0x7
 1787 0bf8 0399     		.2byte	0x399
 1788 0bfa 000000D2 		.4byte	0xd2
 1789 0bfe 1E       		.uleb128 0x1e
 1790 0bff 00000000 		.4byte	.LASF128
 1791 0c03 07       		.byte	0x7
 1792 0c04 039A     		.2byte	0x39a
 1793 0c06 00000C12 		.4byte	0xc12
 1794 0c0a 00       		.byte	0
 1795 0c0b 06       		.uleb128 0x6
 1796 0c0c 04       		.byte	0x4
 1797 0c0d 00000C11 		.4byte	0xc11
 1798 0c11 20       		.uleb128 0x20
 1799 0c12 06       		.uleb128 0x6
 1800 0c13 04       		.byte	0x4
 1801 0c14 00000C18 		.4byte	0xc18
 1802 0c18 07       		.uleb128 0x7
 1803 0c19 0000008F 		.4byte	0x8f
 1804 0c1d 06       		.uleb128 0x6
 1805 0c1e 04       		.byte	0x4
 1806 0c1f 00000C23 		.4byte	0xc23
 1807 0c23 07       		.uleb128 0x7
 1808 0c24 00000B95 		.4byte	0xb95
 1809 0c28 06       		.uleb128 0x6
 1810 0c29 04       		.byte	0x4
 1811 0c2a 0000093F 		.4byte	0x93f
 1812 0c2e 21       		.uleb128 0x21
 1813 0c2f 00000000 		.4byte	.LASF132
 1814 0c33 08       		.byte	0x8
 1815 0c34 28       		.byte	0x28
 1816 0c35 00000C23 		.4byte	0xc23
 1817 0c39 01       		.byte	0x1
 1818 0c3a 05       		.byte	0x5
 1819 0c3b 03       		.byte	0x3
 1820 0c3c 00000000 		.4byte	spi_config_L9907
 1821 0c40 00       		.byte	0
 1822              		.section	.debug_abbrev,"",@progbits
 1823              	.Ldebug_abbrev0:
 1824 0000 01       		.uleb128 0x1
GAS LISTING C:\Users\sw46\AppData\Local\Temp\cc8eQsX3.s 			page 33


 1825 0001 11       		.uleb128 0x11
 1826 0002 01       		.byte	0x1
 1827 0003 25       		.uleb128 0x25
 1828 0004 0E       		.uleb128 0xe
 1829 0005 13       		.uleb128 0x13
 1830 0006 0B       		.uleb128 0xb
 1831 0007 03       		.uleb128 0x3
 1832 0008 0E       		.uleb128 0xe
 1833 0009 1B       		.uleb128 0x1b
 1834 000a 0E       		.uleb128 0xe
 1835 000b 10       		.uleb128 0x10
 1836 000c 06       		.uleb128 0x6
 1837 000d 00       		.byte	0
 1838 000e 00       		.byte	0
 1839 000f 02       		.uleb128 0x2
 1840 0010 24       		.uleb128 0x24
 1841 0011 00       		.byte	0
 1842 0012 0B       		.uleb128 0xb
 1843 0013 0B       		.uleb128 0xb
 1844 0014 3E       		.uleb128 0x3e
 1845 0015 0B       		.uleb128 0xb
 1846 0016 03       		.uleb128 0x3
 1847 0017 0E       		.uleb128 0xe
 1848 0018 00       		.byte	0
 1849 0019 00       		.byte	0
 1850 001a 03       		.uleb128 0x3
 1851 001b 16       		.uleb128 0x16
 1852 001c 00       		.byte	0
 1853 001d 03       		.uleb128 0x3
 1854 001e 0E       		.uleb128 0xe
 1855 001f 3A       		.uleb128 0x3a
 1856 0020 0B       		.uleb128 0xb
 1857 0021 3B       		.uleb128 0x3b
 1858 0022 0B       		.uleb128 0xb
 1859 0023 49       		.uleb128 0x49
 1860 0024 13       		.uleb128 0x13
 1861 0025 00       		.byte	0
 1862 0026 00       		.byte	0
 1863 0027 04       		.uleb128 0x4
 1864 0028 24       		.uleb128 0x24
 1865 0029 00       		.byte	0
 1866 002a 0B       		.uleb128 0xb
 1867 002b 0B       		.uleb128 0xb
 1868 002c 3E       		.uleb128 0x3e
 1869 002d 0B       		.uleb128 0xb
 1870 002e 03       		.uleb128 0x3
 1871 002f 08       		.uleb128 0x8
 1872 0030 00       		.byte	0
 1873 0031 00       		.byte	0
 1874 0032 05       		.uleb128 0x5
 1875 0033 35       		.uleb128 0x35
 1876 0034 00       		.byte	0
 1877 0035 49       		.uleb128 0x49
 1878 0036 13       		.uleb128 0x13
 1879 0037 00       		.byte	0
 1880 0038 00       		.byte	0
 1881 0039 06       		.uleb128 0x6
GAS LISTING C:\Users\sw46\AppData\Local\Temp\cc8eQsX3.s 			page 34


 1882 003a 0F       		.uleb128 0xf
 1883 003b 00       		.byte	0
 1884 003c 0B       		.uleb128 0xb
 1885 003d 0B       		.uleb128 0xb
 1886 003e 49       		.uleb128 0x49
 1887 003f 13       		.uleb128 0x13
 1888 0040 00       		.byte	0
 1889 0041 00       		.byte	0
 1890 0042 07       		.uleb128 0x7
 1891 0043 26       		.uleb128 0x26
 1892 0044 00       		.byte	0
 1893 0045 49       		.uleb128 0x49
 1894 0046 13       		.uleb128 0x13
 1895 0047 00       		.byte	0
 1896 0048 00       		.byte	0
 1897 0049 08       		.uleb128 0x8
 1898 004a 13       		.uleb128 0x13
 1899 004b 01       		.byte	0x1
 1900 004c 0B       		.uleb128 0xb
 1901 004d 0B       		.uleb128 0xb
 1902 004e 3A       		.uleb128 0x3a
 1903 004f 0B       		.uleb128 0xb
 1904 0050 3B       		.uleb128 0x3b
 1905 0051 0B       		.uleb128 0xb
 1906 0052 01       		.uleb128 0x1
 1907 0053 13       		.uleb128 0x13
 1908 0054 00       		.byte	0
 1909 0055 00       		.byte	0
 1910 0056 09       		.uleb128 0x9
 1911 0057 0D       		.uleb128 0xd
 1912 0058 00       		.byte	0
 1913 0059 03       		.uleb128 0x3
 1914 005a 0E       		.uleb128 0xe
 1915 005b 3A       		.uleb128 0x3a
 1916 005c 0B       		.uleb128 0xb
 1917 005d 3B       		.uleb128 0x3b
 1918 005e 0B       		.uleb128 0xb
 1919 005f 49       		.uleb128 0x49
 1920 0060 13       		.uleb128 0x13
 1921 0061 0B       		.uleb128 0xb
 1922 0062 0B       		.uleb128 0xb
 1923 0063 0D       		.uleb128 0xd
 1924 0064 0B       		.uleb128 0xb
 1925 0065 0C       		.uleb128 0xc
 1926 0066 0B       		.uleb128 0xb
 1927 0067 38       		.uleb128 0x38
 1928 0068 0A       		.uleb128 0xa
 1929 0069 00       		.byte	0
 1930 006a 00       		.byte	0
 1931 006b 0A       		.uleb128 0xa
 1932 006c 0D       		.uleb128 0xd
 1933 006d 00       		.byte	0
 1934 006e 03       		.uleb128 0x3
 1935 006f 08       		.uleb128 0x8
 1936 0070 3A       		.uleb128 0x3a
 1937 0071 0B       		.uleb128 0xb
 1938 0072 3B       		.uleb128 0x3b
GAS LISTING C:\Users\sw46\AppData\Local\Temp\cc8eQsX3.s 			page 35


 1939 0073 0B       		.uleb128 0xb
 1940 0074 49       		.uleb128 0x49
 1941 0075 13       		.uleb128 0x13
 1942 0076 0B       		.uleb128 0xb
 1943 0077 0B       		.uleb128 0xb
 1944 0078 0D       		.uleb128 0xd
 1945 0079 0B       		.uleb128 0xb
 1946 007a 0C       		.uleb128 0xc
 1947 007b 0B       		.uleb128 0xb
 1948 007c 38       		.uleb128 0x38
 1949 007d 0A       		.uleb128 0xa
 1950 007e 00       		.byte	0
 1951 007f 00       		.byte	0
 1952 0080 0B       		.uleb128 0xb
 1953 0081 17       		.uleb128 0x17
 1954 0082 01       		.byte	0x1
 1955 0083 0B       		.uleb128 0xb
 1956 0084 0B       		.uleb128 0xb
 1957 0085 3A       		.uleb128 0x3a
 1958 0086 0B       		.uleb128 0xb
 1959 0087 3B       		.uleb128 0x3b
 1960 0088 0B       		.uleb128 0xb
 1961 0089 01       		.uleb128 0x1
 1962 008a 13       		.uleb128 0x13
 1963 008b 00       		.byte	0
 1964 008c 00       		.byte	0
 1965 008d 0C       		.uleb128 0xc
 1966 008e 0D       		.uleb128 0xd
 1967 008f 00       		.byte	0
 1968 0090 03       		.uleb128 0x3
 1969 0091 08       		.uleb128 0x8
 1970 0092 3A       		.uleb128 0x3a
 1971 0093 0B       		.uleb128 0xb
 1972 0094 3B       		.uleb128 0x3b
 1973 0095 0B       		.uleb128 0xb
 1974 0096 49       		.uleb128 0x49
 1975 0097 13       		.uleb128 0x13
 1976 0098 00       		.byte	0
 1977 0099 00       		.byte	0
 1978 009a 0D       		.uleb128 0xd
 1979 009b 13       		.uleb128 0x13
 1980 009c 01       		.byte	0x1
 1981 009d 0B       		.uleb128 0xb
 1982 009e 0B       		.uleb128 0xb
 1983 009f 3A       		.uleb128 0x3a
 1984 00a0 0B       		.uleb128 0xb
 1985 00a1 3B       		.uleb128 0x3b
 1986 00a2 05       		.uleb128 0x5
 1987 00a3 01       		.uleb128 0x1
 1988 00a4 13       		.uleb128 0x13
 1989 00a5 00       		.byte	0
 1990 00a6 00       		.byte	0
 1991 00a7 0E       		.uleb128 0xe
 1992 00a8 0D       		.uleb128 0xd
 1993 00a9 00       		.byte	0
 1994 00aa 03       		.uleb128 0x3
 1995 00ab 08       		.uleb128 0x8
GAS LISTING C:\Users\sw46\AppData\Local\Temp\cc8eQsX3.s 			page 36


 1996 00ac 3A       		.uleb128 0x3a
 1997 00ad 0B       		.uleb128 0xb
 1998 00ae 3B       		.uleb128 0x3b
 1999 00af 05       		.uleb128 0x5
 2000 00b0 49       		.uleb128 0x49
 2001 00b1 13       		.uleb128 0x13
 2002 00b2 0B       		.uleb128 0xb
 2003 00b3 0B       		.uleb128 0xb
 2004 00b4 0D       		.uleb128 0xd
 2005 00b5 0B       		.uleb128 0xb
 2006 00b6 0C       		.uleb128 0xc
 2007 00b7 0B       		.uleb128 0xb
 2008 00b8 38       		.uleb128 0x38
 2009 00b9 0A       		.uleb128 0xa
 2010 00ba 00       		.byte	0
 2011 00bb 00       		.byte	0
 2012 00bc 0F       		.uleb128 0xf
 2013 00bd 0D       		.uleb128 0xd
 2014 00be 00       		.byte	0
 2015 00bf 03       		.uleb128 0x3
 2016 00c0 0E       		.uleb128 0xe
 2017 00c1 3A       		.uleb128 0x3a
 2018 00c2 0B       		.uleb128 0xb
 2019 00c3 3B       		.uleb128 0x3b
 2020 00c4 05       		.uleb128 0x5
 2021 00c5 49       		.uleb128 0x49
 2022 00c6 13       		.uleb128 0x13
 2023 00c7 0B       		.uleb128 0xb
 2024 00c8 0B       		.uleb128 0xb
 2025 00c9 0D       		.uleb128 0xd
 2026 00ca 0B       		.uleb128 0xb
 2027 00cb 0C       		.uleb128 0xc
 2028 00cc 0B       		.uleb128 0xb
 2029 00cd 38       		.uleb128 0x38
 2030 00ce 0A       		.uleb128 0xa
 2031 00cf 00       		.byte	0
 2032 00d0 00       		.byte	0
 2033 00d1 10       		.uleb128 0x10
 2034 00d2 0D       		.uleb128 0xd
 2035 00d3 00       		.byte	0
 2036 00d4 03       		.uleb128 0x3
 2037 00d5 08       		.uleb128 0x8
 2038 00d6 3A       		.uleb128 0x3a
 2039 00d7 0B       		.uleb128 0xb
 2040 00d8 3B       		.uleb128 0x3b
 2041 00d9 05       		.uleb128 0x5
 2042 00da 49       		.uleb128 0x49
 2043 00db 13       		.uleb128 0x13
 2044 00dc 00       		.byte	0
 2045 00dd 00       		.byte	0
 2046 00de 11       		.uleb128 0x11
 2047 00df 17       		.uleb128 0x17
 2048 00e0 01       		.byte	0x1
 2049 00e1 0B       		.uleb128 0xb
 2050 00e2 0B       		.uleb128 0xb
 2051 00e3 3A       		.uleb128 0x3a
 2052 00e4 0B       		.uleb128 0xb
GAS LISTING C:\Users\sw46\AppData\Local\Temp\cc8eQsX3.s 			page 37


 2053 00e5 3B       		.uleb128 0x3b
 2054 00e6 05       		.uleb128 0x5
 2055 00e7 01       		.uleb128 0x1
 2056 00e8 13       		.uleb128 0x13
 2057 00e9 00       		.byte	0
 2058 00ea 00       		.byte	0
 2059 00eb 12       		.uleb128 0x12
 2060 00ec 13       		.uleb128 0x13
 2061 00ed 01       		.byte	0x1
 2062 00ee 03       		.uleb128 0x3
 2063 00ef 0E       		.uleb128 0xe
 2064 00f0 0B       		.uleb128 0xb
 2065 00f1 0B       		.uleb128 0xb
 2066 00f2 3A       		.uleb128 0x3a
 2067 00f3 0B       		.uleb128 0xb
 2068 00f4 3B       		.uleb128 0x3b
 2069 00f5 0B       		.uleb128 0xb
 2070 00f6 01       		.uleb128 0x1
 2071 00f7 13       		.uleb128 0x13
 2072 00f8 00       		.byte	0
 2073 00f9 00       		.byte	0
 2074 00fa 13       		.uleb128 0x13
 2075 00fb 0D       		.uleb128 0xd
 2076 00fc 00       		.byte	0
 2077 00fd 03       		.uleb128 0x3
 2078 00fe 08       		.uleb128 0x8
 2079 00ff 3A       		.uleb128 0x3a
 2080 0100 0B       		.uleb128 0xb
 2081 0101 3B       		.uleb128 0x3b
 2082 0102 0B       		.uleb128 0xb
 2083 0103 49       		.uleb128 0x49
 2084 0104 13       		.uleb128 0x13
 2085 0105 38       		.uleb128 0x38
 2086 0106 0A       		.uleb128 0xa
 2087 0107 00       		.byte	0
 2088 0108 00       		.byte	0
 2089 0109 14       		.uleb128 0x14
 2090 010a 0D       		.uleb128 0xd
 2091 010b 00       		.byte	0
 2092 010c 03       		.uleb128 0x3
 2093 010d 0E       		.uleb128 0xe
 2094 010e 3A       		.uleb128 0x3a
 2095 010f 0B       		.uleb128 0xb
 2096 0110 3B       		.uleb128 0x3b
 2097 0111 0B       		.uleb128 0xb
 2098 0112 49       		.uleb128 0x49
 2099 0113 13       		.uleb128 0x13
 2100 0114 38       		.uleb128 0x38
 2101 0115 0A       		.uleb128 0xa
 2102 0116 00       		.byte	0
 2103 0117 00       		.byte	0
 2104 0118 15       		.uleb128 0x15
 2105 0119 0D       		.uleb128 0xd
 2106 011a 00       		.byte	0
 2107 011b 03       		.uleb128 0x3
 2108 011c 0E       		.uleb128 0xe
 2109 011d 3A       		.uleb128 0x3a
GAS LISTING C:\Users\sw46\AppData\Local\Temp\cc8eQsX3.s 			page 38


 2110 011e 0B       		.uleb128 0xb
 2111 011f 3B       		.uleb128 0x3b
 2112 0120 05       		.uleb128 0x5
 2113 0121 49       		.uleb128 0x49
 2114 0122 13       		.uleb128 0x13
 2115 0123 38       		.uleb128 0x38
 2116 0124 0A       		.uleb128 0xa
 2117 0125 00       		.byte	0
 2118 0126 00       		.byte	0
 2119 0127 16       		.uleb128 0x16
 2120 0128 0D       		.uleb128 0xd
 2121 0129 00       		.byte	0
 2122 012a 03       		.uleb128 0x3
 2123 012b 08       		.uleb128 0x8
 2124 012c 3A       		.uleb128 0x3a
 2125 012d 0B       		.uleb128 0xb
 2126 012e 3B       		.uleb128 0x3b
 2127 012f 05       		.uleb128 0x5
 2128 0130 49       		.uleb128 0x49
 2129 0131 13       		.uleb128 0x13
 2130 0132 38       		.uleb128 0x38
 2131 0133 0A       		.uleb128 0xa
 2132 0134 00       		.byte	0
 2133 0135 00       		.byte	0
 2134 0136 17       		.uleb128 0x17
 2135 0137 01       		.uleb128 0x1
 2136 0138 01       		.byte	0x1
 2137 0139 49       		.uleb128 0x49
 2138 013a 13       		.uleb128 0x13
 2139 013b 01       		.uleb128 0x1
 2140 013c 13       		.uleb128 0x13
 2141 013d 00       		.byte	0
 2142 013e 00       		.byte	0
 2143 013f 18       		.uleb128 0x18
 2144 0140 21       		.uleb128 0x21
 2145 0141 00       		.byte	0
 2146 0142 49       		.uleb128 0x49
 2147 0143 13       		.uleb128 0x13
 2148 0144 2F       		.uleb128 0x2f
 2149 0145 0B       		.uleb128 0xb
 2150 0146 00       		.byte	0
 2151 0147 00       		.byte	0
 2152 0148 19       		.uleb128 0x19
 2153 0149 16       		.uleb128 0x16
 2154 014a 00       		.byte	0
 2155 014b 03       		.uleb128 0x3
 2156 014c 0E       		.uleb128 0xe
 2157 014d 3A       		.uleb128 0x3a
 2158 014e 0B       		.uleb128 0xb
 2159 014f 3B       		.uleb128 0x3b
 2160 0150 05       		.uleb128 0x5
 2161 0151 49       		.uleb128 0x49
 2162 0152 13       		.uleb128 0x13
 2163 0153 00       		.byte	0
 2164 0154 00       		.byte	0
 2165 0155 1A       		.uleb128 0x1a
 2166 0156 13       		.uleb128 0x13
GAS LISTING C:\Users\sw46\AppData\Local\Temp\cc8eQsX3.s 			page 39


 2167 0157 01       		.byte	0x1
 2168 0158 03       		.uleb128 0x3
 2169 0159 0E       		.uleb128 0xe
 2170 015a 0B       		.uleb128 0xb
 2171 015b 0B       		.uleb128 0xb
 2172 015c 3A       		.uleb128 0x3a
 2173 015d 0B       		.uleb128 0xb
 2174 015e 3B       		.uleb128 0x3b
 2175 015f 05       		.uleb128 0x5
 2176 0160 01       		.uleb128 0x1
 2177 0161 13       		.uleb128 0x13
 2178 0162 00       		.byte	0
 2179 0163 00       		.byte	0
 2180 0164 1B       		.uleb128 0x1b
 2181 0165 0D       		.uleb128 0xd
 2182 0166 00       		.byte	0
 2183 0167 49       		.uleb128 0x49
 2184 0168 13       		.uleb128 0x13
 2185 0169 38       		.uleb128 0x38
 2186 016a 0A       		.uleb128 0xa
 2187 016b 00       		.byte	0
 2188 016c 00       		.byte	0
 2189 016d 1C       		.uleb128 0x1c
 2190 016e 15       		.uleb128 0x15
 2191 016f 01       		.byte	0x1
 2192 0170 27       		.uleb128 0x27
 2193 0171 0C       		.uleb128 0xc
 2194 0172 01       		.uleb128 0x1
 2195 0173 13       		.uleb128 0x13
 2196 0174 00       		.byte	0
 2197 0175 00       		.byte	0
 2198 0176 1D       		.uleb128 0x1d
 2199 0177 05       		.uleb128 0x5
 2200 0178 00       		.byte	0
 2201 0179 49       		.uleb128 0x49
 2202 017a 13       		.uleb128 0x13
 2203 017b 00       		.byte	0
 2204 017c 00       		.byte	0
 2205 017d 1E       		.uleb128 0x1e
 2206 017e 0D       		.uleb128 0xd
 2207 017f 00       		.byte	0
 2208 0180 03       		.uleb128 0x3
 2209 0181 0E       		.uleb128 0xe
 2210 0182 3A       		.uleb128 0x3a
 2211 0183 0B       		.uleb128 0xb
 2212 0184 3B       		.uleb128 0x3b
 2213 0185 05       		.uleb128 0x5
 2214 0186 49       		.uleb128 0x49
 2215 0187 13       		.uleb128 0x13
 2216 0188 00       		.byte	0
 2217 0189 00       		.byte	0
 2218 018a 1F       		.uleb128 0x1f
 2219 018b 0F       		.uleb128 0xf
 2220 018c 00       		.byte	0
 2221 018d 0B       		.uleb128 0xb
 2222 018e 0B       		.uleb128 0xb
 2223 018f 00       		.byte	0
GAS LISTING C:\Users\sw46\AppData\Local\Temp\cc8eQsX3.s 			page 40


 2224 0190 00       		.byte	0
 2225 0191 20       		.uleb128 0x20
 2226 0192 26       		.uleb128 0x26
 2227 0193 00       		.byte	0
 2228 0194 00       		.byte	0
 2229 0195 00       		.byte	0
 2230 0196 21       		.uleb128 0x21
 2231 0197 34       		.uleb128 0x34
 2232 0198 00       		.byte	0
 2233 0199 03       		.uleb128 0x3
 2234 019a 0E       		.uleb128 0xe
 2235 019b 3A       		.uleb128 0x3a
 2236 019c 0B       		.uleb128 0xb
 2237 019d 3B       		.uleb128 0x3b
 2238 019e 0B       		.uleb128 0xb
 2239 019f 49       		.uleb128 0x49
 2240 01a0 13       		.uleb128 0x13
 2241 01a1 3F       		.uleb128 0x3f
 2242 01a2 0C       		.uleb128 0xc
 2243 01a3 02       		.uleb128 0x2
 2244 01a4 0A       		.uleb128 0xa
 2245 01a5 00       		.byte	0
 2246 01a6 00       		.byte	0
 2247 01a7 00       		.byte	0
 2248              		.section	.debug_aranges,"",@progbits
 2249 0000 00000014 		.4byte	0x14
 2250 0004 0002     		.2byte	0x2
 2251 0006 00000000 		.4byte	.Ldebug_info0
 2252 000a 04       		.byte	0x4
 2253 000b 00       		.byte	0
 2254 000c 0000     		.2byte	0
 2255 000e 0000     		.2byte	0
 2256 0010 00000000 		.4byte	0
 2257 0014 00000000 		.4byte	0
 2258              		.section	.debug_line,"",@progbits
 2259              	.Ldebug_line0:
 2260 0000 0000031D 		.section	.debug_str,"MS",@progbits,1
 2260      00020000 
 2260      03170201 
 2260      FB0E0D00 
 2260      01010101 
 2261              	.LASF47:
 2262 0000 43535343 		.string	"CSSCK"
 2262      4B00
 2263              	.LASF86:
 2264 0006 44534943 		.string	"DSICTAS"
 2264      54415300 
 2265              	.LASF15:
 2266 000e 73697A65 		.string	"size_t"
 2266      5F7400
 2267              	.LASF0:
 2268 0015 7369676E 		.string	"signed char"
 2268      65642063 
 2268      68617200 
 2269              	.LASF3:
 2270 0021 5F5F7569 		.string	"__uint8_t"
 2270      6E74385F 
GAS LISTING C:\Users\sw46\AppData\Local\Temp\cc8eQsX3.s 			page 41


 2270      7400
 2271              	.LASF55:
 2272 002b 54584E58 		.string	"TXNXTPTR"
 2272      54505452 
 2272      00
 2273              	.LASF101:
 2274 0034 504F5052 		.string	"POPR"
 2274      00
 2275              	.LASF123:
 2276 0039 72785F70 		.string	"rx_ptr"
 2276      747200
 2277              	.LASF121:
 2278 0040 70757368 		.string	"pushr"
 2278      7200
 2279              	.LASF119:
 2280 0046 73737061 		.string	"sspad"
 2280      6400
 2281              	.LASF10:
 2282 004c 6C6F6E67 		.string	"long long unsigned int"
 2282      206C6F6E 
 2282      6720756E 
 2282      7369676E 
 2282      65642069 
 2283              	.LASF60:
 2284 0063 54465546 		.string	"TFUFRE"
 2284      524500
 2285              	.LASF109:
 2286 006a 53504944 		.string	"SPIDriver"
 2286      72697665 
 2286      7200
 2287              	.LASF34:
 2288 0074 4449535F 		.string	"DIS_TXF"
 2288      54584600 
 2289              	.LASF38:
 2290 007c 534D504C 		.string	"SMPL_PT"
 2290      5F505400 
 2291              	.LASF95:
 2292 0084 434F4D50 		.string	"COMP_DATA"
 2292      5F444154 
 2292      4100
 2293              	.LASF58:
 2294 008e 54434652 		.string	"TCFRE"
 2294      4500
 2295              	.LASF81:
 2296 0094 4D544F43 		.string	"MTOCNT"
 2296      4E5400
 2297              	.LASF112:
 2298 009b 72656164 		.string	"ready"
 2298      7900
 2299              	.LASF84:
 2300 00a1 54525245 		.string	"TRRE"
 2300      00
 2301              	.LASF105:
 2302 00a6 44535049 		.string	"DSPI_reserved_rxf"
 2302      5F726573 
 2302      65727665 
 2302      645F7278 
GAS LISTING C:\Users\sw46\AppData\Local\Temp\cc8eQsX3.s 			page 42


 2302      6600
 2303              	.LASF59:
 2304 00b8 454F5146 		.string	"EOQFRE"
 2304      524500
 2305              	.LASF42:
 2306 00bf 43504F4C 		.string	"CPOL"
 2306      00
 2307              	.LASF129:
 2308 00c4 474E5520 		.string	"GNU C 4.9.2 20141030 (Mon Nov 23 22:27:42 EST 2015         build.sh rev= ELvle) -mcall-sy
 2308      4320342E 
 2308      392E3220 
 2308      32303134 
 2308      31303330 
 2309              	.LASF32:
 2310 01c4 50435349 		.string	"PCSIS0"
 2310      533000
 2311              	.LASF31:
 2312 01cb 50435349 		.string	"PCSIS1"
 2312      533100
 2313              	.LASF30:
 2314 01d2 50435349 		.string	"PCSIS2"
 2314      533200
 2315              	.LASF29:
 2316 01d9 50435349 		.string	"PCSIS3"
 2316      533300
 2317              	.LASF6:
 2318 01e0 6C6F6E67 		.string	"long int"
 2318      20696E74 
 2318      00
 2319              	.LASF113:
 2320 01e9 64737069 		.string	"dspi"
 2320      00
 2321              	.LASF26:
 2322 01ee 50435349 		.string	"PCSIS6"
 2322      533600
 2323              	.LASF25:
 2324 01f5 50435349 		.string	"PCSIS7"
 2324      533700
 2325              	.LASF19:
 2326 01fc 4D535452 		.string	"MSTR"
 2326      00
 2327              	.LASF57:
 2328 0201 504F504E 		.string	"POPNXTPTR"
 2328      58545054 
 2328      5200
 2329              	.LASF9:
 2330 020b 6C6F6E67 		.string	"long long int"
 2330      206C6F6E 
 2330      6720696E 
 2330      7400
 2331              	.LASF118:
 2332 0219 7373706F 		.string	"ssport"
 2332      727400
 2333              	.LASF43:
 2334 0220 43504841 		.string	"CPHA"
 2334      00
 2335              	.LASF20:
GAS LISTING C:\Users\sw46\AppData\Local\Temp\cc8eQsX3.s 			page 43


 2336 0225 434F4E54 		.string	"CONT_SCKE"
 2336      5F53434B 
 2336      4500
 2337              	.LASF124:
 2338 022f 72785F70 		.string	"rx_ptr8"
 2338      74723800 
 2339              	.LASF96:
 2340 0237 44455345 		.string	"DESER_DATA"
 2340      525F4441 
 2340      544100
 2341              	.LASF66:
 2342 0242 434F4E54 		.string	"CONT"
 2342      00
 2343              	.LASF117:
 2344 0247 656E645F 		.string	"end_cb"
 2344      636200
 2345              	.LASF127:
 2346 024e 74785F70 		.string	"tx_ptr8"
 2346      74723800 
 2347              	.LASF92:
 2348 0256 44504353 		.string	"DPCS0"
 2348      3000
 2349              	.LASF91:
 2350 025c 44504353 		.string	"DPCS1"
 2350      3100
 2351              	.LASF90:
 2352 0262 44504353 		.string	"DPCS2"
 2352      3200
 2353              	.LASF89:
 2354 0268 44504353 		.string	"DPCS3"
 2354      3300
 2355              	.LASF88:
 2356 026e 44504353 		.string	"DPCS4"
 2356      3400
 2357              	.LASF87:
 2358 0274 44504353 		.string	"DPCS5"
 2358      3500
 2359              	.LASF116:
 2360 027a 73706963 		.string	"spicallback_t"
 2360      616C6C62 
 2360      61636B5F 
 2360      7400
 2361              	.LASF83:
 2362 0288 54504F4C 		.string	"TPOL"
 2362      00
 2363              	.LASF128:
 2364 028d 74785F70 		.string	"tx_ptr16"
 2364      74723136 
 2364      00
 2365              	.LASF97:
 2366 0296 64737069 		.string	"dspi_reserved1"
 2366      5F726573 
 2366      65727665 
 2366      643100
 2367              	.LASF52:
 2368 02a5 52464F46 		.string	"RFOF"
 2368      00
GAS LISTING C:\Users\sw46\AppData\Local\Temp\cc8eQsX3.s 			page 44


 2369              	.LASF126:
 2370 02aa 74785F70 		.string	"tx_ptr"
 2370      747200
 2371              	.LASF11:
 2372 02b1 756E7369 		.string	"unsigned int"
 2372      676E6564 
 2372      20696E74 
 2372      00
 2373              	.LASF45:
 2374 02be 50435353 		.string	"PCSSCK"
 2374      434B00
 2375              	.LASF13:
 2376 02c5 75696E74 		.string	"uint16_t"
 2376      31365F74 
 2376      00
 2377              	.LASF80:
 2378 02ce 4D544F45 		.string	"MTOE"
 2378      00
 2379              	.LASF8:
 2380 02d3 6C6F6E67 		.string	"long unsigned int"
 2380      20756E73 
 2380      69676E65 
 2380      6420696E 
 2380      7400
 2381              	.LASF100:
 2382 02e5 50555348 		.string	"PUSHR"
 2382      5200
 2383              	.LASF62:
 2384 02eb 54464646 		.string	"TFFFDIRS"
 2384      44495253 
 2384      00
 2385              	.LASF108:
 2386 02f4 434F4D50 		.string	"COMPR"
 2386      5200
 2387              	.LASF49:
 2388 02fa 454F5146 		.string	"EOQF"
 2388      00
 2389              	.LASF5:
 2390 02ff 73686F72 		.string	"short unsigned int"
 2390      7420756E 
 2390      7369676E 
 2390      65642069 
 2390      6E7400
 2391              	.LASF56:
 2392 0312 52584354 		.string	"RXCTR"
 2392      5200
 2393              	.LASF23:
 2394 0318 50435353 		.string	"PCSSE"
 2394      4500
 2395              	.LASF107:
 2396 031e 41534452 		.string	"ASDR"
 2396      00
 2397              	.LASF65:
 2398 0323 52464446 		.string	"RFDFDIRS"
 2398      44495253 
 2398      00
 2399              	.LASF77:
GAS LISTING C:\Users\sw46\AppData\Local\Temp\cc8eQsX3.s 			page 45


 2400 032c 54584441 		.string	"TXDATA"
 2400      544100
 2401              	.LASF114:
 2402 0333 72785F63 		.string	"rx_cnt"
 2402      6E7400
 2403              	.LASF120:
 2404 033a 63746172 		.string	"ctar0"
 2404      3000
 2405              	.LASF33:
 2406 0340 4D444953 		.string	"MDIS"
 2406      00
 2407              	.LASF48:
 2408 0345 54585258 		.string	"TXRXS"
 2408      5300
 2409              	.LASF35:
 2410 034b 4449535F 		.string	"DIS_RXF"
 2410      52584600 
 2411              	.LASF16:
 2412 0353 7675696E 		.string	"vuint32_t"
 2412      7433325F 
 2412      7400
 2413              	.LASF44:
 2414 035d 4C534246 		.string	"LSBFE"
 2414      4500
 2415              	.LASF17:
 2416 0363 73697A65 		.string	"sizetype"
 2416      74797065 
 2416      00
 2417              	.LASF82:
 2418 036c 54585353 		.string	"TXSS"
 2418      00
 2419              	.LASF63:
 2420 0371 52464F46 		.string	"RFOFRE"
 2420      524500
 2421              	.LASF130:
 2422 0378 2E2F636F 		.string	"./components/spc56elxx_low_level_drivers_component_rla/cfg/spi_lld_cfg.c"
 2422      6D706F6E 
 2422      656E7473 
 2422      2F737063 
 2422      3536656C 
 2423              	.LASF40:
 2424 03c1 54434E54 		.string	"TCNT"
 2424      00
 2425              	.LASF22:
 2426 03c6 4D544645 		.string	"MTFE"
 2426      00
 2427              	.LASF76:
 2428 03cb 50435330 		.string	"PCS0"
 2428      00
 2429              	.LASF75:
 2430 03d0 50435331 		.string	"PCS1"
 2430      00
 2431              	.LASF74:
 2432 03d5 50435332 		.string	"PCS2"
 2432      00
 2433              	.LASF73:
 2434 03da 50435333 		.string	"PCS3"
GAS LISTING C:\Users\sw46\AppData\Local\Temp\cc8eQsX3.s 			page 46


 2434      00
 2435              	.LASF72:
 2436 03df 50435334 		.string	"PCS4"
 2436      00
 2437              	.LASF71:
 2438 03e4 50435335 		.string	"PCS5"
 2438      00
 2439              	.LASF70:
 2440 03e9 50435336 		.string	"PCS6"
 2440      00
 2441              	.LASF69:
 2442 03ee 50435337 		.string	"PCS7"
 2442      00
 2443              	.LASF125:
 2444 03f3 72785F70 		.string	"rx_ptr16"
 2444      74723136 
 2444      00
 2445              	.LASF68:
 2446 03fc 4354434E 		.string	"CTCNT"
 2446      5400
 2447              	.LASF98:
 2448 0402 43544152 		.string	"CTAR"
 2448      00
 2449              	.LASF67:
 2450 0407 43544153 		.string	"CTAS"
 2450      00
 2451              	.LASF36:
 2452 040c 434C525F 		.string	"CLR_TXF"
 2452      54584600 
 2453              	.LASF110:
 2454 0414 73706335 		.string	"spc5_dspi"
 2454      5F647370 
 2454      6900
 2455              	.LASF1:
 2456 041e 756E7369 		.string	"unsigned char"
 2456      676E6564 
 2456      20636861 
 2456      7200
 2457              	.LASF54:
 2458 042c 54584354 		.string	"TXCTR"
 2458      5200
 2459              	.LASF2:
 2460 0432 73686F72 		.string	"short int"
 2460      7420696E 
 2460      7400
 2461              	.LASF99:
 2462 043c 52534552 		.string	"RSER"
 2462      00
 2463              	.LASF102:
 2464 0441 54584652 		.string	"TXFR"
 2464      00
 2465              	.LASF24:
 2466 0446 524F4F45 		.string	"ROOE"
 2466      00
 2467              	.LASF79:
 2468 044b 5458434D 		.string	"TXCMD"
 2468      4400
GAS LISTING C:\Users\sw46\AppData\Local\Temp\cc8eQsX3.s 			page 47


 2469              	.LASF64:
 2470 0451 52464446 		.string	"RFDFRE"
 2470      524500
 2471              	.LASF28:
 2472 0458 50435349 		.string	"PCSIS4"
 2472      533400
 2473              	.LASF27:
 2474 045f 50435349 		.string	"PCSIS5"
 2474      533500
 2475              	.LASF14:
 2476 0466 75696E74 		.string	"uint32_t"
 2476      33325F74 
 2476      00
 2477              	.LASF39:
 2478 046f 48414C54 		.string	"HALT"
 2478      00
 2479              	.LASF94:
 2480 0474 41534552 		.string	"ASER_DATA"
 2480      5F444154 
 2480      4100
 2481              	.LASF61:
 2482 047e 54464646 		.string	"TFFFRE"
 2482      524500
 2483              	.LASF111:
 2484 0485 636F6E66 		.string	"config"
 2484      696700
 2485              	.LASF4:
 2486 048c 5F5F7569 		.string	"__uint16_t"
 2486      6E743136 
 2486      5F7400
 2487              	.LASF103:
 2488 0497 44535049 		.string	"DSPI_reserved_txf"
 2488      5F726573 
 2488      65727665 
 2488      645F7478 
 2488      6600
 2489              	.LASF7:
 2490 04a9 5F5F7569 		.string	"__uint32_t"
 2490      6E743332 
 2490      5F7400
 2491              	.LASF18:
 2492 04b4 696F706F 		.string	"ioportid_t"
 2492      72746964 
 2492      5F7400
 2493              	.LASF106:
 2494 04bf 44534943 		.string	"DSICR"
 2494      5200
 2495              	.LASF53:
 2496 04c5 52464446 		.string	"RFDF"
 2496      00
 2497              	.LASF115:
 2498 04ca 74785F63 		.string	"tx_cnt"
 2498      6E7400
 2499              	.LASF50:
 2500 04d1 54465546 		.string	"TFUF"
 2500      00
 2501              	.LASF12:
GAS LISTING C:\Users\sw46\AppData\Local\Temp\cc8eQsX3.s 			page 48


 2502 04d6 75696E74 		.string	"uint8_t"
 2502      385F7400 
 2503              	.LASF104:
 2504 04de 52584652 		.string	"RXFR"
 2504      00
 2505              	.LASF93:
 2506 04e3 5345525F 		.string	"SER_DATA"
 2506      44415441 
 2506      00
 2507              	.LASF51:
 2508 04ec 54464646 		.string	"TFFF"
 2508      00
 2509              	.LASF21:
 2510 04f1 44434F4E 		.string	"DCONF"
 2510      4600
 2511              	.LASF41:
 2512 04f7 464D535A 		.string	"FMSZ"
 2512      00
 2513              	.LASF122:
 2514 04fc 53504943 		.string	"SPIConfig"
 2514      6F6E6669 
 2514      6700
 2515              	.LASF85:
 2516 0506 44434F4E 		.string	"DCONT"
 2516      5400
 2517              	.LASF131:
 2518 050c 433A5C55 		.string	"C:\\Users\\sw46\\Documents\\SPCStudio v5.0\\SPC564L_RLA_Motor_Control_Demo_Application"
 2518      73657273 
 2518      5C737734 
 2518      365C446F 
 2518      63756D65 
 2519              	.LASF132:
 2520 055e 7370695F 		.string	"spi_config_L9907"
 2520      636F6E66 
 2520      69675F4C 
 2520      39393037 
 2520      00
 2521              	.LASF46:
 2522 056f 50415343 		.string	"PASC"
 2522      00
 2523              	.LASF78:
 2524 0574 52584441 		.string	"RXDATA"
 2524      544100
 2525              	.LASF37:
 2526 057b 434C525F 		.string	"CLR_RXF"
 2526      52584600 
 2527              		.ident	"GCC: (GNU) 4.9.2 20141030 (Mon Nov 23 22:27:42 EST 2015         build.sh rev= ELvle)"
GAS LISTING C:\Users\sw46\AppData\Local\Temp\cc8eQsX3.s 			page 49


DEFINED SYMBOLS
                            *ABS*:00000000 spi_lld_cfg.c
C:\Users\sw46\AppData\Local\Temp\cc8eQsX3.s:10     .rodata.spi_config_L9907:00000000 spi_config_L9907

NO UNDEFINED SYMBOLS
