GAS LISTING C:\Users\sw46\AppData\Local\Temp\ccA74MjG.s 			page 1


   1              		.file	"systimer.c"
   2              		.section	".text","axv"
   3              	.Ltext0:
   4              		.cfi_sections	.debug_frame
   5              		.section	.text.sysTimeSetup,"axv",@progbits
   6              		.align 1
   7              		.p2align 4,,15
   8              		.globl sysTimeSetup
   9              		.type	sysTimeSetup, @function
  10              	sysTimeSetup:
  11              	.LFB2:
  12              		.file 1 "./components/spc56elxx_osal_component_rla/lib/src/systimer.c"
  13              		.loc 1 56 0
  14              		.cfi_startproc
  15              	.LVL0:
  16 0000 182106F0 		e_stwu %r1,-16(%r1)
  17              	.LCFI0:
  18              		.cfi_def_cfa_offset 16
  19 0004 0080     		se_mflr %r0
  20 0006 D501     		se_stw %r0,20(%r1)
  21 0008 D3F1     		se_stw %r31,12(%r1)
  22              		.cfi_offset 65, 4
  23              		.cfi_offset 31, -4
  24 000a 013F     		se_mr %r31,%r3
  25              		.loc 1 62 0
  26 000c 71400004 		e_li %r10,4
  27 0010 713FE7F4 		e_lis %r9,0xfff4
  28 0014 7130C07B 		e_or2i %r9,32891
  29 0018 35490000 		e_stb %r10,0(%r9)
  30              		.loc 1 63 0
  31 001c 4DC3     		se_li %r3,92
  32              	.LVL1:
  33 001e 4924     		se_li %r4,18
  34 0020 78000001 		e_bl SPCSetPeripheralClockMode
  35              	.LVL2:
  36              		.loc 1 64 0
  37 0024 78000001 		e_bl SPCGetSystemClock
  38              	.LVL3:
  39 0028 7C63FB96 		divwu %r3,%r3,%r31
  40 002c 186384FF 		e_addi %r3,%r3,-1
  41              	.LVL4:
  42              		.loc 1 65 0
  43 0030 7138E3FF 		e_lis %r9,0xc3ff
  44 0034 71400001 		e_li %r10,1
  45 0038 55490000 		e_stw %r10,0(%r9)
  46              		.loc 1 66 0
  47 003c 54690100 		e_stw %r3,256(%r9)
  48              		.loc 1 67 0
  49 0040 54690104 		e_stw %r3,260(%r9)
  50              		.loc 1 68 0
  51 0044 5549010C 		e_stw %r10,268(%r9)
  52              		.loc 1 69 0
  53 0048 71400003 		e_li %r10,3
  54 004c 55490108 		e_stw %r10,264(%r9)
  55              		.loc 1 70 0
  56 0050 C501     		se_lwz %r0,20(%r1)
  57 0052 0090     		se_mtlr %r0
GAS LISTING C:\Users\sw46\AppData\Local\Temp\ccA74MjG.s 			page 2


  58              		.cfi_restore 65
  59 0054 C3F1     		se_lwz %r31,12(%r1)
  60              	.LVL5:
  61 0056 20F1     		se_addi %r1,16
  62              	.LCFI1:
  63              		.cfi_restore 31
  64              		.cfi_def_cfa_offset 0
  65 0058 0004     		se_blr
  66              		.cfi_endproc
  67              	.LFE2:
  68              		.size	sysTimeSetup, .-sysTimeSetup
  69              		.section	.text.sysTimeReset,"axv",@progbits
  70              		.align 1
  71              		.p2align 4,,15
  72              		.globl sysTimeReset
  73              		.type	sysTimeReset, @function
  74              	sysTimeReset:
  75              	.LFB3:
  76              		.loc 1 78 0
  77              		.cfi_startproc
  78              		.loc 1 80 0
  79 0000 7138E3FF 		e_lis %r9,0xc3ff
  80 0004 5129010C 		e_lwz %r9,268(%r9)
  81 0008 18A9A801 		e_cmpli %cr1,%r9,1
  82 000c 7A060010 		e_bne %cr1,.L2
  83              		.loc 1 81 0
  84 0010 71400001 		e_li %r10,1
  85 0014 7138E3FF 		e_lis %r9,0xc3ff
  86 0018 5549010C 		e_stw %r10,268(%r9)
  87              	.L2:
  88 001c 0004     		se_blr
  89              		.cfi_endproc
  90              	.LFE3:
  91              		.size	sysTimeReset, .-sysTimeReset
  92              		.section	".text","axv"
  93              	.Letext0:
  94              		.file 2 "c:\\spc5studio\\eclipse\\plugins\\com.st.tools.spc5.tools.gnu.gcc.ppcvle.win32_1.0.0.2016
  95              		.file 3 "c:\\spc5studio\\eclipse\\plugins\\com.st.tools.spc5.tools.gnu.gcc.ppcvle.win32_1.0.0.2016
  96              		.file 4 "./components/spc56elxx_platform_component_rla/lib/include/typedefs.h"
  97              		.file 5 "./components/spc56elxx_platform_component_rla/lib/include/xpc56el.h"
  98              		.file 6 "./components/spc56elxx_clock_component_rla/lib/include/clock.h"
  99              		.section	.debug_info,"",@progbits
 100              	.Ldebug_info0:
 101 0000 000004C1 		.4byte	0x4c1
 102 0004 0002     		.2byte	0x2
 103 0006 00000000 		.4byte	.Ldebug_abbrev0
 104 000a 04       		.byte	0x4
 105 000b 01       		.uleb128 0x1
 106 000c 00000000 		.4byte	.LASF52
 107 0010 01       		.byte	0x1
 108 0011 00000000 		.4byte	.LASF53
 109 0015 00000000 		.4byte	.LASF54
 110 0019 00000000 		.4byte	.Ldebug_ranges0+0
 111 001d 00000000 		.4byte	0
 112 0021 00000000 		.4byte	0
 113 0025 00000000 		.4byte	.Ldebug_line0
 114 0029 02       		.uleb128 0x2
GAS LISTING C:\Users\sw46\AppData\Local\Temp\ccA74MjG.s 			page 3


 115 002a 00000000 		.4byte	.LASF0
 116 002e 02       		.byte	0x2
 117 002f 1B       		.byte	0x1b
 118 0030 00000034 		.4byte	0x34
 119 0034 03       		.uleb128 0x3
 120 0035 01       		.byte	0x1
 121 0036 06       		.byte	0x6
 122 0037 00000000 		.4byte	.LASF2
 123 003b 02       		.uleb128 0x2
 124 003c 00000000 		.4byte	.LASF1
 125 0040 02       		.byte	0x2
 126 0041 1D       		.byte	0x1d
 127 0042 00000046 		.4byte	0x46
 128 0046 03       		.uleb128 0x3
 129 0047 01       		.byte	0x1
 130 0048 08       		.byte	0x8
 131 0049 00000000 		.4byte	.LASF3
 132 004d 03       		.uleb128 0x3
 133 004e 02       		.byte	0x2
 134 004f 05       		.byte	0x5
 135 0050 00000000 		.4byte	.LASF4
 136 0054 02       		.uleb128 0x2
 137 0055 00000000 		.4byte	.LASF5
 138 0059 02       		.byte	0x2
 139 005a 2B       		.byte	0x2b
 140 005b 0000005F 		.4byte	0x5f
 141 005f 03       		.uleb128 0x3
 142 0060 02       		.byte	0x2
 143 0061 07       		.byte	0x7
 144 0062 00000000 		.4byte	.LASF6
 145 0066 03       		.uleb128 0x3
 146 0067 04       		.byte	0x4
 147 0068 05       		.byte	0x5
 148 0069 00000000 		.4byte	.LASF7
 149 006d 02       		.uleb128 0x2
 150 006e 00000000 		.4byte	.LASF8
 151 0072 02       		.byte	0x2
 152 0073 41       		.byte	0x41
 153 0074 00000078 		.4byte	0x78
 154 0078 03       		.uleb128 0x3
 155 0079 04       		.byte	0x4
 156 007a 07       		.byte	0x7
 157 007b 00000000 		.4byte	.LASF9
 158 007f 03       		.uleb128 0x3
 159 0080 08       		.byte	0x8
 160 0081 05       		.byte	0x5
 161 0082 00000000 		.4byte	.LASF10
 162 0086 03       		.uleb128 0x3
 163 0087 08       		.byte	0x8
 164 0088 07       		.byte	0x7
 165 0089 00000000 		.4byte	.LASF11
 166 008d 04       		.uleb128 0x4
 167 008e 04       		.byte	0x4
 168 008f 05       		.byte	0x5
 169 0090 696E7400 		.string	"int"
 170 0094 03       		.uleb128 0x3
 171 0095 04       		.byte	0x4
GAS LISTING C:\Users\sw46\AppData\Local\Temp\ccA74MjG.s 			page 4


 172 0096 07       		.byte	0x7
 173 0097 00000000 		.4byte	.LASF12
 174 009b 02       		.uleb128 0x2
 175 009c 00000000 		.4byte	.LASF13
 176 00a0 03       		.byte	0x3
 177 00a1 14       		.byte	0x14
 178 00a2 00000029 		.4byte	0x29
 179 00a6 02       		.uleb128 0x2
 180 00a7 00000000 		.4byte	.LASF14
 181 00ab 03       		.byte	0x3
 182 00ac 15       		.byte	0x15
 183 00ad 0000003B 		.4byte	0x3b
 184 00b1 02       		.uleb128 0x2
 185 00b2 00000000 		.4byte	.LASF15
 186 00b6 03       		.byte	0x3
 187 00b7 21       		.byte	0x21
 188 00b8 00000054 		.4byte	0x54
 189 00bc 02       		.uleb128 0x2
 190 00bd 00000000 		.4byte	.LASF16
 191 00c1 03       		.byte	0x3
 192 00c2 2D       		.byte	0x2d
 193 00c3 0000006D 		.4byte	0x6d
 194 00c7 02       		.uleb128 0x2
 195 00c8 00000000 		.4byte	.LASF17
 196 00cc 04       		.byte	0x4
 197 00cd 25       		.byte	0x25
 198 00ce 000000D2 		.4byte	0xd2
 199 00d2 05       		.uleb128 0x5
 200 00d3 000000BC 		.4byte	0xbc
 201 00d7 03       		.uleb128 0x3
 202 00d8 04       		.byte	0x4
 203 00d9 07       		.byte	0x7
 204 00da 00000000 		.4byte	.LASF18
 205 00de 06       		.uleb128 0x6
 206 00df 04       		.byte	0x4
 207 00e0 05       		.byte	0x5
 208 00e1 151D     		.2byte	0x151d
 209 00e3 0000010C 		.4byte	0x10c
 210 00e7 07       		.uleb128 0x7
 211 00e8 00000000 		.4byte	.LASF19
 212 00ec 05       		.byte	0x5
 213 00ed 151F     		.2byte	0x151f
 214 00ef 000000C7 		.4byte	0xc7
 215 00f3 04       		.byte	0x4
 216 00f4 01       		.byte	0x1
 217 00f5 1E       		.byte	0x1e
 218 00f6 02       		.byte	0x2
 219 00f7 23       		.byte	0x23
 220 00f8 00       		.uleb128 0
 221 00f9 08       		.uleb128 0x8
 222 00fa 46525A00 		.string	"FRZ"
 223 00fe 05       		.byte	0x5
 224 00ff 1520     		.2byte	0x1520
 225 0101 000000C7 		.4byte	0xc7
 226 0105 04       		.byte	0x4
 227 0106 01       		.byte	0x1
 228 0107 1F       		.byte	0x1f
GAS LISTING C:\Users\sw46\AppData\Local\Temp\ccA74MjG.s 			page 5


 229 0108 02       		.byte	0x2
 230 0109 23       		.byte	0x23
 231 010a 00       		.uleb128 0
 232 010b 00       		.byte	0
 233 010c 09       		.uleb128 0x9
 234 010d 04       		.byte	0x4
 235 010e 05       		.byte	0x5
 236 010f 151B     		.2byte	0x151b
 237 0111 0000012A 		.4byte	0x12a
 238 0115 0A       		.uleb128 0xa
 239 0116 5200     		.string	"R"
 240 0118 05       		.byte	0x5
 241 0119 151C     		.2byte	0x151c
 242 011b 000000C7 		.4byte	0xc7
 243 011f 0A       		.uleb128 0xa
 244 0120 4200     		.string	"B"
 245 0122 05       		.byte	0x5
 246 0123 1521     		.2byte	0x1521
 247 0125 000000DE 		.4byte	0xde
 248 0129 00       		.byte	0
 249 012a 0B       		.uleb128 0xb
 250 012b 00000000 		.4byte	.LASF20
 251 012f 05       		.byte	0x5
 252 0130 1522     		.2byte	0x1522
 253 0132 0000010C 		.4byte	0x10c
 254 0136 06       		.uleb128 0x6
 255 0137 04       		.byte	0x4
 256 0138 05       		.byte	0x5
 257 0139 1529     		.2byte	0x1529
 258 013b 00000152 		.4byte	0x152
 259 013f 08       		.uleb128 0x8
 260 0140 54535600 		.string	"TSV"
 261 0144 05       		.byte	0x5
 262 0145 152A     		.2byte	0x152a
 263 0147 000000C7 		.4byte	0xc7
 264 014b 04       		.byte	0x4
 265 014c 20       		.byte	0x20
 266 014d 00       		.byte	0
 267 014e 02       		.byte	0x2
 268 014f 23       		.byte	0x23
 269 0150 00       		.uleb128 0
 270 0151 00       		.byte	0
 271 0152 09       		.uleb128 0x9
 272 0153 04       		.byte	0x4
 273 0154 05       		.byte	0x5
 274 0155 1527     		.2byte	0x1527
 275 0157 00000170 		.4byte	0x170
 276 015b 0A       		.uleb128 0xa
 277 015c 5200     		.string	"R"
 278 015e 05       		.byte	0x5
 279 015f 1528     		.2byte	0x1528
 280 0161 000000C7 		.4byte	0xc7
 281 0165 0A       		.uleb128 0xa
 282 0166 4200     		.string	"B"
 283 0168 05       		.byte	0x5
 284 0169 152B     		.2byte	0x152b
 285 016b 00000136 		.4byte	0x136
GAS LISTING C:\Users\sw46\AppData\Local\Temp\ccA74MjG.s 			page 6


 286 016f 00       		.byte	0
 287 0170 0B       		.uleb128 0xb
 288 0171 00000000 		.4byte	.LASF21
 289 0175 05       		.byte	0x5
 290 0176 152C     		.2byte	0x152c
 291 0178 00000152 		.4byte	0x152
 292 017c 06       		.uleb128 0x6
 293 017d 04       		.byte	0x4
 294 017e 05       		.byte	0x5
 295 017f 1533     		.2byte	0x1533
 296 0181 00000198 		.4byte	0x198
 297 0185 08       		.uleb128 0x8
 298 0186 54564C00 		.string	"TVL"
 299 018a 05       		.byte	0x5
 300 018b 1534     		.2byte	0x1534
 301 018d 000000C7 		.4byte	0xc7
 302 0191 04       		.byte	0x4
 303 0192 20       		.byte	0x20
 304 0193 00       		.byte	0
 305 0194 02       		.byte	0x2
 306 0195 23       		.byte	0x23
 307 0196 00       		.uleb128 0
 308 0197 00       		.byte	0
 309 0198 09       		.uleb128 0x9
 310 0199 04       		.byte	0x4
 311 019a 05       		.byte	0x5
 312 019b 1531     		.2byte	0x1531
 313 019d 000001B6 		.4byte	0x1b6
 314 01a1 0A       		.uleb128 0xa
 315 01a2 5200     		.string	"R"
 316 01a4 05       		.byte	0x5
 317 01a5 1532     		.2byte	0x1532
 318 01a7 000000C7 		.4byte	0xc7
 319 01ab 0A       		.uleb128 0xa
 320 01ac 4200     		.string	"B"
 321 01ae 05       		.byte	0x5
 322 01af 1535     		.2byte	0x1535
 323 01b1 0000017C 		.4byte	0x17c
 324 01b5 00       		.byte	0
 325 01b6 0B       		.uleb128 0xb
 326 01b7 00000000 		.4byte	.LASF22
 327 01bb 05       		.byte	0x5
 328 01bc 1536     		.2byte	0x1536
 329 01be 00000198 		.4byte	0x198
 330 01c2 06       		.uleb128 0x6
 331 01c3 04       		.byte	0x4
 332 01c4 05       		.byte	0x5
 333 01c5 153D     		.2byte	0x153d
 334 01c7 000001F0 		.4byte	0x1f0
 335 01cb 08       		.uleb128 0x8
 336 01cc 54494500 		.string	"TIE"
 337 01d0 05       		.byte	0x5
 338 01d1 153F     		.2byte	0x153f
 339 01d3 000000C7 		.4byte	0xc7
 340 01d7 04       		.byte	0x4
 341 01d8 01       		.byte	0x1
 342 01d9 1E       		.byte	0x1e
GAS LISTING C:\Users\sw46\AppData\Local\Temp\ccA74MjG.s 			page 7


 343 01da 02       		.byte	0x2
 344 01db 23       		.byte	0x23
 345 01dc 00       		.uleb128 0
 346 01dd 08       		.uleb128 0x8
 347 01de 54454E00 		.string	"TEN"
 348 01e2 05       		.byte	0x5
 349 01e3 1540     		.2byte	0x1540
 350 01e5 000000C7 		.4byte	0xc7
 351 01e9 04       		.byte	0x4
 352 01ea 01       		.byte	0x1
 353 01eb 1F       		.byte	0x1f
 354 01ec 02       		.byte	0x2
 355 01ed 23       		.byte	0x23
 356 01ee 00       		.uleb128 0
 357 01ef 00       		.byte	0
 358 01f0 09       		.uleb128 0x9
 359 01f1 04       		.byte	0x4
 360 01f2 05       		.byte	0x5
 361 01f3 153B     		.2byte	0x153b
 362 01f5 0000020E 		.4byte	0x20e
 363 01f9 0A       		.uleb128 0xa
 364 01fa 5200     		.string	"R"
 365 01fc 05       		.byte	0x5
 366 01fd 153C     		.2byte	0x153c
 367 01ff 000000C7 		.4byte	0xc7
 368 0203 0A       		.uleb128 0xa
 369 0204 4200     		.string	"B"
 370 0206 05       		.byte	0x5
 371 0207 1541     		.2byte	0x1541
 372 0209 000001C2 		.4byte	0x1c2
 373 020d 00       		.byte	0
 374 020e 0B       		.uleb128 0xb
 375 020f 00000000 		.4byte	.LASF23
 376 0213 05       		.byte	0x5
 377 0214 1542     		.2byte	0x1542
 378 0216 000001F0 		.4byte	0x1f0
 379 021a 06       		.uleb128 0x6
 380 021b 04       		.byte	0x4
 381 021c 05       		.byte	0x5
 382 021d 1549     		.2byte	0x1549
 383 021f 00000236 		.4byte	0x236
 384 0223 08       		.uleb128 0x8
 385 0224 54494600 		.string	"TIF"
 386 0228 05       		.byte	0x5
 387 0229 154B     		.2byte	0x154b
 388 022b 000000C7 		.4byte	0xc7
 389 022f 04       		.byte	0x4
 390 0230 01       		.byte	0x1
 391 0231 1F       		.byte	0x1f
 392 0232 02       		.byte	0x2
 393 0233 23       		.byte	0x23
 394 0234 00       		.uleb128 0
 395 0235 00       		.byte	0
 396 0236 09       		.uleb128 0x9
 397 0237 04       		.byte	0x4
 398 0238 05       		.byte	0x5
 399 0239 1547     		.2byte	0x1547
GAS LISTING C:\Users\sw46\AppData\Local\Temp\ccA74MjG.s 			page 8


 400 023b 00000254 		.4byte	0x254
 401 023f 0A       		.uleb128 0xa
 402 0240 5200     		.string	"R"
 403 0242 05       		.byte	0x5
 404 0243 1548     		.2byte	0x1548
 405 0245 000000C7 		.4byte	0xc7
 406 0249 0A       		.uleb128 0xa
 407 024a 4200     		.string	"B"
 408 024c 05       		.byte	0x5
 409 024d 154C     		.2byte	0x154c
 410 024f 0000021A 		.4byte	0x21a
 411 0253 00       		.byte	0
 412 0254 0B       		.uleb128 0xb
 413 0255 00000000 		.4byte	.LASF24
 414 0259 05       		.byte	0x5
 415 025a 154D     		.2byte	0x154d
 416 025c 00000236 		.4byte	0x236
 417 0260 0C       		.uleb128 0xc
 418 0261 00000000 		.4byte	.LASF47
 419 0265 10       		.byte	0x10
 420 0266 05       		.byte	0x5
 421 0267 1550     		.2byte	0x1550
 422 0269 000002AA 		.4byte	0x2aa
 423 026d 0D       		.uleb128 0xd
 424 026e 00000000 		.4byte	.LASF25
 425 0272 05       		.byte	0x5
 426 0273 1553     		.2byte	0x1553
 427 0275 00000170 		.4byte	0x170
 428 0279 02       		.byte	0x2
 429 027a 23       		.byte	0x23
 430 027b 00       		.uleb128 0
 431 027c 0D       		.uleb128 0xd
 432 027d 00000000 		.4byte	.LASF26
 433 0281 05       		.byte	0x5
 434 0282 1555     		.2byte	0x1555
 435 0284 000001B6 		.4byte	0x1b6
 436 0288 02       		.byte	0x2
 437 0289 23       		.byte	0x23
 438 028a 04       		.uleb128 0x4
 439 028b 0D       		.uleb128 0xd
 440 028c 00000000 		.4byte	.LASF27
 441 0290 05       		.byte	0x5
 442 0291 1557     		.2byte	0x1557
 443 0293 0000020E 		.4byte	0x20e
 444 0297 02       		.byte	0x2
 445 0298 23       		.byte	0x23
 446 0299 08       		.uleb128 0x8
 447 029a 0D       		.uleb128 0xd
 448 029b 00000000 		.4byte	.LASF28
 449 029f 05       		.byte	0x5
 450 02a0 1559     		.2byte	0x1559
 451 02a2 00000254 		.4byte	0x254
 452 02a6 02       		.byte	0x2
 453 02a7 23       		.byte	0x23
 454 02a8 0C       		.uleb128 0xc
 455 02a9 00       		.byte	0
 456 02aa 0B       		.uleb128 0xb
GAS LISTING C:\Users\sw46\AppData\Local\Temp\ccA74MjG.s 			page 9


 457 02ab 00000000 		.4byte	.LASF29
 458 02af 05       		.byte	0x5
 459 02b0 155B     		.2byte	0x155b
 460 02b2 00000260 		.4byte	0x260
 461 02b6 06       		.uleb128 0x6
 462 02b7 40       		.byte	0x40
 463 02b8 05       		.byte	0x5
 464 02b9 1566     		.2byte	0x1566
 465 02bb 000003B0 		.4byte	0x3b0
 466 02bf 0D       		.uleb128 0xd
 467 02c0 00000000 		.4byte	.LASF30
 468 02c4 05       		.byte	0x5
 469 02c5 1568     		.2byte	0x1568
 470 02c7 00000170 		.4byte	0x170
 471 02cb 02       		.byte	0x2
 472 02cc 23       		.byte	0x23
 473 02cd 00       		.uleb128 0
 474 02ce 0D       		.uleb128 0xd
 475 02cf 00000000 		.4byte	.LASF31
 476 02d3 05       		.byte	0x5
 477 02d4 156A     		.2byte	0x156a
 478 02d6 000001B6 		.4byte	0x1b6
 479 02da 02       		.byte	0x2
 480 02db 23       		.byte	0x23
 481 02dc 04       		.uleb128 0x4
 482 02dd 0D       		.uleb128 0xd
 483 02de 00000000 		.4byte	.LASF32
 484 02e2 05       		.byte	0x5
 485 02e3 156C     		.2byte	0x156c
 486 02e5 0000020E 		.4byte	0x20e
 487 02e9 02       		.byte	0x2
 488 02ea 23       		.byte	0x23
 489 02eb 08       		.uleb128 0x8
 490 02ec 0D       		.uleb128 0xd
 491 02ed 00000000 		.4byte	.LASF33
 492 02f1 05       		.byte	0x5
 493 02f2 156E     		.2byte	0x156e
 494 02f4 00000254 		.4byte	0x254
 495 02f8 02       		.byte	0x2
 496 02f9 23       		.byte	0x23
 497 02fa 0C       		.uleb128 0xc
 498 02fb 0D       		.uleb128 0xd
 499 02fc 00000000 		.4byte	.LASF34
 500 0300 05       		.byte	0x5
 501 0301 1570     		.2byte	0x1570
 502 0303 00000170 		.4byte	0x170
 503 0307 02       		.byte	0x2
 504 0308 23       		.byte	0x23
 505 0309 10       		.uleb128 0x10
 506 030a 0D       		.uleb128 0xd
 507 030b 00000000 		.4byte	.LASF35
 508 030f 05       		.byte	0x5
 509 0310 1572     		.2byte	0x1572
 510 0312 000001B6 		.4byte	0x1b6
 511 0316 02       		.byte	0x2
 512 0317 23       		.byte	0x23
 513 0318 14       		.uleb128 0x14
GAS LISTING C:\Users\sw46\AppData\Local\Temp\ccA74MjG.s 			page 10


 514 0319 0D       		.uleb128 0xd
 515 031a 00000000 		.4byte	.LASF36
 516 031e 05       		.byte	0x5
 517 031f 1574     		.2byte	0x1574
 518 0321 0000020E 		.4byte	0x20e
 519 0325 02       		.byte	0x2
 520 0326 23       		.byte	0x23
 521 0327 18       		.uleb128 0x18
 522 0328 0D       		.uleb128 0xd
 523 0329 00000000 		.4byte	.LASF37
 524 032d 05       		.byte	0x5
 525 032e 1576     		.2byte	0x1576
 526 0330 00000254 		.4byte	0x254
 527 0334 02       		.byte	0x2
 528 0335 23       		.byte	0x23
 529 0336 1C       		.uleb128 0x1c
 530 0337 0D       		.uleb128 0xd
 531 0338 00000000 		.4byte	.LASF38
 532 033c 05       		.byte	0x5
 533 033d 1578     		.2byte	0x1578
 534 033f 00000170 		.4byte	0x170
 535 0343 02       		.byte	0x2
 536 0344 23       		.byte	0x23
 537 0345 20       		.uleb128 0x20
 538 0346 0D       		.uleb128 0xd
 539 0347 00000000 		.4byte	.LASF39
 540 034b 05       		.byte	0x5
 541 034c 157A     		.2byte	0x157a
 542 034e 000001B6 		.4byte	0x1b6
 543 0352 02       		.byte	0x2
 544 0353 23       		.byte	0x23
 545 0354 24       		.uleb128 0x24
 546 0355 0D       		.uleb128 0xd
 547 0356 00000000 		.4byte	.LASF40
 548 035a 05       		.byte	0x5
 549 035b 157C     		.2byte	0x157c
 550 035d 0000020E 		.4byte	0x20e
 551 0361 02       		.byte	0x2
 552 0362 23       		.byte	0x23
 553 0363 28       		.uleb128 0x28
 554 0364 0D       		.uleb128 0xd
 555 0365 00000000 		.4byte	.LASF41
 556 0369 05       		.byte	0x5
 557 036a 157E     		.2byte	0x157e
 558 036c 00000254 		.4byte	0x254
 559 0370 02       		.byte	0x2
 560 0371 23       		.byte	0x23
 561 0372 2C       		.uleb128 0x2c
 562 0373 0D       		.uleb128 0xd
 563 0374 00000000 		.4byte	.LASF42
 564 0378 05       		.byte	0x5
 565 0379 1580     		.2byte	0x1580
 566 037b 00000170 		.4byte	0x170
 567 037f 02       		.byte	0x2
 568 0380 23       		.byte	0x23
 569 0381 30       		.uleb128 0x30
 570 0382 0D       		.uleb128 0xd
GAS LISTING C:\Users\sw46\AppData\Local\Temp\ccA74MjG.s 			page 11


 571 0383 00000000 		.4byte	.LASF43
 572 0387 05       		.byte	0x5
 573 0388 1582     		.2byte	0x1582
 574 038a 000001B6 		.4byte	0x1b6
 575 038e 02       		.byte	0x2
 576 038f 23       		.byte	0x23
 577 0390 34       		.uleb128 0x34
 578 0391 0D       		.uleb128 0xd
 579 0392 00000000 		.4byte	.LASF44
 580 0396 05       		.byte	0x5
 581 0397 1584     		.2byte	0x1584
 582 0399 0000020E 		.4byte	0x20e
 583 039d 02       		.byte	0x2
 584 039e 23       		.byte	0x23
 585 039f 38       		.uleb128 0x38
 586 03a0 0D       		.uleb128 0xd
 587 03a1 00000000 		.4byte	.LASF45
 588 03a5 05       		.byte	0x5
 589 03a6 1586     		.2byte	0x1586
 590 03a8 00000254 		.4byte	0x254
 591 03ac 02       		.byte	0x2
 592 03ad 23       		.byte	0x23
 593 03ae 3C       		.uleb128 0x3c
 594 03af 00       		.byte	0
 595 03b0 09       		.uleb128 0x9
 596 03b1 40       		.byte	0x40
 597 03b2 05       		.byte	0x5
 598 03b3 1562     		.2byte	0x1562
 599 03b5 000003CB 		.4byte	0x3cb
 600 03b9 0E       		.uleb128 0xe
 601 03ba 00000000 		.4byte	.LASF46
 602 03be 05       		.byte	0x5
 603 03bf 1564     		.2byte	0x1564
 604 03c1 000003CB 		.4byte	0x3cb
 605 03c5 0F       		.uleb128 0xf
 606 03c6 000002B6 		.4byte	0x2b6
 607 03ca 00       		.byte	0
 608 03cb 10       		.uleb128 0x10
 609 03cc 000002AA 		.4byte	0x2aa
 610 03d0 000003DB 		.4byte	0x3db
 611 03d4 11       		.uleb128 0x11
 612 03d5 000000D7 		.4byte	0xd7
 613 03d9 03       		.byte	0x3
 614 03da 00       		.byte	0
 615 03db 12       		.uleb128 0x12
 616 03dc 00000000 		.4byte	.LASF48
 617 03e0 0140     		.2byte	0x140
 618 03e2 05       		.byte	0x5
 619 03e3 155E     		.2byte	0x155e
 620 03e5 00000411 		.4byte	0x411
 621 03e9 0D       		.uleb128 0xd
 622 03ea 00000000 		.4byte	.LASF49
 623 03ee 05       		.byte	0x5
 624 03ef 1560     		.2byte	0x1560
 625 03f1 0000012A 		.4byte	0x12a
 626 03f5 02       		.byte	0x2
 627 03f6 23       		.byte	0x23
GAS LISTING C:\Users\sw46\AppData\Local\Temp\ccA74MjG.s 			page 12


 628 03f7 00       		.uleb128 0
 629 03f8 0D       		.uleb128 0xd
 630 03f9 00000000 		.4byte	.LASF50
 631 03fd 05       		.byte	0x5
 632 03fe 1561     		.2byte	0x1561
 633 0400 00000411 		.4byte	0x411
 634 0404 02       		.byte	0x2
 635 0405 23       		.byte	0x23
 636 0406 04       		.uleb128 0x4
 637 0407 13       		.uleb128 0x13
 638 0408 000003B0 		.4byte	0x3b0
 639 040c 03       		.byte	0x3
 640 040d 23       		.byte	0x23
 641 040e 8002     		.uleb128 0x100
 642 0410 00       		.byte	0
 643 0411 10       		.uleb128 0x10
 644 0412 0000009B 		.4byte	0x9b
 645 0416 00000421 		.4byte	0x421
 646 041a 11       		.uleb128 0x11
 647 041b 000000D7 		.4byte	0xd7
 648 041f FB       		.byte	0xfb
 649 0420 00       		.byte	0
 650 0421 0B       		.uleb128 0xb
 651 0422 00000000 		.4byte	.LASF51
 652 0426 05       		.byte	0x5
 653 0427 158A     		.2byte	0x158a
 654 0429 000003DB 		.4byte	0x3db
 655 042d 14       		.uleb128 0x14
 656 042e 01       		.byte	0x1
 657 042f 00000000 		.4byte	.LASF55
 658 0433 01       		.byte	0x1
 659 0434 37       		.byte	0x37
 660 0435 01       		.byte	0x1
 661 0436 00000000 		.4byte	.LFB2
 662 043a 00000000 		.4byte	.LFE2
 663 043e 00000000 		.4byte	.LLST0
 664 0442 01       		.byte	0x1
 665 0443 00000486 		.4byte	0x486
 666 0447 15       		.uleb128 0x15
 667 0448 00000000 		.4byte	.LASF56
 668 044c 01       		.byte	0x1
 669 044d 37       		.byte	0x37
 670 044e 000000BC 		.4byte	0xbc
 671 0452 00000000 		.4byte	.LLST1
 672 0456 16       		.uleb128 0x16
 673 0457 72656700 		.string	"reg"
 674 045b 01       		.byte	0x1
 675 045c 39       		.byte	0x39
 676 045d 000000BC 		.4byte	0xbc
 677 0461 01       		.byte	0x1
 678 0462 53       		.byte	0x53
 679 0463 17       		.uleb128 0x17
 680 0464 00000000 		.4byte	.LVL2
 681 0468 0000049B 		.4byte	0x49b
 682 046c 0000047C 		.4byte	0x47c
 683 0470 18       		.uleb128 0x18
 684 0471 01       		.byte	0x1
GAS LISTING C:\Users\sw46\AppData\Local\Temp\ccA74MjG.s 			page 13


 685 0472 54       		.byte	0x54
 686 0473 01       		.byte	0x1
 687 0474 42       		.byte	0x42
 688 0475 18       		.uleb128 0x18
 689 0476 01       		.byte	0x1
 690 0477 53       		.byte	0x53
 691 0478 02       		.byte	0x2
 692 0479 08       		.byte	0x8
 693 047a 5C       		.byte	0x5c
 694 047b 00       		.byte	0
 695 047c 19       		.uleb128 0x19
 696 047d 00000000 		.4byte	.LVL3
 697 0481 000004B5 		.4byte	0x4b5
 698 0485 00       		.byte	0
 699 0486 1A       		.uleb128 0x1a
 700 0487 01       		.byte	0x1
 701 0488 00000000 		.4byte	.LASF57
 702 048c 01       		.byte	0x1
 703 048d 4D       		.byte	0x4d
 704 048e 01       		.byte	0x1
 705 048f 00000000 		.4byte	.LFB3
 706 0493 00000000 		.4byte	.LFE3
 707 0497 02       		.byte	0x2
 708 0498 71       		.byte	0x71
 709 0499 00       		.sleb128 0
 710 049a 01       		.byte	0x1
 711 049b 1B       		.uleb128 0x1b
 712 049c 01       		.byte	0x1
 713 049d 00000000 		.4byte	.LASF58
 714 04a1 06       		.byte	0x6
 715 04a2 0448     		.2byte	0x448
 716 04a4 01       		.byte	0x1
 717 04a5 01       		.byte	0x1
 718 04a6 000004B5 		.4byte	0x4b5
 719 04aa 1C       		.uleb128 0x1c
 720 04ab 000000BC 		.4byte	0xbc
 721 04af 1C       		.uleb128 0x1c
 722 04b0 000000BC 		.4byte	0xbc
 723 04b4 00       		.byte	0
 724 04b5 1D       		.uleb128 0x1d
 725 04b6 01       		.byte	0x1
 726 04b7 00000000 		.4byte	.LASF59
 727 04bb 06       		.byte	0x6
 728 04bc 044A     		.2byte	0x44a
 729 04be 01       		.byte	0x1
 730 04bf 000000BC 		.4byte	0xbc
 731 04c3 01       		.byte	0x1
 732 04c4 00       		.byte	0
 733              		.section	.debug_abbrev,"",@progbits
 734              	.Ldebug_abbrev0:
 735 0000 01       		.uleb128 0x1
 736 0001 11       		.uleb128 0x11
 737 0002 01       		.byte	0x1
 738 0003 25       		.uleb128 0x25
 739 0004 0E       		.uleb128 0xe
 740 0005 13       		.uleb128 0x13
 741 0006 0B       		.uleb128 0xb
GAS LISTING C:\Users\sw46\AppData\Local\Temp\ccA74MjG.s 			page 14


 742 0007 03       		.uleb128 0x3
 743 0008 0E       		.uleb128 0xe
 744 0009 1B       		.uleb128 0x1b
 745 000a 0E       		.uleb128 0xe
 746 000b 55       		.uleb128 0x55
 747 000c 06       		.uleb128 0x6
 748 000d 11       		.uleb128 0x11
 749 000e 01       		.uleb128 0x1
 750 000f 52       		.uleb128 0x52
 751 0010 01       		.uleb128 0x1
 752 0011 10       		.uleb128 0x10
 753 0012 06       		.uleb128 0x6
 754 0013 00       		.byte	0
 755 0014 00       		.byte	0
 756 0015 02       		.uleb128 0x2
 757 0016 16       		.uleb128 0x16
 758 0017 00       		.byte	0
 759 0018 03       		.uleb128 0x3
 760 0019 0E       		.uleb128 0xe
 761 001a 3A       		.uleb128 0x3a
 762 001b 0B       		.uleb128 0xb
 763 001c 3B       		.uleb128 0x3b
 764 001d 0B       		.uleb128 0xb
 765 001e 49       		.uleb128 0x49
 766 001f 13       		.uleb128 0x13
 767 0020 00       		.byte	0
 768 0021 00       		.byte	0
 769 0022 03       		.uleb128 0x3
 770 0023 24       		.uleb128 0x24
 771 0024 00       		.byte	0
 772 0025 0B       		.uleb128 0xb
 773 0026 0B       		.uleb128 0xb
 774 0027 3E       		.uleb128 0x3e
 775 0028 0B       		.uleb128 0xb
 776 0029 03       		.uleb128 0x3
 777 002a 0E       		.uleb128 0xe
 778 002b 00       		.byte	0
 779 002c 00       		.byte	0
 780 002d 04       		.uleb128 0x4
 781 002e 24       		.uleb128 0x24
 782 002f 00       		.byte	0
 783 0030 0B       		.uleb128 0xb
 784 0031 0B       		.uleb128 0xb
 785 0032 3E       		.uleb128 0x3e
 786 0033 0B       		.uleb128 0xb
 787 0034 03       		.uleb128 0x3
 788 0035 08       		.uleb128 0x8
 789 0036 00       		.byte	0
 790 0037 00       		.byte	0
 791 0038 05       		.uleb128 0x5
 792 0039 35       		.uleb128 0x35
 793 003a 00       		.byte	0
 794 003b 49       		.uleb128 0x49
 795 003c 13       		.uleb128 0x13
 796 003d 00       		.byte	0
 797 003e 00       		.byte	0
 798 003f 06       		.uleb128 0x6
GAS LISTING C:\Users\sw46\AppData\Local\Temp\ccA74MjG.s 			page 15


 799 0040 13       		.uleb128 0x13
 800 0041 01       		.byte	0x1
 801 0042 0B       		.uleb128 0xb
 802 0043 0B       		.uleb128 0xb
 803 0044 3A       		.uleb128 0x3a
 804 0045 0B       		.uleb128 0xb
 805 0046 3B       		.uleb128 0x3b
 806 0047 05       		.uleb128 0x5
 807 0048 01       		.uleb128 0x1
 808 0049 13       		.uleb128 0x13
 809 004a 00       		.byte	0
 810 004b 00       		.byte	0
 811 004c 07       		.uleb128 0x7
 812 004d 0D       		.uleb128 0xd
 813 004e 00       		.byte	0
 814 004f 03       		.uleb128 0x3
 815 0050 0E       		.uleb128 0xe
 816 0051 3A       		.uleb128 0x3a
 817 0052 0B       		.uleb128 0xb
 818 0053 3B       		.uleb128 0x3b
 819 0054 05       		.uleb128 0x5
 820 0055 49       		.uleb128 0x49
 821 0056 13       		.uleb128 0x13
 822 0057 0B       		.uleb128 0xb
 823 0058 0B       		.uleb128 0xb
 824 0059 0D       		.uleb128 0xd
 825 005a 0B       		.uleb128 0xb
 826 005b 0C       		.uleb128 0xc
 827 005c 0B       		.uleb128 0xb
 828 005d 38       		.uleb128 0x38
 829 005e 0A       		.uleb128 0xa
 830 005f 00       		.byte	0
 831 0060 00       		.byte	0
 832 0061 08       		.uleb128 0x8
 833 0062 0D       		.uleb128 0xd
 834 0063 00       		.byte	0
 835 0064 03       		.uleb128 0x3
 836 0065 08       		.uleb128 0x8
 837 0066 3A       		.uleb128 0x3a
 838 0067 0B       		.uleb128 0xb
 839 0068 3B       		.uleb128 0x3b
 840 0069 05       		.uleb128 0x5
 841 006a 49       		.uleb128 0x49
 842 006b 13       		.uleb128 0x13
 843 006c 0B       		.uleb128 0xb
 844 006d 0B       		.uleb128 0xb
 845 006e 0D       		.uleb128 0xd
 846 006f 0B       		.uleb128 0xb
 847 0070 0C       		.uleb128 0xc
 848 0071 0B       		.uleb128 0xb
 849 0072 38       		.uleb128 0x38
 850 0073 0A       		.uleb128 0xa
 851 0074 00       		.byte	0
 852 0075 00       		.byte	0
 853 0076 09       		.uleb128 0x9
 854 0077 17       		.uleb128 0x17
 855 0078 01       		.byte	0x1
GAS LISTING C:\Users\sw46\AppData\Local\Temp\ccA74MjG.s 			page 16


 856 0079 0B       		.uleb128 0xb
 857 007a 0B       		.uleb128 0xb
 858 007b 3A       		.uleb128 0x3a
 859 007c 0B       		.uleb128 0xb
 860 007d 3B       		.uleb128 0x3b
 861 007e 05       		.uleb128 0x5
 862 007f 01       		.uleb128 0x1
 863 0080 13       		.uleb128 0x13
 864 0081 00       		.byte	0
 865 0082 00       		.byte	0
 866 0083 0A       		.uleb128 0xa
 867 0084 0D       		.uleb128 0xd
 868 0085 00       		.byte	0
 869 0086 03       		.uleb128 0x3
 870 0087 08       		.uleb128 0x8
 871 0088 3A       		.uleb128 0x3a
 872 0089 0B       		.uleb128 0xb
 873 008a 3B       		.uleb128 0x3b
 874 008b 05       		.uleb128 0x5
 875 008c 49       		.uleb128 0x49
 876 008d 13       		.uleb128 0x13
 877 008e 00       		.byte	0
 878 008f 00       		.byte	0
 879 0090 0B       		.uleb128 0xb
 880 0091 16       		.uleb128 0x16
 881 0092 00       		.byte	0
 882 0093 03       		.uleb128 0x3
 883 0094 0E       		.uleb128 0xe
 884 0095 3A       		.uleb128 0x3a
 885 0096 0B       		.uleb128 0xb
 886 0097 3B       		.uleb128 0x3b
 887 0098 05       		.uleb128 0x5
 888 0099 49       		.uleb128 0x49
 889 009a 13       		.uleb128 0x13
 890 009b 00       		.byte	0
 891 009c 00       		.byte	0
 892 009d 0C       		.uleb128 0xc
 893 009e 13       		.uleb128 0x13
 894 009f 01       		.byte	0x1
 895 00a0 03       		.uleb128 0x3
 896 00a1 0E       		.uleb128 0xe
 897 00a2 0B       		.uleb128 0xb
 898 00a3 0B       		.uleb128 0xb
 899 00a4 3A       		.uleb128 0x3a
 900 00a5 0B       		.uleb128 0xb
 901 00a6 3B       		.uleb128 0x3b
 902 00a7 05       		.uleb128 0x5
 903 00a8 01       		.uleb128 0x1
 904 00a9 13       		.uleb128 0x13
 905 00aa 00       		.byte	0
 906 00ab 00       		.byte	0
 907 00ac 0D       		.uleb128 0xd
 908 00ad 0D       		.uleb128 0xd
 909 00ae 00       		.byte	0
 910 00af 03       		.uleb128 0x3
 911 00b0 0E       		.uleb128 0xe
 912 00b1 3A       		.uleb128 0x3a
GAS LISTING C:\Users\sw46\AppData\Local\Temp\ccA74MjG.s 			page 17


 913 00b2 0B       		.uleb128 0xb
 914 00b3 3B       		.uleb128 0x3b
 915 00b4 05       		.uleb128 0x5
 916 00b5 49       		.uleb128 0x49
 917 00b6 13       		.uleb128 0x13
 918 00b7 38       		.uleb128 0x38
 919 00b8 0A       		.uleb128 0xa
 920 00b9 00       		.byte	0
 921 00ba 00       		.byte	0
 922 00bb 0E       		.uleb128 0xe
 923 00bc 0D       		.uleb128 0xd
 924 00bd 00       		.byte	0
 925 00be 03       		.uleb128 0x3
 926 00bf 0E       		.uleb128 0xe
 927 00c0 3A       		.uleb128 0x3a
 928 00c1 0B       		.uleb128 0xb
 929 00c2 3B       		.uleb128 0x3b
 930 00c3 05       		.uleb128 0x5
 931 00c4 49       		.uleb128 0x49
 932 00c5 13       		.uleb128 0x13
 933 00c6 00       		.byte	0
 934 00c7 00       		.byte	0
 935 00c8 0F       		.uleb128 0xf
 936 00c9 0D       		.uleb128 0xd
 937 00ca 00       		.byte	0
 938 00cb 49       		.uleb128 0x49
 939 00cc 13       		.uleb128 0x13
 940 00cd 00       		.byte	0
 941 00ce 00       		.byte	0
 942 00cf 10       		.uleb128 0x10
 943 00d0 01       		.uleb128 0x1
 944 00d1 01       		.byte	0x1
 945 00d2 49       		.uleb128 0x49
 946 00d3 13       		.uleb128 0x13
 947 00d4 01       		.uleb128 0x1
 948 00d5 13       		.uleb128 0x13
 949 00d6 00       		.byte	0
 950 00d7 00       		.byte	0
 951 00d8 11       		.uleb128 0x11
 952 00d9 21       		.uleb128 0x21
 953 00da 00       		.byte	0
 954 00db 49       		.uleb128 0x49
 955 00dc 13       		.uleb128 0x13
 956 00dd 2F       		.uleb128 0x2f
 957 00de 0B       		.uleb128 0xb
 958 00df 00       		.byte	0
 959 00e0 00       		.byte	0
 960 00e1 12       		.uleb128 0x12
 961 00e2 13       		.uleb128 0x13
 962 00e3 01       		.byte	0x1
 963 00e4 03       		.uleb128 0x3
 964 00e5 0E       		.uleb128 0xe
 965 00e6 0B       		.uleb128 0xb
 966 00e7 05       		.uleb128 0x5
 967 00e8 3A       		.uleb128 0x3a
 968 00e9 0B       		.uleb128 0xb
 969 00ea 3B       		.uleb128 0x3b
GAS LISTING C:\Users\sw46\AppData\Local\Temp\ccA74MjG.s 			page 18


 970 00eb 05       		.uleb128 0x5
 971 00ec 01       		.uleb128 0x1
 972 00ed 13       		.uleb128 0x13
 973 00ee 00       		.byte	0
 974 00ef 00       		.byte	0
 975 00f0 13       		.uleb128 0x13
 976 00f1 0D       		.uleb128 0xd
 977 00f2 00       		.byte	0
 978 00f3 49       		.uleb128 0x49
 979 00f4 13       		.uleb128 0x13
 980 00f5 38       		.uleb128 0x38
 981 00f6 0A       		.uleb128 0xa
 982 00f7 00       		.byte	0
 983 00f8 00       		.byte	0
 984 00f9 14       		.uleb128 0x14
 985 00fa 2E       		.uleb128 0x2e
 986 00fb 01       		.byte	0x1
 987 00fc 3F       		.uleb128 0x3f
 988 00fd 0C       		.uleb128 0xc
 989 00fe 03       		.uleb128 0x3
 990 00ff 0E       		.uleb128 0xe
 991 0100 3A       		.uleb128 0x3a
 992 0101 0B       		.uleb128 0xb
 993 0102 3B       		.uleb128 0x3b
 994 0103 0B       		.uleb128 0xb
 995 0104 27       		.uleb128 0x27
 996 0105 0C       		.uleb128 0xc
 997 0106 11       		.uleb128 0x11
 998 0107 01       		.uleb128 0x1
 999 0108 12       		.uleb128 0x12
 1000 0109 01       		.uleb128 0x1
 1001 010a 40       		.uleb128 0x40
 1002 010b 06       		.uleb128 0x6
 1003 010c 9742     		.uleb128 0x2117
 1004 010e 0C       		.uleb128 0xc
 1005 010f 01       		.uleb128 0x1
 1006 0110 13       		.uleb128 0x13
 1007 0111 00       		.byte	0
 1008 0112 00       		.byte	0
 1009 0113 15       		.uleb128 0x15
 1010 0114 05       		.uleb128 0x5
 1011 0115 00       		.byte	0
 1012 0116 03       		.uleb128 0x3
 1013 0117 0E       		.uleb128 0xe
 1014 0118 3A       		.uleb128 0x3a
 1015 0119 0B       		.uleb128 0xb
 1016 011a 3B       		.uleb128 0x3b
 1017 011b 0B       		.uleb128 0xb
 1018 011c 49       		.uleb128 0x49
 1019 011d 13       		.uleb128 0x13
 1020 011e 02       		.uleb128 0x2
 1021 011f 06       		.uleb128 0x6
 1022 0120 00       		.byte	0
 1023 0121 00       		.byte	0
 1024 0122 16       		.uleb128 0x16
 1025 0123 34       		.uleb128 0x34
 1026 0124 00       		.byte	0
GAS LISTING C:\Users\sw46\AppData\Local\Temp\ccA74MjG.s 			page 19


 1027 0125 03       		.uleb128 0x3
 1028 0126 08       		.uleb128 0x8
 1029 0127 3A       		.uleb128 0x3a
 1030 0128 0B       		.uleb128 0xb
 1031 0129 3B       		.uleb128 0x3b
 1032 012a 0B       		.uleb128 0xb
 1033 012b 49       		.uleb128 0x49
 1034 012c 13       		.uleb128 0x13
 1035 012d 02       		.uleb128 0x2
 1036 012e 0A       		.uleb128 0xa
 1037 012f 00       		.byte	0
 1038 0130 00       		.byte	0
 1039 0131 17       		.uleb128 0x17
 1040 0132 898201   		.uleb128 0x4109
 1041 0135 01       		.byte	0x1
 1042 0136 11       		.uleb128 0x11
 1043 0137 01       		.uleb128 0x1
 1044 0138 31       		.uleb128 0x31
 1045 0139 13       		.uleb128 0x13
 1046 013a 01       		.uleb128 0x1
 1047 013b 13       		.uleb128 0x13
 1048 013c 00       		.byte	0
 1049 013d 00       		.byte	0
 1050 013e 18       		.uleb128 0x18
 1051 013f 8A8201   		.uleb128 0x410a
 1052 0142 00       		.byte	0
 1053 0143 02       		.uleb128 0x2
 1054 0144 0A       		.uleb128 0xa
 1055 0145 9142     		.uleb128 0x2111
 1056 0147 0A       		.uleb128 0xa
 1057 0148 00       		.byte	0
 1058 0149 00       		.byte	0
 1059 014a 19       		.uleb128 0x19
 1060 014b 898201   		.uleb128 0x4109
 1061 014e 00       		.byte	0
 1062 014f 11       		.uleb128 0x11
 1063 0150 01       		.uleb128 0x1
 1064 0151 31       		.uleb128 0x31
 1065 0152 13       		.uleb128 0x13
 1066 0153 00       		.byte	0
 1067 0154 00       		.byte	0
 1068 0155 1A       		.uleb128 0x1a
 1069 0156 2E       		.uleb128 0x2e
 1070 0157 00       		.byte	0
 1071 0158 3F       		.uleb128 0x3f
 1072 0159 0C       		.uleb128 0xc
 1073 015a 03       		.uleb128 0x3
 1074 015b 0E       		.uleb128 0xe
 1075 015c 3A       		.uleb128 0x3a
 1076 015d 0B       		.uleb128 0xb
 1077 015e 3B       		.uleb128 0x3b
 1078 015f 0B       		.uleb128 0xb
 1079 0160 27       		.uleb128 0x27
 1080 0161 0C       		.uleb128 0xc
 1081 0162 11       		.uleb128 0x11
 1082 0163 01       		.uleb128 0x1
 1083 0164 12       		.uleb128 0x12
GAS LISTING C:\Users\sw46\AppData\Local\Temp\ccA74MjG.s 			page 20


 1084 0165 01       		.uleb128 0x1
 1085 0166 40       		.uleb128 0x40
 1086 0167 0A       		.uleb128 0xa
 1087 0168 9742     		.uleb128 0x2117
 1088 016a 0C       		.uleb128 0xc
 1089 016b 00       		.byte	0
 1090 016c 00       		.byte	0
 1091 016d 1B       		.uleb128 0x1b
 1092 016e 2E       		.uleb128 0x2e
 1093 016f 01       		.byte	0x1
 1094 0170 3F       		.uleb128 0x3f
 1095 0171 0C       		.uleb128 0xc
 1096 0172 03       		.uleb128 0x3
 1097 0173 0E       		.uleb128 0xe
 1098 0174 3A       		.uleb128 0x3a
 1099 0175 0B       		.uleb128 0xb
 1100 0176 3B       		.uleb128 0x3b
 1101 0177 05       		.uleb128 0x5
 1102 0178 27       		.uleb128 0x27
 1103 0179 0C       		.uleb128 0xc
 1104 017a 3C       		.uleb128 0x3c
 1105 017b 0C       		.uleb128 0xc
 1106 017c 01       		.uleb128 0x1
 1107 017d 13       		.uleb128 0x13
 1108 017e 00       		.byte	0
 1109 017f 00       		.byte	0
 1110 0180 1C       		.uleb128 0x1c
 1111 0181 05       		.uleb128 0x5
 1112 0182 00       		.byte	0
 1113 0183 49       		.uleb128 0x49
 1114 0184 13       		.uleb128 0x13
 1115 0185 00       		.byte	0
 1116 0186 00       		.byte	0
 1117 0187 1D       		.uleb128 0x1d
 1118 0188 2E       		.uleb128 0x2e
 1119 0189 00       		.byte	0
 1120 018a 3F       		.uleb128 0x3f
 1121 018b 0C       		.uleb128 0xc
 1122 018c 03       		.uleb128 0x3
 1123 018d 0E       		.uleb128 0xe
 1124 018e 3A       		.uleb128 0x3a
 1125 018f 0B       		.uleb128 0xb
 1126 0190 3B       		.uleb128 0x3b
 1127 0191 05       		.uleb128 0x5
 1128 0192 27       		.uleb128 0x27
 1129 0193 0C       		.uleb128 0xc
 1130 0194 49       		.uleb128 0x49
 1131 0195 13       		.uleb128 0x13
 1132 0196 3C       		.uleb128 0x3c
 1133 0197 0C       		.uleb128 0xc
 1134 0198 00       		.byte	0
 1135 0199 00       		.byte	0
 1136 019a 00       		.byte	0
 1137              		.section	.debug_loc,"",@progbits
 1138              	.Ldebug_loc0:
 1139              	.LLST0:
 1140 0000 00000000 		.4byte	.LFB2
GAS LISTING C:\Users\sw46\AppData\Local\Temp\ccA74MjG.s 			page 21


 1141 0004 00000000 		.4byte	.LCFI0
 1142 0008 0002     		.2byte	0x2
 1143 000a 71       		.byte	0x71
 1144 000b 00       		.sleb128 0
 1145 000c 00000000 		.4byte	.LCFI0
 1146 0010 00000000 		.4byte	.LCFI1
 1147 0014 0002     		.2byte	0x2
 1148 0016 71       		.byte	0x71
 1149 0017 10       		.sleb128 16
 1150 0018 00000000 		.4byte	.LCFI1
 1151 001c 00000000 		.4byte	.LFE2
 1152 0020 0002     		.2byte	0x2
 1153 0022 71       		.byte	0x71
 1154 0023 00       		.sleb128 0
 1155 0024 00000000 		.4byte	0
 1156 0028 00000000 		.4byte	0
 1157              	.LLST1:
 1158 002c 00000000 		.4byte	.LVL0
 1159 0030 00000000 		.4byte	.LVL1
 1160 0034 0001     		.2byte	0x1
 1161 0036 53       		.byte	0x53
 1162 0037 00000000 		.4byte	.LVL1
 1163 003b 00000000 		.4byte	.LVL5
 1164 003f 0001     		.2byte	0x1
 1165 0041 6F       		.byte	0x6f
 1166 0042 00000000 		.4byte	.LVL5
 1167 0046 00000000 		.4byte	.LFE2
 1168 004a 0004     		.2byte	0x4
 1169 004c F3       		.byte	0xf3
 1170 004d 01       		.uleb128 0x1
 1171 004e 53       		.byte	0x53
 1172 004f 9F       		.byte	0x9f
 1173 0050 00000000 		.4byte	0
 1174 0054 00000000 		.4byte	0
 1175              		.section	.debug_aranges,"",@progbits
 1176 0000 00000024 		.4byte	0x24
 1177 0004 0002     		.2byte	0x2
 1178 0006 00000000 		.4byte	.Ldebug_info0
 1179 000a 04       		.byte	0x4
 1180 000b 00       		.byte	0
 1181 000c 0000     		.2byte	0
 1182 000e 0000     		.2byte	0
 1183 0010 00000000 		.4byte	.LFB2
 1184 0014 0000005A 		.4byte	.LFE2-.LFB2
 1185 0018 00000000 		.4byte	.LFB3
 1186 001c 0000001E 		.4byte	.LFE3-.LFB3
 1187 0020 00000000 		.4byte	0
 1188 0024 00000000 		.4byte	0
 1189              		.section	.debug_ranges,"",@progbits
 1190              	.Ldebug_ranges0:
 1191 0000 00000000 		.4byte	.LFB2
 1192 0004 00000000 		.4byte	.LFE2
 1193 0008 00000000 		.4byte	.LFB3
 1194 000c 00000000 		.4byte	.LFE3
 1195 0010 00000000 		.4byte	0
 1196 0014 00000000 		.4byte	0
 1197              		.section	.debug_line,"",@progbits
GAS LISTING C:\Users\sw46\AppData\Local\Temp\ccA74MjG.s 			page 22


 1198              	.Ldebug_line0:
 1199 0000 00000242 		.section	.debug_str,"MS",@progbits,1
 1199      00020000 
 1199      02120201 
 1199      FB0E0D00 
 1199      01010101 
 1200              	.LASF21:
 1201 0000 5049545F 		.string	"PIT_RTI_LDVAL_32B_tag"
 1201      5254495F 
 1201      4C445641 
 1201      4C5F3332 
 1201      425F7461 
 1202              	.LASF45:
 1203 0016 54464C47 		.string	"TFLG3"
 1203      3300
 1204              	.LASF42:
 1205 001c 4C445641 		.string	"LDVAL3"
 1205      4C3300
 1206              	.LASF25:
 1207 0023 4C445641 		.string	"LDVAL"
 1207      4C00
 1208              	.LASF13:
 1209 0029 696E7438 		.string	"int8_t"
 1209      5F7400
 1210              	.LASF46:
 1211 0030 4348414E 		.string	"CHANNEL"
 1211      4E454C00 
 1212              	.LASF4:
 1213 0038 73686F72 		.string	"short int"
 1213      7420696E 
 1213      7400
 1214              	.LASF48:
 1215 0042 5049545F 		.string	"PIT_RTI_struct_tag"
 1215      5254495F 
 1215      73747275 
 1215      63745F74 
 1215      616700
 1216              	.LASF8:
 1217 0055 5F5F7569 		.string	"__uint32_t"
 1217      6E743332 
 1217      5F7400
 1218              	.LASF24:
 1219 0060 5049545F 		.string	"PIT_RTI_TFLG_32B_tag"
 1219      5254495F 
 1219      54464C47 
 1219      5F333242 
 1219      5F746167 
 1220              	.LASF5:
 1221 0075 5F5F7569 		.string	"__uint16_t"
 1221      6E743136 
 1221      5F7400
 1222              	.LASF14:
 1223 0080 75696E74 		.string	"uint8_t"
 1223      385F7400 
 1224              	.LASF29:
 1225 0088 5049545F 		.string	"PIT_RTI_CHANNEL_tag"
 1225      5254495F 
GAS LISTING C:\Users\sw46\AppData\Local\Temp\ccA74MjG.s 			page 23


 1225      4348414E 
 1225      4E454C5F 
 1225      74616700 
 1226              	.LASF55:
 1227 009c 73797354 		.string	"sysTimeSetup"
 1227      696D6553 
 1227      65747570 
 1227      00
 1228              	.LASF10:
 1229 00a9 6C6F6E67 		.string	"long long int"
 1229      206C6F6E 
 1229      6720696E 
 1229      7400
 1230              	.LASF27:
 1231 00b7 54435452 		.string	"TCTRL"
 1231      4C00
 1232              	.LASF41:
 1233 00bd 54464C47 		.string	"TFLG2"
 1233      3200
 1234              	.LASF30:
 1235 00c3 4C445641 		.string	"LDVAL0"
 1235      4C3000
 1236              	.LASF34:
 1237 00ca 4C445641 		.string	"LDVAL1"
 1237      4C3100
 1238              	.LASF38:
 1239 00d1 4C445641 		.string	"LDVAL2"
 1239      4C3200
 1240              	.LASF1:
 1241 00d8 5F5F7569 		.string	"__uint8_t"
 1241      6E74385F 
 1241      7400
 1242              	.LASF23:
 1243 00e2 5049545F 		.string	"PIT_RTI_TCTRL_32B_tag"
 1243      5254495F 
 1243      54435452 
 1243      4C5F3332 
 1243      425F7461 
 1244              	.LASF49:
 1245 00f8 5049544D 		.string	"PITMCR"
 1245      435200
 1246              	.LASF3:
 1247 00ff 756E7369 		.string	"unsigned char"
 1247      676E6564 
 1247      20636861 
 1247      7200
 1248              	.LASF32:
 1249 010d 54435452 		.string	"TCTRL0"
 1249      4C3000
 1250              	.LASF36:
 1251 0114 54435452 		.string	"TCTRL1"
 1251      4C3100
 1252              	.LASF40:
 1253 011b 54435452 		.string	"TCTRL2"
 1253      4C3200
 1254              	.LASF50:
 1255 0122 5049545F 		.string	"PIT_RTI_reserved_0004_C"
GAS LISTING C:\Users\sw46\AppData\Local\Temp\ccA74MjG.s 			page 24


 1255      5254495F 
 1255      72657365 
 1255      72766564 
 1255      5F303030 
 1256              	.LASF2:
 1257 013a 7369676E 		.string	"signed char"
 1257      65642063 
 1257      68617200 
 1258              	.LASF11:
 1259 0146 6C6F6E67 		.string	"long long unsigned int"
 1259      206C6F6E 
 1259      6720756E 
 1259      7369676E 
 1259      65642069 
 1260              	.LASF16:
 1261 015d 75696E74 		.string	"uint32_t"
 1261      33325F74 
 1261      00
 1262              	.LASF12:
 1263 0166 756E7369 		.string	"unsigned int"
 1263      676E6564 
 1263      20696E74 
 1263      00
 1264              	.LASF15:
 1265 0173 75696E74 		.string	"uint16_t"
 1265      31365F74 
 1265      00
 1266              	.LASF19:
 1267 017c 4D444953 		.string	"MDIS"
 1267      00
 1268              	.LASF52:
 1269 0181 474E5520 		.string	"GNU C 4.9.2 20141030 (Mon Nov 23 22:27:42 EST 2015         build.sh rev= ELvle) -mcall-sy
 1269      4320342E 
 1269      392E3220 
 1269      32303134 
 1269      31303330 
 1270              	.LASF6:
 1271 0281 73686F72 		.string	"short unsigned int"
 1271      7420756E 
 1271      7369676E 
 1271      65642069 
 1271      6E7400
 1272              	.LASF0:
 1273 0294 5F5F696E 		.string	"__int8_t"
 1273      74385F74 
 1273      00
 1274              	.LASF56:
 1275 029d 7469636B 		.string	"ticks_per_sec"
 1275      735F7065 
 1275      725F7365 
 1275      6300
 1276              	.LASF7:
 1277 02ab 6C6F6E67 		.string	"long int"
 1277      20696E74 
 1277      00
 1278              	.LASF54:
 1279 02b4 433A5C55 		.string	"C:\\Users\\sw46\\Documents\\SPCStudio v5.0\\SPC564L_RLA_Motor_Control_Demo_Application"
GAS LISTING C:\Users\sw46\AppData\Local\Temp\ccA74MjG.s 			page 25


 1279      73657273 
 1279      5C737734 
 1279      365C446F 
 1279      63756D65 
 1280              	.LASF17:
 1281 0306 7675696E 		.string	"vuint32_t"
 1281      7433325F 
 1281      7400
 1282              	.LASF26:
 1283 0310 4356414C 		.string	"CVAL"
 1283      00
 1284              	.LASF57:
 1285 0315 73797354 		.string	"sysTimeReset"
 1285      696D6552 
 1285      65736574 
 1285      00
 1286              	.LASF9:
 1287 0322 6C6F6E67 		.string	"long unsigned int"
 1287      20756E73 
 1287      69676E65 
 1287      6420696E 
 1287      7400
 1288              	.LASF31:
 1289 0334 4356414C 		.string	"CVAL0"
 1289      3000
 1290              	.LASF35:
 1291 033a 4356414C 		.string	"CVAL1"
 1291      3100
 1292              	.LASF39:
 1293 0340 4356414C 		.string	"CVAL2"
 1293      3200
 1294              	.LASF53:
 1295 0346 2E2F636F 		.string	"./components/spc56elxx_osal_component_rla/lib/src/systimer.c"
 1295      6D706F6E 
 1295      656E7473 
 1295      2F737063 
 1295      3536656C 
 1296              	.LASF58:
 1297 0383 53504353 		.string	"SPCSetPeripheralClockMode"
 1297      65745065 
 1297      72697068 
 1297      6572616C 
 1297      436C6F63 
 1298              	.LASF22:
 1299 039d 5049545F 		.string	"PIT_RTI_CVAL_32B_tag"
 1299      5254495F 
 1299      4356414C 
 1299      5F333242 
 1299      5F746167 
 1300              	.LASF44:
 1301 03b2 54435452 		.string	"TCTRL3"
 1301      4C3300
 1302              	.LASF59:
 1303 03b9 53504347 		.string	"SPCGetSystemClock"
 1303      65745379 
 1303      7374656D 
 1303      436C6F63 
GAS LISTING C:\Users\sw46\AppData\Local\Temp\ccA74MjG.s 			page 26


 1303      6B00
 1304              	.LASF20:
 1305 03cb 5049545F 		.string	"PIT_RTI_PITMCR_32B_tag"
 1305      5254495F 
 1305      5049544D 
 1305      43525F33 
 1305      32425F74 
 1306              	.LASF18:
 1307 03e2 73697A65 		.string	"sizetype"
 1307      74797065 
 1307      00
 1308              	.LASF28:
 1309 03eb 54464C47 		.string	"TFLG"
 1309      00
 1310              	.LASF47:
 1311 03f0 5049545F 		.string	"PIT_RTI_CHANNEL_struct_tag"
 1311      5254495F 
 1311      4348414E 
 1311      4E454C5F 
 1311      73747275 
 1312              	.LASF51:
 1313 040b 5049545F 		.string	"PIT_RTI_tag"
 1313      5254495F 
 1313      74616700 
 1314              	.LASF43:
 1315 0417 4356414C 		.string	"CVAL3"
 1315      3300
 1316              	.LASF33:
 1317 041d 54464C47 		.string	"TFLG0"
 1317      3000
 1318              	.LASF37:
 1319 0423 54464C47 		.string	"TFLG1"
 1319      3100
 1320              		.ident	"GCC: (GNU) 4.9.2 20141030 (Mon Nov 23 22:27:42 EST 2015         build.sh rev= ELvle)"
GAS LISTING C:\Users\sw46\AppData\Local\Temp\ccA74MjG.s 			page 27


DEFINED SYMBOLS
                            *ABS*:00000000 systimer.c
C:\Users\sw46\AppData\Local\Temp\ccA74MjG.s:10     .text.sysTimeSetup:00000000 sysTimeSetup
C:\Users\sw46\AppData\Local\Temp\ccA74MjG.s:74     .text.sysTimeReset:00000000 sysTimeReset

UNDEFINED SYMBOLS
SPCSetPeripheralClockMode
SPCGetSystemClock
